Name,Place,Division,Sex,Equipment,State,WeightClassKg,BodyweightKg,Age,Best3SquatKg,Best3BenchKg,Best3DeadliftKg,TotalKg,Event
Jasmine Luning,1,Juniors 16-17,F,Raw,FL,44,42.32,16,37.5,27.5,67.5,132.5,SBD
Celeste Vallejo,1,Juniors 20-23,F,Raw,FL,52,51.80,23,75,57.5,97.5,230,SBD
Ally Douglass,1,Juniors 20-23,F,Raw,FL,56,55.88,22,123.5,67.5,155.5,346.5,SBD
Amber Luning,1,Juniors 13-15,F,Raw,FL,90,84.19,14,77.5,45,100,222.5,SBD
Payal Ghosh,1,Open,F,Raw,FL,48,47.31,29,95,50,155,300,SBD
Jennifer Mitzenmacher,2,Open,F,Raw,FL,48,45.90,28,87.5,57.5,130,275,SBD
Gaudy Herring,1,Open,F,Raw,FL,60,59.56,37,82.5,57.5,110,250,SBD
Jeanne Pineau Kairys,1,Open,F,Raw,FL,67.5,65.41,24,145,85,135,365,SBD
Melissa Wakefield,2,Open,F,Raw,FL,67.5,66.18,26,90,50,122.5,262.5,SBD
Natalia Martinez,1,Open,F,Raw,FL,75,74.93,26,135,82.5,162.5,380,SBD
Lissette Cornejo,2,Open,F,Raw,FL,75,70.85,24,115,55,137.5,307.5,SBD
Gillian Perkins,1,Open,F,Raw,FL,82.5,81.15,29,112.5,62.5,127.5,302.5,SBD
Natalie Anton,1,Open,F,Raw,FL,90+,102.42,27,142.5,72.5,157.5,372.5,SBD
Rita Black,1,Submasters 35-39,F,Raw,FL,75,72.80,35,67.5,45,152.5,265,SBD
Deana Powers,1,Submasters 35-39,F,Raw,FL,90+,101.83,36,87.5,52.5,112.5,252.5,SBD
Brenda Christine,1,Masters 45-49,F,Raw,FL,56,55.61,46,110,60,140,310,SBD
Jodi Munao,1,Masters 50-54,F,Raw,FL,56,55.84,50,65,45,90,200,SBD
Enza Denino,1,Masters 45-49,F,Raw,FL,67.5,67.18,47,82.5,50,107.5,240,SBD
Angelo Camelo,1,Juniors 20-23,M,Raw,FL,75,74.93,22,165,117.5,182.5,465,SBD
Matt Haney,2,Juniors 20-23,M,Raw,FL,75,73.75,20,142.5,127.5,80,350,SBD
Miguel Velez,1,Juniors 20-23,M,Raw,FL,82.5,80.42,21,215,132.5,230,577.5,SBD
Steven Hanna,2,Juniors 20-23,M,Raw,FL,82.5,78.97,23,182.5,115,230,527.5,SBD
Kevin Cheshire,3,Juniors 20-23,M,Raw,FL,82.5,75.66,22,182.5,127.5,200,510,SBD
Brian Johnson,4,Juniors 20-23,M,Raw,FL,82.5,78.74,22,162.5,120,220,502.5,SBD
Sean McCormick,5,Juniors 20-23,M,Raw,FL,82.5,79.70,22,157.5,115,172.5,445,SBD
Jake Suggs,1,Juniors 20-23,M,Raw,FL,90,87.18,21,167.5,107.5,237.5,512.5,SBD
Alan Cherne,2,Juniors 20-23,M,Raw,FL,90,85.41,23,185,107.5,210,502.5,SBD
Ryan Sullivan,3,Juniors 20-23,M,Raw,FL,90,86.32,21,182.5,120,197.5,500,SBD
Patrick Dunbar,4,Juniors 20-23,M,Raw,FL,90,85.09,20,140,117.5,192.5,450,SBD
Daniel Cheshire,1,Juniors 18-19,M,Raw,GA,110,107.37,19,250,152.5,245,647.5,SBD
Nick Israel,1,Open,M,Raw,FL,75,74.93,26,240,182.5,265,687.5,SBD
Thomas Finocan,2,Open,M,Raw,FL,75,74.25,27,205,115,102.5,422.5,SBD
Thomas Knight,1,Open,M,Raw,FL,82.5,81.65,22,247.5,152.5,227.5,627.5,SBD
Trevor Jaffe,1,Open,M,Raw,FL,90,89.09,35,252.5,155,305,712.5,SBD
Patrick O'Reilly,2,Open,M,Raw,FL,90,89.58,27,202.5,147.5,272.5,622.5,SBD
Eric Blanco,3,Open,M,Raw,FL,90,85.18,25,200,150,245,595,SBD
Nicholas Bevelock,4,Open,M,Raw,FL,90,88.00,23,192.5,142.5,247.5,582.5,SBD
Luis Guillermers,DQ,Open,M,Raw,FL,90,88.68,34,142.5,-102.5,205,,SBD
Jared Skinner,1,Open,M,Raw,FL,100,99.02,27,280,177.5,300,757.5,SBD
Brian Hopper,1,Open,M,Raw,FL,110,108.59,31,320,207.5,340,867.5,SBD
Ryan Conley,2,Open,M,Raw,FL,110,107.77,24,265,187.5,305,757.5,SBD
Matt Kalkbrenner,3,Open,M,Raw,FL,110,106.68,27,220,170,267.5,657.5,SBD
Robert Melgar,1,Submasters 35-39,M,Raw,FL,100,98.02,35,185,170,230,585,SBD
Ruben Quinones,2,Submasters 35-39,M,Raw,FL,100,96.66,35,192.5,142.5,232.5,567.5,SBD
John Kleckner,DQ,Submasters 35-39,M,Raw,FL,100,90.26,36,-175,130,222.5,,SBD
Shawn Woolcock,1,Submasters 35-39,M,Raw,FL,110,108.68,37,210,142.5,225,577.5,SBD
Ted Ford,1,Masters 45-49,M,Raw,FL,82.5,82.24,47,115,97.5,187.5,400,SBD
Sara Berlin,1,Jr 20-23,F,Wraps,FL,90+,124.15,23,202.5,90,190,482.5,SBD
April Shumaker,1,Open,F,Wraps,FL,48,47.49,48,135,103,150.5,388.5,SBD
Paulo Sevick,1,Juniors 16-17,M,Wraps,FL,100,93.58,16,205,150,227.5,582.5,SBD
Hons Hinnershitz,1,Juniors 20-23,M,Wraps,FL,100,99.34,22,257.5,177.5,280,715,SBD
Justin Sullivan,2,Juniors 20-23,M,Wraps,FL,100,97.43,20,245,165,255,665,SBD
Zachary Fairchild,3,Juniors 20-23,M,Wraps,FL,100,96.75,20,192.5,142.5,205,540,SBD
James McGrath,1,Juniors 20-23,M,Wraps,FL,125,124.69,22,285,157.5,297.5,740,SBD
Jovan Montalvo,1,Open,M,Wraps,FL,60,60,25,182.5,102.5,172.5,457.5,SBD
Vincent Yacuzzi Jr,1,Open,M,Wraps,FL,67.5,67.13,26,190,122.5,238,550.5,SBD
Israel Hernandez,1,Open,M,Wraps,FL,82.5,80.06,34,235,147.5,227.5,610,SBD
Brent Hartley,2,Open,M,Wraps,FL,82.5,77.97,27,210,137.5,227.5,575,SBD
Peter Tsao,1,Open,M,Wraps,FL,90,87.54,25,277.5,137.5,290,705,SBD
John Hollier,1,Open,M,Wraps,FL,100,98.16,27,260,177.5,237.5,675,SBD
Matt Levine,2,Open,M,Wraps,FL,100,97.70,27,282.5,160,225,667.5,SBD
John Hallman,1,Open,M,Wraps,FL,110,107.86,32,320,182.5,297.5,800,SBD
Mark Michael,2,Open,M,Wraps,FL,110,105.91,24,210,117.5,217.5,545,SBD
Michael DeLaPava,1,Open,M,Wraps,FL,125,111.99,30,245,170,285,700,SBD
Exson Rodriguez,1,Open,M,Wraps,FL,140,134.94,36,330,205,327.5,862.5,SBD
Al Laporte,1,Masters 50-54,M,Wraps,FL,100,98.61,52,235,182.5,255,672.5,SBD
Gabe Rizzo,DQ,Open,M,Single-ply,FL,90,87.00,23,257.5,182.5,-250,,SBD
Charles Pressley,1,Masters 45-49,M,Single-ply,FL,90,88.63,49,240,157.5,230,627.5,SBD
Brian Highnote,1,Open,M,Multi-ply,FL,90,89.90,40,295,205,272.5,772.5,SBD
Harper Giles,1,Juniors 13-15,M,Raw,FL,75,74.03,14,,80,,80,B
Branden Buswell,1,Juniors 13-15,M,Raw,FL,90,89.27,14,,120,,120,B
Andrew Ardeljah,1,Juniors 20-23,M,Raw,FL,90,88.90,20,,172.5,,172.5,B
Dustin Washington,1,Open,M,Raw,FL,60,59.78,25,,105,,105,B
Richard Ficca,1,Open,M,Raw,FL,140+,148.23,39,,275,,275,B
Richard Ficca,1,Submasters 35-39,M,Raw,FL,140+,148.23,39,,275,,275,B
Todd Hibbard,1,Masters 40-44,M,Raw,FL,75,74.75,42,,132.5,,132.5,B
James Richards,1,Masters 45-49,M,Raw,FL,75,73.71,49,,150,,150,B
Scott Willis,1,Masters 50-54,M,Raw,FL,100,95.75,50,,110,,110,B
James Walker,1,Masters 55-59,M,Raw,FL,100,99.79,56,,177.5,,177.5,B
Mike Marasco,1,Masters 45-49,M,Raw,FL,125,122.29,48,,165,,165,B
Jaclyn Pressley,1,Submasters 35-39,F,Single-ply,FL,82.5,79.11,35,,95,,95,B
Jim Hoskinson,1,Open,M,Single-ply,FL,140,134.44,49,,310,,310,B
Jimmy McDonald,1,Masters 55-59,M,Raw,FL,100,97.84,56,,,255,255,D
Dustin Piatkowski,1,Open,M,Raw,FL,100,98.61,31,,140,240,380,BD
Brian Dolan,1,Open,M,Raw,FL,140,128.59,43,,150,215,365,BD
