Division,WeightClassKg,Place,Name,Team,BodyweightKg,Best3SquatKg,Best3BenchKg,Best3DeadliftKg,TotalKg,Equipment,Event,Sex
Boys,52,1,Darrian Butler,Denison,50.8,122.47,65.77,142.88,331.12,Single-ply,SBD,M
Boys,52,2,Dax Irvin,Pottsboro,51.71,129.27,68.04,133.81,331.12,Single-ply,SBD,M
Boys,52,3,Josh Brinkley,Muenster,46.45,90.72,45.36,90.72,226.8,Single-ply,SBD,M
Boys,52,4,Richard Spence,Bells,42,83.91,45.36,83.91,213.19,Single-ply,SBD,M
Boys,52,5,Ethan Ramey,Tom Bean,45.99,63.5,40.82,63.5,167.83,Single-ply,SBD,M
Boys,52,6,Colby Caldwell,Celina,51.53,61.23,29.48,61.23,151.95,Single-ply,SBD,M
Boys,52,7,Brandon Garcia,Bells,48.99,61.23,,74.84,136.08,Single-ply,SD,M
Boys,56,1,Austin Mullinex,Sadler S & S Cons,52.25,113.4,68.04,136.08,317.51,Single-ply,SBD,M
Boys,56,2,Adam Mendoza,Pilot Point,53.34,95.25,49.9,122.47,267.62,Single-ply,SBD,M
Boys,56,DQ,Tommy Bottoms,Pilot Point,51.89,95.25,,,,Single-ply,SBD,M
Boys,56,DQ,Trey Good,Anna,55.79,145.15,,,,Single-ply,SBD,M
Boys,60,1,Wilson Kirkbride,Denison,59.87,185.97,104.33,192.78,483.08,Single-ply,SBD,M
Boys,60,2,Chris Bowling,Blue Ridge,59.78,147.42,102.06,149.69,399.16,Single-ply,SBD,M
Boys,60,3,Enrique Colmenero,Pilot Point,57.7,117.93,56.7,161.03,335.66,Single-ply,SBD,M
Boys,60,4,Spencer Akins,Howe,58.15,136.08,72.57,122.47,331.12,Single-ply,SBD,M
Boys,60,5,Travis Bishop,Blue Ridge,58.69,111.13,65.77,138.35,315.25,Single-ply,SBD,M
Boys,60,6,Joseph Lewis,Bells,56.88,90.72,65.77,111.13,267.62,Single-ply,SBD,M
Boys,60,7,Nathan Hacker,Muenster,57.24,74.84,,90.72,165.56,Single-ply,SD,M
Boys,67.5,1,Jake Ratcliff,Denison,66.41,172.37,86.18,199.58,458.13,Single-ply,SBD,M
Boys,67.5,2,Johnathan Venable,Anna,61.23,165.56,104.33,163.29,433.18,Single-ply,SBD,M
Boys,67.5,3,Baldemar Carbajal,Sherman,60.87,156.49,102.06,172.37,430.91,Single-ply,SBD,M
Boys,67.5,4,Ryan Slagle,Pottsboro,67.13,170.1,97.52,163.29,430.91,Single-ply,SBD,M
Boys,67.5,5,Jonathan Harris,Whitesboro,61.23,106.59,83.91,149.69,340.19,Single-ply,SBD,M
Boys,67.5,6,Derek Thacker,Valley View,63.05,136.08,65.77,124.74,326.59,Single-ply,SBD,M
Boys,67.5,7,Cash Little,Bells,64.77,113.4,61.23,131.54,306.17,Single-ply,SBD,M
Boys,67.5,8,Micah Henson,Pilot Point,66.68,124.74,61.23,117.93,303.91,Single-ply,SBD,M
Boys,67.5,9,Sergio Portillo,Pilot Point,67.13,113.4,63.5,117.93,294.84,Single-ply,SBD,M
Boys,67.5,10,Tony Karleskint,Tom Bean,65.5,79.38,56.7,138.35,274.42,Single-ply,SBD,M
Boys,67.5,DQ,Jeremy Holliday,Celina,65.05,129.27,88.45,,,Single-ply,SBD,M
Boys,75,1,Ty Slaughter,Anna,73.21,254.01,158.76,235.87,648.64,Single-ply,SBD,M
Boys,75,2,Michael Wallace,Sherman,72.12,183.7,92.99,174.63,451.32,Single-ply,SBD,M
Boys,75,3,Devante Clayton,Sherman,69.04,163.29,92.99,181.44,437.72,Single-ply,SBD,M
Boys,75,4,Khalil Finley,Denison,71.76,151.95,102.06,174.63,428.64,Single-ply,SBD,M
Boys,75,5,Logan Rodriguez,Anna,74.12,161.03,90.72,161.03,412.77,Single-ply,SBD,M
Boys,75,6,Dylan Robertson,Pottsboro,74.48,124.74,88.45,165.56,378.75,Single-ply,SBD,M
Boys,75,7,Trevor Coglon,Bells,74.66,142.88,79.38,133.81,356.07,Single-ply,SBD,M
Boys,75,8,Wade Rolen,Bells,70.03,138.35,63.5,145.15,347,Single-ply,SBD,M
Boys,75,9,Jaden Mathews,Howe,73.48,181.44,,151.95,333.39,Single-ply,SD,M
Boys,75,10,Jarrod Foxworth,Bells,73.3,127.01,61.23,142.88,331.12,Single-ply,SBD,M
Boys,75,11,Alex Esparza,Pottsboro,72.12,113.4,56.7,120.2,290.3,Single-ply,SBD,M
Boys,75,12,Brennan Binder,Muenster,73.21,136.08,,142.88,278.96,Single-ply,SD,M
Boys,75,13,Ethan Flamming,Muenster,72.48,113.4,,127.01,240.4,Single-ply,SD,M
Boys,75,14,Bryson Wagoner,Celina,67.86,61.23,56.7,102.06,219.99,Single-ply,SBD,M
Boys,82.5,1,Mason Riggs,Howe,77.93,161.03,99.79,181.44,442.25,Single-ply,SBD,M
Boys,82.5,2,Joseph Villanueva,Blue Ridge,76.2,142.88,92.99,158.76,394.63,Single-ply,SBD,M
Boys,82.5,3,Carson Cheaney,Muenster,77.56,147.42,72.57,161.03,381.02,Single-ply,SBD,M
Boys,82.5,4,Kendrick McAdams,Howe,78.74,136.08,63.5,167.83,367.41,Single-ply,SBD,M
Boys,82.5,5,Jarrett Ryon,Bells,79.83,124.74,83.91,136.08,344.73,Single-ply,SBD,M
Boys,82.5,6,Kyle Gray,Pottsboro,79.65,122.47,70.31,142.88,335.66,Single-ply,SBD,M
Boys,82.5,7,Dean Waltersheid,Muenster,79.47,145.15,,149.69,294.84,Single-ply,SD,M
Boys,90,1,Diego Puga,Pilot Point,88.81,199.58,113.4,226.8,539.77,Single-ply,SBD,M
Boys,90,2,Brandon Murphy,Whitesboro,84.82,219.99,113.4,199.58,532.97,Single-ply,SBD,M
Boys,90,3,James Baker,Whitesboro,87.54,185.97,117.93,181.44,485.34,Single-ply,SBD,M
Boys,90,4,Hunter Bigelow,Denison,86.18,170.1,97.52,192.78,460.4,Single-ply,SBD,M
Boys,90,5,Nate Patterson,Collinsville,86.64,154.22,83.91,181.44,419.57,Single-ply,SBD,M
Boys,90,6,Wyatt Gabel,Celina,88.54,142.88,102.06,174.63,419.57,Single-ply,SBD,M
Boys,90,7,Miguel Bravo,Valley View,87.27,158.76,83.91,156.49,399.16,Single-ply,SBD,M
Boys,90,8,Brody Wiggins,Blue Ridge,89.36,149.69,92.99,142.88,385.55,Single-ply,SBD,M
Boys,90,9,Jonathan Paudlina,Celina,89.81,133.81,86.18,154.22,374.21,Single-ply,SBD,M
Boys,90,10,Evan Billmeier,Pilot Point,89.18,142.88,77.11,142.88,362.87,Single-ply,SBD,M
Boys,90,11,Tanner Young,Whitesboro,87.36,136.08,92.99,122.47,351.53,Single-ply,SBD,M
Boys,90,12,Jace Greening,Celina,83.82,129.27,90.72,129.27,349.27,Single-ply,SBD,M
Boys,90,13,Nathan Duffee,Howe,89.18,122.47,77.11,127.01,326.59,Single-ply,SBD,M
Boys,90,14,Ezequiel Trego,Pilot Point,89.72,215.46,104.33,,319.78,Single-ply,SB,M
Boys,90,15,Brandon Hubert,Pottsboro,86.64,108.86,65.77,136.08,310.71,Single-ply,SBD,M
Boys,90,16,Angel Medina,Bells,87.91,102.06,86.18,106.59,294.84,Single-ply,SBD,M
Boys,100,1,Bowen Kirkbride,Denison,90.72,260.82,158.76,244.94,664.51,Single-ply,SBD,M
Boys,100,2,Jacob Taylor,Howe,96.98,201.85,122.47,226.8,551.11,Single-ply,SBD,M
Boys,100,3,Gavin Rowe,Blue Ridge,96.25,172.37,138.35,204.12,514.83,Single-ply,SBD,M
Boys,100,4,Cervando Vargas,Pilot Point,95.35,181.44,127.01,151.95,460.4,Single-ply,SBD,M
Boys,100,5,Caleb Williams,Pilot Point,94.17,165.56,113.4,163.29,442.25,Single-ply,SBD,M
Boys,100,6,Jaden Powell,Bells,96.34,124.74,117.93,167.83,410.5,Single-ply,SBD,M
Boys,100,7,Evin Hughes,Bells,99.06,142.88,92.99,165.56,401.43,Single-ply,SBD,M
Boys,100,8,Erik Gonzalez,Valley View,95.44,129.27,95.25,124.74,349.27,Single-ply,SBD,M
Boys,100,9,Landon Cook,Tom Bean,92.08,81.65,63.5,106.59,251.74,Single-ply,SBD,M
Boys,100,DQ,Tristan Mathews,Howe,97.61,238.14,127.01,,,Single-ply,SBD,M
Boys,110,1,Rey Lomas,Valley View,101.24,260.82,120.2,190.51,571.53,Single-ply,SBD,M
Boys,110,2,Justin Nichols,Sherman,101.51,213.19,138.35,188.24,539.77,Single-ply,SBD,M
Boys,110,3,Julien Landin,Denison,100.52,183.7,111.13,204.12,498.95,Single-ply,SBD,M
Boys,110,4,Garrett Holcombe,Denison,106.41,192.78,120.2,183.7,496.68,Single-ply,SBD,M
Boys,110,5,Tyler Scott,Pilot Point,101.42,195.04,108.86,183.7,487.61,Single-ply,SBD,M
Boys,110,6,Dillon Garcia,Anna,105.96,174.63,99.79,163.29,437.72,Single-ply,SBD,M
Boys,110,7,Alex Rangel,Celina,107.59,201.85,95.25,140.61,437.72,Single-ply,SBD,M
Boys,110,8,Elijah Ramer,Celina,109.32,124.74,,156.49,281.23,Single-ply,SD,M
Boys,110,9,Alec Narro,Tom Bean,108.77,165.56,90.72,,256.28,Single-ply,SB,M
Boys,110,10,Chris Garrison,Howe,101.51,,83.91,142.88,226.8,Single-ply,BD,M
Boys,125,1,Carlos Giron,Pilot Point,123.29,247.21,172.37,251.74,671.32,Single-ply,SBD,M
Boys,125,2,Russell Carey,Whitesboro,118.84,240.4,124.74,219.99,585.13,Single-ply,SBD,M
Boys,125,3,Josh Schnitker,Sherman,124.1,199.58,158.76,208.65,566.99,Single-ply,SBD,M
Boys,125,4,Jeran Lewis,Anna,116.57,174.63,129.27,206.38,510.29,Single-ply,SBD,M
Boys,125,5,Hayden Hayes,Sherman,110.59,179.17,131.54,188.24,498.95,Single-ply,SBD,M
Boys,125,6,Matt Hagan,Tom Bean,112.58,181.44,79.38,174.63,435.45,Single-ply,SBD,M
Boys,125,7,Thomas Smith,Pottsboro,111.4,170.1,97.52,142.88,410.5,Single-ply,SBD,M
Boys,125,8,Esteban Cervantes,Valley View,118.93,136.08,90.72,181.44,408.23,Single-ply,SBD,M
Boys,125,9,Hunter Nobles,Sadler S & S Cons,114.76,129.27,97.52,167.83,394.63,Single-ply,SBD,M
Boys,125,10,Rudy Vasquez,Sherman,116.12,154.22,92.99,136.08,383.29,Single-ply,SBD,M
Boys,125,11,Antoine Robinson,Denison,111.58,199.58,102.06,,301.64,Single-ply,SB,M
Boys,125,DQ,Kyle Brooks,Denison,121.93,,92.99,158.76,,Single-ply,SBD,M
Boys,125+,1,Chris McKinney,Denison,158.21,204.12,111.13,240.4,555.65,Single-ply,SBD,M
Boys,125+,2,Damon Lippert,Sherman,131.27,197.31,140.61,181.44,519.36,Single-ply,SBD,M
Boys,125+,3,Jaden Forbes,Denison,151.14,190.51,104.33,190.51,485.34,Single-ply,SBD,M
Boys,125+,4,Cruz Tobar,Sherman,156.49,188.24,104.33,154.22,446.79,Single-ply,SBD,M
Boys,125+,5,Travis Shouse,Anna,134.81,,154.22,197.31,351.53,Single-ply,BD,M
