Name,Event,Equipment,Country,Sex,BirthDate,Division,BodyweightKg,WeightClassKg,Squat1Kg,Squat2Kg,Squat3Kg,Squat4Kg,Best3SquatKg,Bench1Kg,Bench2Kg,Bench3Kg,Bench4Kg,Best3BenchKg,Deadlift1Kg,Deadlift2Kg,Deadlift3Kg,Deadlift4Kg,Best3DeadliftKg,TotalKg,Place
Mariel Bertona,B,Raw,Argentina,F,1971-07-03,M1,58.9,60,,,,,,90,95,-100,,95,,,,,,95,1
Carolina Fleita,B,Raw,Argentina,F,1992-09-09,J,63.35,67.5,,,,,,40,45,47.5,,47.5,,,,,,47.5,1
Leticia Bertotto,B,Raw,Argentina,F,1971-09-18,M1,74.4,75,,,,,,100,110,-112.5,,110,,,,,,110,1
Valeria Agüero,B,Raw,Argentina,F,1961-09-15,M3,68.5,75,,,,,,125,135,-141,,135,,,,,,135,1
Laura Tabera,B,Raw,Argentina,F,1975-12-23,O,76,82.5,,,,,,60,65,-70,,65,,,,,,65,1
Mariela Ortellado,B,Raw,Argentina,F,1985-07-10,O,93,90+,,,,,,95,100,110,-115,110,,,,,,110,1
Martin San Felice,B,Raw,Argentina,M,,O,74,75,,,,,,-110,110,120,-130,120,,,,,,120,1
Federico Mansilla,B,Raw,Argentina,M,1988-12-17,O,74,75,,,,,,127.5,-132.5,-132.5,,127.5,,,,,,127.5,2
Gabriel Delgado,B,Raw,Argentina,M,1981-09-19,O,72.8,75,,,,,,130,-140,140,,140,,,,,,140,1
Gabriel Delgado,B,Raw,Argentina,M,1981-09-19,SM,72.8,75,,,,,,130,-140,140,,140,,,,,,140,1
Horacio Zoilo,B,Raw,Argentina,M,1941-11-17,M7,78.6,82.5,,,,,,120,130,-135,,130,,,,,,130,1
David Zerpa,B,Raw,Argentina,M,1991-02-11,O,77.8,82.5,,,,,,-100,-100,-100,,,,,,,,,DQ
Patricio Rodriguez,B,Raw,Argentina,M,1986-10-11,O,80,82.5,,,,,,125,-130,130,,130,,,,,,130,1
Luis Alberto Martinez,B,Raw,Brazil,M,1973-03-04,O,82.5,82.5,,,,,,85,90,100,,100,,,,,,100,1
Jose Luis Cañizares,B,Raw,Argentina,M,1978-03-31,O,87.7,90,,,,,,170,180,190,-200,190,,,,,,190,1
Jose Luis Cañizares,B,Raw,Argentina,M,1978-03-31,SM,87.7,90,,,,,,170,180,190,-200,190,,,,,,190,1
Walter Diaz,B,Raw,Argentina,M,1973-07-03,M1,90,90,,,,,,140,160,-170,,160,,,,,,160,1
Rafael Leonardo Silva,B,Raw,Argentina,M,1969-09-14,M2,83,90,,,,,,130,-150,150,,150,,,,,,150,2
Lucas Basualdo,B,Raw,Argentina,M,1981-02-20,O,89,90,,,,,,115,117.5,120,122.5,120,,,,,,120,1
Eduardo Mario Martinez,B,Raw,Argentina,M,1956-03-19,M4,89.4,90,,,,,,70,80,-85,,80,,,,,,80,1
Jose Carambia,B,Raw,Argentina,M,1967-02-04,M2,89.1,90,,,,,,140,155.5,-162.5,,155.5,,,,,,155.5,1
Jonatan Bolada,B,Raw,Argentina,M,1983-06-10,O,99.2,100,,,,,,130,140,142.5,,142.5,,,,,,142.5,1
Fernando Gonzalez,B,Raw,Argentina,M,1973-07-18,M1,93.8,100,,,,,,155,165,172.5,-180.5,172.5,,,,,,172.5,1
Julio Albarracin,B,Raw,Argentina,M,1969-05-06,M2,92.7,100,,,,,,-125,125,135,,135,,,,,,135,1
Sebastian Mansilla,B,Raw,Argentina,M,1980-04-01,O,105.4,110,,,,,,125,135,-140,,135,,,,,,135,1
Walter Morales,B,Raw,Argentina,M,1972-06-04,M1,106.3,110,,,,,,160,175,-188,,175,,,,,,175,1
Sergio Gayoso,B,Raw,Argentina,M,1961-04-17,M3,107.5,110,,,,,,130,142.5,152.5,,152.5,,,,,,152.5,1
Victor Quispe,B,Raw,Argentina,M,1970-09-27,M2,108,110,,,,,,140,150,-157.5,,150,,,,,,150,1
Cristian Gutierrez,B,Raw,Argentina,M,1979-04-03,O,116,125,,,,,,215,-225,-225,,215,,,,,,215,1
Cristian Gutierrez,B,Raw,Argentina,M,1979-04-03,SM,116,125,,,,,,215,-225,-225,,215,,,,,,215,1
Carlos Campos,B,Raw,Argentina,M,1965-10-02,M3,117.4,125,,,,,,130,140,,,140,,,,,,140,1
Irlei Felipe,B,Raw,Brazil,M,1970-05-12,M2,114.5,125,,,,,,170,180,-190,-190,180,,,,,,180,1
Serafin Rocha,B,Raw,Brazil,M,1948-04-27,M6,115.5,125,,,,,,110,120,125,-130.5,125,,,,,,125,1
Gonzalo Iriarte,B,Raw,Argentina,M,1980-02-13,O,147,140+,,,,,,180,-200,,,180,,,,,,180,1
Gonzalo Iriarte,B,Raw,Argentina,M,1980-02-13,SM,147,140+,,,,,,180,-200,,,180,,,,,,180,1
Mariel Bertona,D,Raw,Argentina,F,1971-07-03,M1,58.9,60,,,,,,,,,,,150,160,-167.5,,160,160,1
Andressa Gomes De Lima,D,Raw,Brazil,F,1990-04-27,O,59.5,60,,,,,,,,,,,160,170,175,-180,175,175,1
Carolina Fleita,D,Raw,Argentina,F,1992-09-09,J,63.35,67.5,,,,,,,,,,,95,100,105,,105,105,1
Leticia Bertoto,D,Raw,Argentina,F,1971-09-18,M1,74.4,75,,,,,,,,,,,180,190,-195,,190,190,1
Valeria Agüero,D,Raw,Argentina,F,,M3,68.5,75,,,,,,,,,,,175,,,,175,175,1
Laura Tabera,D,Raw,Argentina,F,1975-12-23,O,76,82.5,,,,,,,,,,,120,130,-140,,130,130,1
Mariela Ortellado,D,Raw,Argentina,F,1985-07-10,O,93,90+,,,,,,,,,,,205,-220,220,-230,220,220,1
Martin Arosteguichar,D,Raw,Argentina,M,1990-08-17,O,64.9,67.5,,,,,,,,,,,-170,170,185.5,-200,185.5,185.5,1
Martin San Felice,D,Raw,Argentina,M,,O,74,75,,,,,,,,,,,170,185,200,,200,200,1
Gabriel Delgado,D,Raw,Argentina,M,1981-09-19,O,72.8,75,,,,,,,,,,,200,215,230,-240,230,230,1
Gabriel Delgado,D,Raw,Argentina,M,1981-09-19,SM,72.8,75,,,,,,,,,,,200,215,230,-240,230,230,1
Carlos Orellana,D,Raw,Argentina,M,1985-04-15,O,74.5,75,,,,,,,,,,,160,180,-190,,180,180,2
Horacio Zoilo,D,Raw,Argentina,M,1941-11-17,M7,78.6,82.5,,,,,,,,,,,150,160,170,,170,170,1
David Zerpa,D,Raw,Argentina,M,1991-02-11,O,77.8,82.5,,,,,,,,,,,180,200,212.5,,212.5,212.5,1
Marcelo Lobo,D,Raw,Argentina,M,1968-08-29,M2,80.5,82.5,,,,,,,,,,,235,-245,-245,,235,235,1
Diogo Arthur Miotto,D,Raw,Brazil,M,1990-03-26,O,86,90,,,,,,,,,,,230,240,245,250.5,245,245,1
Jose Luis Cañizares,D,Raw,Argentina,M,1978-03-31,O,87.7,90,,,,,,,,,,,210,225,,,225,225,1
Walter Diaz,D,Raw,Argentina,M,1973-07-03,M1,90,90,,,,,,,,,,,230,240,250,-255,250,250,1
Fabian Blanco,D,Raw,Argentina,M,1984-06-03,O,93.8,100,,,,,,,,,,,160,175,182.5,,182.5,182.5,2
Jonatan Bolada,D,Raw,Argentina,M,1983-06-10,O,99.2,100,,,,,,,,,,,230,242.5,,,242.5,242.5,1
Sergio Corzo,D,Raw,Argentina,M,1971-01-21,M1,108.3,110,,,,,,,,,,,250,260,-265,,260,260,1
Victor Quispe,D,Raw,Argentina,M,1970-09-27,M2,108,110,,,,,,,,,,,190,205,220,235,220,220,1
Sergio Gayoso,D,Raw,Argentina,M,1961-04-17,M3,107.5,110,,,,,,,,,,,200,225,240,,240,240,1
Carlos Campos,D,Raw,Argentina,M,1965-10-02,M3,117.4,125,,,,,,,,,,,170,180,,,180,180,1
Alfredo Rojas,D,Raw,Argentina,M,1985-09-17,O,116.8,125,,,,,,,,,,,290,305,315,-320,315,315,1
Pablo Lucero,D,Raw,Argentina,M,1985-03-26,O,139,140,,,,,,,,,,,210,220,-240,,220,220,1
Estela Peña,SBD,Wraps,Argentina,F,1990-04-10,O,74,75,240,250,260,,260,105,112.5,115,,115,215,225,-235,,225,600,1
Valeria Agüero,SBD,Wraps,Argentina,F,1961-09-15,M3,68.4,75,-175,175,190,,190,125,135,-140,,135,160,,,,160,485,1
Rosangela M.De Santos,SBD,Wraps,Brazil,F,1965-01-04,M3,70.8,75,-110,-110,-110,,,70,80,-90,,80,140,150,160,,160,,DQ
Mariela Ortellado,SBD,Wraps,Argentina,F,1985-07-10,O,93.5,90+,-200,-200,200,-205,200,90,100,-110,-110,100,200,215,-225,,215,515,1
Daniel Ramirez,SBD,Wraps,Argentina,M,1981-08-10,O,67.4,67.5,130,140,150,,150,110,-120,125,,125,170,180,190,,190,465,1
Daniel Ramirez,SBD,Wraps,Argentina,M,1981-08-10,SM,67.4,67.5,130,140,150,,150,110,-120,125,,125,170,180,190,,190,465,1
Rafael Batista Minari,SBD,Wraps,Brazil,M,1997-05-05,T3,61.9,67.5,-140,-140,-140,,,-110,-110,-110,,,-160,160,180,,180,,DQ
Makson Pereira dos Santos,SBD,Wraps,Brazil,M,1992-12-06,J,73.3,75,170,190,-210,,190,110,120,122.5,,122.5,170,200,-210,,200,512.5,2
Enzo Lechman,SBD,Wraps,Argentina,M,1994-10-04,J,74.1,75,-180,180,-195,,180,-112.5,-120,120,,120,180,190,-200,,190,490,3
Ezequiel Fernandez Uguet,SBD,Wraps,Argentina,M,1993-03-03,J,74.8,75,200,220,-230,-230,220,120,-125,-125,,120,-220,220,-235,-235,220,560,1
Carlos Orellana,SBD,Wraps,Argentina,M,1985-04-15,O,74.8,75,150,160,165,,165,85,92.5,-97.5,,92.5,175,-192.5,-200,,175,432.5,2
Jose Dirie,SBD,Wraps,Argentina,M,1981-01-06,O,73.2,75,150,155,160,,160,90,-95,95,,95,190,200,-210,,200,455,1
Jose Dirie,SBD,Wraps,Argentina,M,1981-01-06,SM,73.2,75,150,155,160,,160,90,-95,95,,95,190,200,-210,,200,455,1
Erik Alex Becker,SBD,Wraps,Argentina,M,,T1,78.9,82.5,100,115,130,,130,90,100,105,,105,150,160,170,,170,405,1
Matías Carrizo,SBD,Wraps,Argentina,M,1996-10-17,T3,78.4,82.5,140,160,165,,165,110,120,-125,,120,175,182.5,190,,190,475,1
Leonel Bole,SBD,Wraps,Argentina,M,1995-05-11,J,80.2,82.5,180,190,-200,,190,95,105,110,,110,205,215,-220,,215,515,1
Sergio Romero,SBD,Wraps,Argentina,M,1984-08-16,O,80.5,82.5,170,-180,-180,,170,-135,-135,135,,135,170,185,-200,,185,490,2
David Zerpa,SBD,Wraps,Argentina,M,1991-02-11,O,79.2,82.5,180,-200,-200,,180,110,115,-117.5,,115,190,210,-220,,210,505,1
Jose Egües,SBD,Wraps,Argentina,M,1985-07-31,O,79.2,82.5,-260,-260,260,,260,130,140,-150,,140,220,240,-250,,240,640,G
Alan Coria,SBD,Wraps,Argentina,M,1995-10-09,J,84.2,90,175,-195,195,,195,120,127.5,130,,130,180,190,197.5,,197.5,522.5,2
Alejo Philip,SBD,Wraps,Argentina,M,1994-12-18,J,88.1,90,170,180,-195,,180,105,115,125,,125,200,210,220,227.5,220,525,1
Marcos Silva Fernandes,SBD,Wraps,Brazil,M,1992-10-08,J,88,90,160,180,-185,,180,80,90,100,,100,170,190,-200,,190,470,3
Marcos Cabezas,SBD,Wraps,Argentina,M,1978-11-23,O,88.7,90,240,250,-260,,250,-152.5,152.5,160,,160,215,230,242.5,,242.5,652.5,2
Marcos Cabezas,SBD,Wraps,Argentina,M,1978-11-23,SM,88.7,90,240,250,-260,,250,-152.5,152.5,160,,160,215,230,242.5,,242.5,652.5,1
Jose Luis Cañizares,SBD,Wraps,Argentina,M,1978-03-31,O,88.6,90,220,235,240,,240,170,185,-192.5,,185,210,225,232.5,,232.5,657.5,1
Nicolas Quirolan,SBD,Wraps,Argentina,M,1972-11-05,M1,86.3,90,230,-240,-240,,230,150,160,-165,,160,225,235,240,,240,630,2
Daniel Sánchez,SBD,Wraps,Argentina,M,1973-11-21,M1,88.2,90,250,275,300.5,,300.5,150,165,173,,173,220,250,257.5,,257.5,731,1
Pablo Davalos,SBD,Wraps,Argentina,M,1966-03-14,M2,86.6,90,85,90,105,,105,75,80,-90,,80,135,145,150,,150,335,1
Juan Jose Ales,SBD,Wraps,Argentina,M,1957-03-09,M4,89.8,90,170,180,190,,190,125,130,-140,,130,160,170,185,,185,505,1
Gaston Cabral,SBD,Wraps,Argentina,M,1996-12-25,T3,95.5,100,180,200,207.5,,207.5,150,165,-170,,165,200,210,220,,220,592.5,1
Dione Cesar Teodoro,SBD,Wraps,Brazil,M,1992-01-12,J,99.8,100,215,-235,235,,235,150,160,165,,165,225,250,260,,260,660,1
Ramon Machado,SBD,Wraps,Argentina,M,1989-03-28,O,100,100,170,-185,185,,185,135,145,150,,150,215,230,-232.5,,230,565,2
Matías Santa Cruz,SBD,Wraps,Argentina,M,1987-09-19,O,91.9,100,200,215,230,,230,160,-165,-165,,160,200,215,225,,225,615,1
Jefferson Miguel Deltrejo de Deus,SBD,Wraps,Brazil,M,1978-01-03,O,97.6,100,260,270,280,,280,175,185,190,,190,270,280,290,,290,760,1
Sergio Salas,SBD,Wraps,Argentina,M,1980-02-27,O,95.1,100,180,-190,,,180,130,140,-145,,140,150,170,200,,200,520,2
Eduardo Elgart,SBD,Wraps,Argentina,M,1974-09-26,M1,99.2,100,160,,,,160,160,,,,160,160,,,,160,480,1
Mario Vazquez,SBD,Wraps,Argentina,M,1969-11-19,M2,100,100,-150,150,-190,,150,140,150,155,,155,190,210,215,,215,520,1
Nahuel Nuñez,SBD,Wraps,Argentina,M,1999-08-10,T2,106.4,110,150,160,185,,185,80,90,-97.5,,90,175,185,195,,195,470,1
Gustavo Castro,SBD,Wraps,Argentina,M,1995-08-24,J,100.7,110,180,200,210,,210,120,130,-140,,130,200,210,-220,,210,550,1
Lucas Gigena,SBD,Wraps,Argentina,M,1992-09-30,J,105.4,110,170,185,-195,,185,90,100,-105,,100,180,-190,-190,,180,465,2
Walter Morales,SBD,Wraps,Argentina,M,1972-06-04,M1,108,110,80,,,,80,160,175,-188,,175,125,,,,125,380,2
Gustavo Miño,SBD,Wraps,Argentina,M,1971-01-15,M1,104.1,110,200,220,230,,230,140,-150,-150,,140,200,220,-230,,220,590,1
Marcio Rogerio de Lima,SBD,Wraps,Brazil,M,1972-04-11,M1,114,125,240,-255,-260,,240,165,170,-185,,170,265,285,295,,295,705,1
Victor Quispe,SBD,Wraps,Argentina,M,1970-09-27,M2,108.2,110,190,220,240,,240,140,-150,150,,150,200,230,-245,,230,620,1
Everton Soares Garcia,SBD,Wraps,Brazil,M,1981-05-06,O,127.9,140,265,285,300,,300,200,-220,225,,225,265,285,300,,300,825,2
Everton Soares Garcia,SBD,Wraps,Brazil,M,1981-05-06,SM,127.9,140,265,285,300,,300,200,-220,225,,225,265,285,300,,300,825,1
Pablo Lucero,SBD,Wraps,Argentina,M,1985-03-26,O,139.3,140,210,225,-235,,225,120,125,-132.5,,125,210,225,230,,230,580,3
Luciano Delorenzi,SBD,Wraps,Argentina,M,1991-01-17,O,134.9,140,310,340,-360,,340,170,180,190,,190,280,295,300,,300,830,1
Fabrizio De Assis Ubirajara,SBD,Wraps,Brazil,M,1978-07-25,SM,141.9,140+,290,310,-340,,310,170,190,200,,200,290,310,,,310,820,1
Fabrizio De Assis Ubirajara,SBD,Wraps,Brazil,M,1978-07-25,O,141.9,140+,290,310,-340,,310,170,190,200,,200,290,310,,,310,820,1
Daniel Sánchez,SBD,Multi-ply,Argentina,M,,O,88.5,90,300,-335,335,,335,140,160,220,250.5,220,200,250,290.5,,290.5,845.5,1
Daniel Sánchez,SBD,Multi-ply,Argentina,M,,SM,88.5,90,300,-335,335,,335,140,160,220,250.5,220,200,250,290.5,,290.5,845.5,1
Eduardo Elgart,SBD,Multi-ply,Argentina,M,1974-09-26,M1,99.2,100,280,300,,,300,200,-210,210,,210,260,-270,270,,270,780,1
Marcos Martinez,SBD,Multi-ply,Argentina,M,,O,98.5,100,280,300,,,300,130,-170,,,130,220,250,282.5,,282.5,712.5,1
Marcos Martinez,D,Multi-ply,Argentina,M,,O,99.5,100,,,,,,,,,,,220,250,282.5,,282.5,282.5,1
Carlos Garelli,S,Multi-ply,Argentina,M,1971-09-24,M1,101.8,110,270,290,-300,,290,,,,,,,,,,,290,1
Luciano Newton Pereyra,B,Multi-ply,Brazil,M,1979-12-29,O,134.7,140,,,,,,230,250,270,,270,,,,,,270,1
Alexis Martinez,B,Multi-ply,Argentina,M,1980-08-13,O,74.9,75,,,,,,170,175,180,-190.5,180,,,,,,180,1
Luciano Newton Pereyra,B,Multi-ply,Brazil,M,1979-12-29,SM,134.7,140,,,,,,230,250,270,,270,,,,,,270,1
Alexis Martinez,B,Multi-ply,Argentina,M,1980-08-13,SM,74.9,75,,,,,,170,175,180,-190.5,180,,,,,,180,1
Enrique Villanueva,B,Multi-ply,Argentina,M,1983-06-30,O,82.5,82.5,,,,,,170,-175,-180,,170,,,,,,170,1
Marcos Cabezas,B,Multi-ply,Argentina,M,,O,88.5,90,,,,,,185,-192.5,192.5,,192.5,,,,,,192.5,1
Marcos Cabezas,D,Multi-ply,Argentina,M,,O,88.5,90,,,,,,,,,,,230,250,262.5,,262.5,262.5,1
Marcos Cabezas,B,Multi-ply,Argentina,M,,SM,88.5,90,,,,,,185,-192.5,192.5,,192.5,,,,,,192.5,1
Marcos Cabezas,D,Multi-ply,Argentina,M,,SM,88.5,90,,,,,,,,,,,230,250,262.5,,262.5,262.5,1
Eduardo Elgart,B,Multi-ply,Argentina,M,1971-09-26,M1,99.2,100,,,,,,200,210,,,210,,,,,,210,1
Fabian Blanco,B,Multi-ply,Argentina,M,,O,93,100,,,,,,155,158,160,,160,,,,,,160,1
Luis Sandoval Camargo,B,Multi-ply,Brazil,M,1971-12-30,M1,98.6,100,,,,,,-165,165,-180,,165,,,,,,165,2
Luis Sandoval Camargo,D,Multi-ply,Brazil,M,1971-12-30,M1,98.6,100,,,,,,,,,,,200,225,240,,240,240,1
Gonzalo Figueroa,B,Multi-ply,Argentina,M,1985-03-02,O,106,110,,,,,,-170,-170,-170,,,,,,,,,DQ
Walter Morales,B,Multi-ply,Argentina,M,,M1,106.5,110,,,,,,190,210,218,,218,,,,,,217.5,1
Victor Quispe,D,Multi-ply,Argentina,M,,M2,107.5,110,,,,,,,,,,,210,220,-240,,220,220,1
Sergio Gayoso,B,Multi-ply,Argentina,M,,M3,107.8,110,,,,,,160,-192.5,192.5,-200,192.5,,,,,,192.5,1
Sergio Gayoso,D,Multi-ply,Argentina,M,,M3,107.8,110,,,,,,,,,,,210,230,240,,240,240,1
Walter San Miguel,B,Multi-ply,Argentina,M,1971-06-26,M1,124.5,125,,,,,,150,165,180,,180,,,,,,180,1
Irlei Felipe,B,Multi-ply,Brazil,M,1970-02-15,M2,114.6,125,,,,,,220,-240,-240,,220,,,,,,220,1
Serafim Rocha,B,Multi-ply,Brazil,M,1948-04-27,M6,116.9,125,,,,,,140,-150,-150,-150,140,,,,,,140,1
Sergio Corzo,D,Multi-ply,Argentina,M,,M1,110,110,,,,,,,,,,,250,260,270,273,270,270,1
Carlos Campos,BD,Multi-ply,Argentina,M,,M3,114,125,,,,,,-190,-190,190,,190,180,200,210,,210,400,1
