Event,Sex,Name,State,BodyweightKg,WeightClassKg,Division,Best3SquatKg,Best3BenchKg,Best3DeadliftKg,TotalKg,Equipment,Place
SBD,M,Chris Fudge,ON,81.6,83,Open,252.5,165,250,667.5,Single-ply,1
SBD,F,Rhaea Stinn,SK,71.8,72,Open,225,150,205,580,Single-ply,1
SBD,F,Steph Puddicome,NL,51,52,Open,182.5,95,181.5,459,Single-ply,1
SBD,M,Bryce Krawczyk,AB,103.8,105,Open,332.5,205,360.5,898,Single-ply,1
SBD,M,Adrian Locke,AB,103.1,105,Open,297.5,190,307.5,795,Single-ply,2
SBD,M,Aaron Ziffle,SK,93.5,105,Open,300,225,267.5,792.5,Single-ply,3
SBD,M,John T Fraser,NS,91.8,93,Masters 3,200,170,230,600,Single-ply,1
SBD,M,Jerry Marentette,ON,82.8,83,Masters 3,137.5,105,260,502.5,Single-ply,1
SBD,F,Carol Brady,ON,63,63,Masters 3,107.5,72.5,117.5,297.5,Single-ply,1
SBD,M,Jeff Becker,ON,82.3,83,Masters 2,280,172.5,275,727.5,Single-ply,1
SBD,M,Andrew Bryant,BC,82.7,83,Masters 2,250,170,230,650,Single-ply,2
SBD,M,Ron Strong,ON,119.7,120,Masters 2,270,195,300,765,Single-ply,1
SBD,M,Rémy Dufour,QU,101.8,105,Masters 2,220,180,260,660,Single-ply,2
SBD,M,Paul Gidney,NS,103.6,105,Masters 2,225,175,295.5,695.5,Single-ply,1
SBD,M,Jeff Butt,NL,92.8,93,Masters 1,282.5,215,285,782.5,Single-ply,1
SBD,M,Barry Antoniow,ON,91.3,93,Masters 1,232.5,230,215,677.5,Single-ply,2
SBD,M,Robert King,NL,81.7,83,Masters 1,200,155,227.5,582.5,Single-ply,1
SBD,M,Brian George,NL,103.6,105,Masters 1,280,182.5,260,722.5,Single-ply,1
SBD,M,Daniel Guindon,QU,91.9,93,Juniors,262.5,175,250,687.5,Single-ply,1
SBD,M,Mehar Bhogal,BC,82.7,83,Juniors,235,165,245,645,Single-ply,1
SBD,F,Mikayla Lohse,SK,55.9,57,Juniors,140,65,142.5,347.5,Single-ply,1
SBD,F,Julia Collins,NL,51.7,52,Juniors,100,45,120,265,Single-ply,1
SBD,F,Delaina Roul,NL,46.2,47,Juniors,110,55,137.5,302.5,Single-ply,1
SBD,M,Tyler Ramsay,PE,115.6,120,Juniors,307.5,222.5,290,820,Single-ply,1
SBD,F,Angie Dandonneau,QU,95.2,84+,Sub-Juniors,125,62.5,125,312.5,Raw,1
SBD,M,Paul Ionescu,ON,78.8,83,Sub-Juniors,192.5,107.5,215,515,Raw,2
SBD,M,Noah Lasante,ON,81.3,83,Sub-Juniors,220,137.5,227.5,585,Raw,1
SBD,M,Kevin Min,ON,82.2,83,Sub-Juniors,182.5,115,207.5,505,Raw,3
SBD,M,Anthony Nendarto,PE,82.9,83,Sub-Juniors,170,95,192.5,457.5,Raw,4
SBD,M,William Veilleux,QU,73.4,74,Sub-Juniors,200,127.5,251,578.5,Raw,2
SBD,M,Noah Ukrainetz,ON,72.8,74,Sub-Juniors,228.5,132.5,242.5,603.5,Raw,1
SBD,M,Maxwell Grant,AB,73.4,74,Sub-Juniors,175,130,182.5,487.5,Raw,3
SBD,M,Jake Rossanese,ON,65,66,Sub-Juniors,192.5,115,235.5,543,Raw,1
SBD,F,Émilie Boulianne,QU,61.7,63,Sub-Juniors,107.5,55,107.5,270,Raw,1
SBD,M,Joey Haworth,ON,57.6,59,Sub-Juniors,112.5,75,157.5,345,Raw,1
SBD,F,Brynn Hamilton,ON,50.5,52,Sub-Juniors,102.5,50,130,282.5,Raw,1
SBD,M,Jacob Sinnott,PE,101.2,105,Sub-Juniors,230,127.5,245,602.5,Raw,1
SBD,M,Yann Tremblay,QU,90.2,93,Open,247.5,167.5,252.5,667.5,Raw,12
SBD,M,Xin-Di Dong,QU,90.6,93,Open,250,162.5,235,647.5,Raw,15
SBD,M,Walter Cariazo,ON,90.4,93,Open,262.5,172.5,332.5,767.5,Raw,1
SBD,M,Trent Blanchard,ON,89.3,93,Open,275,157.5,275,707.5,Raw,4
SBD,M,Quentin Weber,QU,89.1,93,Open,257.5,160,285,702.5,Raw,5
SBD,M,Nick Roberts,NL,92.5,93,Open,282.5,170,315,767.5,Raw,2
SBD,M,Michael Egan,ON,92.2,93,Open,227.5,155,292.5,675,Raw,10
SBD,M,Mark Webster,ON,88.8,93,Open,255,155,267,677.5,Raw,8
SBD,M,Marc-Olivier Allard,QU,90.1,93,Open,215,145,260,620,Raw,17
SBD,M,Louis-Alexis Gratton,QU,86.6,93,Open,235,170,265,670,Raw,11
SBD,M,Joël Boulianne,QU,92.9,93,Open,252.5,190,285,727.5,Raw,3
SBD,M,Jimmy Ha,ON,92.6,93,Open,217.5,140,252.5,610,Raw,18
SBD,M,Jeff Bilyk,SK,92.9,93,Open,75,152.5,225,452.5,Raw,20
SBD,M,Gabriel Aubé,QU,86.4,93,Open,227.5,152.5,260,640,Raw,16
SBD,M,Félix Guérin,QU,89.2,93,Open,222.5,155,230,607.5,Raw,19
SBD,M,François Gagné,QU,92.1,93,Open,245,165,265,675,Raw,9
SBD,M,Eric Olsson,BC,92.8,93,Open,237.5,135,280,652.5,Raw,14
SBD,M,Devin Proulx,AB,92.1,93,Open,235,142.5,277.5,655,Raw,13
SBD,M,Andrew Lutzuk,QU,88,93,Open,250,152.5,290,692.5,Raw,6
SBD,M,Ajay Paul Sahota,ON,91.5,93,Open,247.5,142.5,300,690,Raw,7
SBD,F,Lexie Elias,MB,133.2,84+,Open,152.5,85,182.5,420,Raw,3
SBD,F,Hailey Kostynuik,MB,129.8,84+,Open,237.5,114,220,571.5,Raw,1
SBD,F,Gaïa Willis,AB,98.6,84+,Open,175,70,175,420,Raw,2
SBD,F,Aileen Bishop,AB,88.1,84+,Open,150,70,170,390,Raw,4
SBD,F,Sara Cowan,ON,83,84,Open,187.5,105,210,502.5,Raw,1
SBD,F,Natasha Ching,NS,83.4,84,Open,160,80,165,405,Raw,4
SBD,F,Marie-Éléonore Baptiste,QU,83.7,84,Open,162.5,85,187.5,435,Raw,3
SBD,F,Jeri Munro,PE,77.5,84,Open,125,70,167.5,362.5,Raw,7
SBD,F,Danielle Philibert,AB,79.5,84,Open,162.5,90,185,437.5,Raw,2
SBD,F,Dana Sandler,AB,83.3,84,Open,135,80,165,380,Raw,6
SBD,F,Angelina McOuat,ON,79.7,84,Open,142.5,75,170,387.5,Raw,5
SBD,M,Yves Brousseau,QU,81.8,83,Open,245,185,247.5,677.5,Raw,6
SBD,M,Ryan Lapadat,ON,82.5,83,Open,242.5,142.5,282.5,667.5,Raw,7
SBD,M,Mohamad Arnaout,ON,82.1,83,Open,250,185,275,,Raw,DD
SBD,M,Michael Previdsa,ON,82.8,83,Open,252.5,160,308.5,721,Raw,1
SBD,M,Maxime Soucy,QU,79.4,83,Open,215,140,240,595,Raw,10
SBD,M,Mark Wasson,NB,82.2,83,Open,245,175,275,695,Raw,3
SBD,M,Marc Morris,SK,82.4,83,Open,225,127.5,260,612.5,Raw,8
SBD,M,Joseph Benoit,NS,82.8,83,Open,215,125,230,570,Raw,12
SBD,M,Jonathan Simard,QU,82.6,83,Open,265,190,262.5,717.5,Raw,2
SBD,M,Jacob Hall,ON,82.1,83,Open,255,142.5,292.5,690,Raw,4
SBD,M,Francis Martineau,QU,81.2,83,Open,232.5,137.5,240,610,Raw,9
SBD,M,Fernando Serraino,ON,82.6,83,Open,232.5,175,280,687.5,Raw,5
SBD,M,Dave Roy,QU,77.9,83,Open,205,132.5,255,592.5,Raw,11
SBD,M,William Boivin-Villeneuve,QU,73.3,74,Open,200,117.5,240,557.5,Raw,9
SBD,M,Riam Shammaa,ON,72.5,74,Open,207.5,142.5,250,600,Raw,5
SBD,M,Nikkolas Trillo,ON,73.8,74,Open,225,150,282.5,657.5,Raw,2
SBD,M,Loc Xn,ON,71.4,74,Open,180,147.5,215,542.5,Raw,12
SBD,M,Kris Tiller,NL,73,74,Open,190,155,220,565,Raw,8
SBD,M,Jeremiah Villanueva,ON,71.8,74,Open,185,112.5,235,532.5,Raw,14
SBD,M,Inderpreet Singh,ON,73.1,74,Open,195,120,215,530,Raw,15
SBD,M,Damien Wilmot,ON,73.6,74,Open,185,132.5,220,537.5,Raw,13
SBD,M,Dale Stewart,ON,73.2,74,Open,202.5,145,220,567.5,Raw,7
SBD,M,Connor Lutz,SK,73.6,74,Open,230,180,260,670,Raw,1
SBD,M,Charles Peralta,ON,72.3,74,Open,195,132.5,227.5,555,Raw,10
SBD,M,Bryce Thomson,BC,73.4,74,Open,245,120,270,635,Raw,4
SBD,M,Brogan Pratt,BC,72.7,74,Open,220,132.5,227.5,580,Raw,6
SBD,M,Bourdeau Brice,QU,73.6,74,Open,192.5,127.5,235,555,Raw,11
SBD,M,Benjamin Langley,MB,73.5,74,Open,245,150,260,655,Raw,3
SBD,F,Teighan McIntyre,ON,67.2,72,Open,135,72.5,162.5,370,Raw,4
SBD,F,Steph Assad,ON,69.4,72,Open,145,82.5,190,417.5,Raw,3
SBD,F,Sarah Leighton,ON,70.9,72,Open,160,100,187.5,447.5,Raw,2
SBD,F,Rae Price,ON,70.6,72,Open,125,77.5,167.5,370,Raw,5
SBD,F,Mallory Rowan,ON,71.1,72,Open,142.5,75,152.5,370,Raw,6
SBD,F,Frédérique Gauthier,QU,70.7,72,Open,135,70,140,345,Raw,8
SBD,F,Claudia Landry,QU,69.9,72,Open,127.5,82.5,145,355,Raw,7
SBD,F,Alyssa Smith,ON,70.9,72,Open,177.5,92.5,207.5,477.5,Raw,1
SBD,M,Stephen Cascioli,BC,65.2,66,Open,232.5,150,260,642.5,Raw,1
SBD,M,Ryan Kolesar,MB,63.9,66,Open,190,117.5,215,522.5,Raw,3
SBD,M,Nicholas Lung Sanz,BC,65.6,66,Open,187.5,117.5,207.5,512.5,Raw,4
SBD,M,Mujeeb Salim,ON,65.7,66,Open,187.5,127.5,210,525,Raw,2
SBD,F,Wendy Pronick,BC,62.1,63,Open,132.5,87.5,167.5,387.5,Raw,7
SBD,F,Teresa Yeung,ON,59,63,Open,150,82.5,172.5,405,Raw,3
SBD,F,Teresa Parsons,AB,60.4,63,Open,155,90,187.5,432.5,Raw,2
SBD,F,Natalie Nikiforuk,AB,62.5,63,Open,135,82.5,182.5,400,Raw,5
SBD,F,Naomi Graham,QU,59.7,63,Open,107.5,60,147.5,315,Raw,13
SBD,F,Megan Griffiths,ON,60.1,63,Open,137.5,82.5,165,385,Raw,8
SBD,F,Meana Franco,ON,62,63,Open,160,112.5,160,,Raw,DD
SBD,F,Maria Christina Taccone,ON,62.2,63,Open,157.5,77.5,170,405,Raw,4
SBD,F,Leah Mamane,QU,61.4,63,Open,145,80,162.5,387.5,Raw,6
SBD,F,Lauren Chesher,ON,62.6,63,Open,120,82.5,135,337.5,Raw,11
SBD,F,Jessica Chard,ON,62.6,63,Open,137.5,52.5,150,340,Raw,10
SBD,F,Danielle Fontyn,ON,62.4,63,Open,117.5,62.5,140,320,Raw,12
SBD,F,Christine Castro,AB,61.5,63,Open,157.5,77.5,198,433,Raw,1
SBD,F,Amy Ng,ON,62.8,63,Open,132.5,67.5,170,370,Raw,9
SBD,M,Serge Gauthier,QU,56,59,Open,167.5,110,185,462.5,Raw,1
SBD,M,Alfred Jong,AB,59,59,Open,172.5,105,217.5,495,Raw,2
SBD,F,Phoebe Cullingham,QU,55.1,57,Open,132.5,82.5,152.5,367.5,Raw,3
SBD,F,Morgan MacKenzie,NS,55.8,57,Open,115,62.5,142.5,320,Raw,8
SBD,F,Maria Htee,NL,56.5,57,Open,174,97.5,188,459.5,Raw,1
SBD,F,Johanna Reichel #1,AB,56.5,57,Open,122.5,60,150,332.5,Raw,6
SBD,F,Jessica Benedetto,QU,56.4,57,Open,147.5,103.5,175,426,Raw,2
SBD,F,Jennifer McConnell,ON,56.8,57,Open,122.5,75,137.5,335,Raw,5
SBD,F,Jannelle Van Den Bosch,MB,55.5,57,Open,125,65,140,330,Raw,7
SBD,F,Carolyn Tran,SK,56.5,57,Open,117.5,70,155,342.5,Raw,4
SBD,F,Sarah Xie,BC,50.5,52,Open,110,52.5,120,282.5,Raw,3
SBD,F,Joanna Rieber,ON,50.8,52,Open,140,90,157.5,387.5,Raw,1
SBD,F,Cynthia Vo,ON,51.7,52,Open,127.5,67.5,157.5,352.5,Raw,2
SBD,F,Simone Lai,ON,46.1,47,Open,115,55,125,295,Raw,1
SBD,F,Julie Mantha,QU,45.4,47,Open,75,45,117.5,237.5,Raw,2
SBD,M,Raymond Hickie,SK,123,120+,Open,287.5,180,282.5,750,Raw,6
SBD,M,Omar Abdulkadir,ON,177.2,120+,Open,297.5,195,272.5,765,Raw,5
SBD,M,Kelly Branton,ON,165.2,120+,Open,395,255,325,975,Raw,1
SBD,M,Jason Byrne,ON,138.3,120+,Open,350,225,347.5,922.5,Raw,2
SBD,M,Garrett Bentley,ON,122.9,120+,Open,292.5,192.5,290,775,Raw,4
SBD,M,Curtis Demelo,AB,143.5,120+,Open,317.5,170,302.5,790,Raw,3
SBD,M,Chris McLaren-Almond,ON,129.7,120+,Open,242.5,167.5,340,750,Raw,7
SBD,M,Philip Brougham,ON,118.8,120,Open,307.5,185,300,792.5,Raw,5
SBD,M,Mickael Cloutier,QU,117.9,120,Open,320,217.5,317.5,855,Raw,2
SBD,M,Marc Cardinal,QU,116.3,120,Open,275,182.5,342.5,800,Raw,3
SBD,M,Erik Willis,ON,119.4,120,Open,297.5,228.5,330,856,Raw,1
SBD,M,Dre Grasdal,SK,118.7,120,Open,240,175,307.5,722.5,Raw,6
SBD,M,Conrad Davies,ON,119.5,120,Open,265,170,275,710,Raw,7
SBD,M,Brody Laybolt,AB,119.3,120,Open,270,197.5,330,797.5,Raw,4
SBD,M,Taylor Shadgett,ON,104.5,105,Open,297.5,162.5,305,765,Raw,2
SBD,M,Samuel Turcotte,QU,103.9,105,Open,252.5,177.5,265,695,Raw,10
SBD,M,Paul Marshall,ON,104,105,Open,282.5,170,302.5,755,Raw,3
SBD,M,Mike MacDonald,AB,104.1,105,Open,250,200,300,750,Raw,4
SBD,M,Kerry Dennison,ON,102.6,105,Open,252.5,172.5,315,740,Raw,5
SBD,M,Justin Reeson,ON,96,105,Open,232.5,135,272.5,640,Raw,13
SBD,M,Justin Alfante,ON,104,105,Open,272.5,172.5,290,735,Raw,7
SBD,M,Joshua Franssen,QU,100.4,105,Open,250,147.5,285,682.5,Raw,11
SBD,M,Jordan Foley,NL,104.4,105,Open,275,157.5,290,722.5,Raw,8
SBD,M,Gage Bush,SK,102.7,105,Open,272.5,150,317.5,740,Raw,6
SBD,M,Darren Fortin,QU,99.3,105,Open,232.5,147.5,277.5,657.5,Raw,12
SBD,M,Bryce Krawczyk,AB,103.1,105,Open,285,167.5,345,797.5,Raw,1
SBD,M,Alexandre Kuhn,QU,103.3,105,Open,207.5,162.5,260,630,Raw,14
SBD,M,Adam Lessard,ON,103,105,Open,240,167.5,292.5,700,Raw,9
SBD,M,Bill Stevens,ON,110.5,120,Masters 4,200,122.5,202.5,525,Raw,1
SBD,M,Tilman Gallant,PE,86.3,93,Masters 3,120,135,140,395,Raw,3
SBD,M,John T Fraser,NS,92.8,93,Masters 3,180,145.5,235,560.5,Raw,2
SBD,M,Glen J. Cormier,NL,90.8,93,Masters 3,230,150,230,610,Raw,1
SBD,F,Sandra Nase,SK,103.4,84+,Masters 3,102.5,58,155,315.5,Raw,1
SBD,F,Mary Lupton,ON,93.5,84+,Masters 3,72.5,47.5,85,205,Raw,2
SBD,F,Linda Rousseau,ON,80.9,84,Masters 3,117.5,62.5,110,290,Raw,1
SBD,M,Ron Delaney,NS,82.8,83,Masters 3,167.5,112.5,245,525,Raw,2
SBD,M,Jerry Marentette,ON,82.2,83,Masters 3,196,122.5,245,563.5,Raw,1
SBD,F,Jo-Anne Larabie,ON,65.4,72,Masters 3,82.5,40,100,222.5,Raw,1
SBD,F,Kim Crumpton,ON,50.8,52,Masters 3,60.5,50.5,113,224,Raw,1
SBD,M,Miroslav Koprnicky,ON,98.8,105,Masters 3,172.5,130,157.5,460,Raw,1
SBD,M,Ron Kilpatrick,ON,90.7,93,Masters 2,195,100,200,495,Raw,2
SBD,M,Claude Dallaire,QU,90.6,93,Masters 2,207.5,127.5,245,580,Raw,1
SBD,F,Wendy Norton,ON,99.5,84+,Masters 2,137.5,70,160,367.5,Raw,3
SBD,F,Shelley Colter,ON,118.9,84+,Masters 2,127.5,75,150,352.5,Raw,4
SBD,F,Lesley Hammil,ON,111.6,84+,Masters 2,127.5,82.5,137.5,347.5,Raw,5
SBD,F,Jose Potter,AB,98.9,84+,Masters 2,150,77.5,160,387.5,Raw,2
SBD,F,Gwendelyn Grasdal,SK,111.6,84+,Masters 2,115,60,150,325,Raw,6
SBD,F,Bonney Rempel,BC,106.6,84+,Masters 2,175,107.5,170,452.5,Raw,1
SBD,F,Linda McFeeters,ON,78.1,84,Masters 2,95,65,150,310,Raw,2
SBD,F,Janine Wheeler,ON,83,84,Masters 2,115,65,140,320,Raw,1
SBD,M,Sandro D'Angelo,ON,82.3,83,Masters 2,195,125,220,540,Raw,2
SBD,M,Jeff Becker,ON,82.2,83,Masters 2,230,145,267.5,642.5,Raw,1
SBD,M,Joe McCullough,ON,72.8,74,Masters 2,165,110,202.5,477.5,Raw,2
SBD,M,Glen Chaytor,NL,74,74,Masters 2,185,102.5,200,487.5,Raw,1
SBD,M,Gerald Chafe,NL,73.7,74,Masters 2,157.5,87.5,177.5,422.5,Raw,4
SBD,M,François Cazes,QU,73.7,74,Masters 2,155,102.5,202.5,460,Raw,3
SBD,F,Fran Harris,NB,69.6,72,Masters 2,105,67.5,142,314.5,Raw,1
SBD,F,Beverly Sharpe,NL,70.9,72,Masters 2,116,50,120,286,Raw,2
SBD,F,Sandra Fernandez,AB,61.6,63,Masters 2,105,60,117.5,282.5,Raw,1
SBD,F,Jayne Egan,ON,50.9,52,Masters 2,105,55,135,295,Raw,1
SBD,M,Ron Strong,ON,121.1,120+,Masters 2,230,152.5,290,672.5,Raw,1
SBD,M,Mike Forster,ON,116.5,120,Masters 2,200,125,230,555,Raw,2
SBD,M,David Holmes,ON,110.4,120,Masters 2,205,160,235,600,Raw,1
SBD,M,Jim Norton,ON,102.9,105,Masters 2,175,120,195,490,Raw,3
SBD,M,Jacques Potvin,QU,100.9,105,Masters 2,235,170,255,660,Raw,1
SBD,M,Harold Veilleux,QU,104,105,Masters 2,247.5,150,247.5,645,Raw,2
SBD,M,Gordon Sjodin,BC,103,105,Masters 2,125,162.5,105,392.5,Raw,4
SBD,M,Matthew MacKay,NS,92.2,93,Masters 1,202.5,140,257.5,600,Raw,3
SBD,M,Jeff Rollin,SK,91.1,93,Masters 1,217.5,142.5,240,600,Raw,2
SBD,M,Brandon Summers,ON,92.8,93,Masters 1,272.5,180,277.5,730,Raw,1
SBD,F,Anjeannette Wynands,ON,119.1,84+,Masters 1,180.5,90,212.5,483,Raw,1
SBD,F,Aimee Mergaert,BC,121.5,84+,Masters 1,180,97.5,172.5,450,Raw,2
SBD,F,Wanda Lewis,NL,83.8,84,Masters 1,117.5,62.5,165,345,Raw,2
SBD,F,Vicky Taylor-Hood,NL,79.1,84,Masters 1,153,82.5,183,418.5,Raw,1
SBD,F,Olga Sullivan,NL,80.8,84,Masters 1,132.5,60,145,337.5,Raw,3
SBD,F,Kimberley Quig,ON,79.8,84,Masters 1,107.5,75,132.5,315,Raw,4
SBD,M,Yannik Morin,QU,82.8,83,Masters 1,205,120,230,555,Raw,3
SBD,M,Tom Kean,NL,82.4,83,Masters 1,230.5,155,257.5,643,Raw,1
SBD,M,Rob Dyke,NL,78.8,83,Masters 1,192.5,152.5,237.5,582.5,Raw,2
SBD,M,Sean Peter Sikorski,BC,70,74,Masters 1,147.5,137.5,182.5,467.5,Raw,1
SBD,M,Lewis Noppers,AB,71.2,74,Masters 1,210,130,252.5,592.5,Raw,2
SBD,M,Jean-Sébastien Rhéaume,QU,66.4,74,Masters 1,205,125,230,560,Raw,3
SBD,M,Éric Monette,NL,73.5,74,Masters 1,192.5,117.5,222.5,532.5,Raw,4
SBD,F,Natasha Dunn-Kvedaras,ON,65.5,72,Masters 1,137.5,82.5,150,370,Raw,3
SBD,F,Meredith Evans,QU,70.9,72,Masters 1,137.5,67.5,177.5,382.5,Raw,1
SBD,F,Leslie Sullivan,ON,71,72,Masters 1,146,72.5,160,378.5,Raw,2
SBD,F,Babette Meister,NL,64.6,72,Masters 1,115,55,130,300,Raw,4
SBD,F,Tonya Warren,NL,63,63,Masters 1,112.5,57.5,135,305,Raw,5
SBD,F,Holly Lasante,ON,62.6,63,Masters 1,125,70,160,355,Raw,1
SBD,F,Frances Manias,ON,62,63,Masters 1,125,72.5,140,337.5,Raw,3
SBD,F,Debbie Huq,QU,62.7,63,Masters 1,105,62.5,155,322.5,Raw,4
SBD,F,Carla Ramsay,AB,62.3,63,Masters 1,130,62.5,147.5,340,Raw,2
SBD,F,Julie Ditzend,ON,54.3,57,Masters 1,123.5,72.5,140,336,Raw,3
SBD,F,Jody McPeak,AB,55.1,57,Masters 1,110,55,130,295,Raw,4
SBD,F,Jennifer Caron,ON,55.1,57,Masters 1,120,67.5,168,355.5,Raw,1
SBD,F,Heather Ayles,PE,56.1,57,Masters 1,120,72.5,150,342.5,Raw,2
SBD,F,Danielle Hussey,NL,55.7,57,Masters 1,110,60,110,280,Raw,5
SBD,F,Shelley Sandiford,ON,50.8,52,Masters 1,95,55,155,305,Raw,1
SBD,F,Michelle MacDonald,QU,51.7,52,Masters 1,95,60,122.5,277.5,Raw,2
SBD,M,Tim Nadeau,AB,141.3,120+,Masters 1,222.5,132.5,262.5,617.5,Raw,3
SBD,M,Steve Magistrale,ON,130,120+,Masters 1,265,180,290,735,Raw,1
SBD,M,Mario Sayeur,QU,142.4,120+,Masters 1,282.5,142.5,305,730,Raw,2
SBD,M,Collin Pullar,SK,119.5,120,Masters 1,285,202.5,280,767.5,Raw,1
SBD,M,Stéphane Gilbert,QU,101.4,105,Masters 1,225,140,247.5,612.5,Raw,3
SBD,M,Ryan Kells,NS,99.4,105,Masters 1,202.5,112.5,260,575,Raw,5
SBD,M,David Pigozzo,ON,99.2,105,Masters 1,217.5,125,245,587.5,Raw,4
SBD,M,Daniel Milo,SK,103.4,105,Masters 1,250,105,277.5,632.5,Raw,2
SBD,M,Andy Childs,ON,104.8,105,Masters 1,250,145,278,673,Raw,1
SBD,M,Yohann Savinsky,QU,91.3,93,Juniors,257.5,160,308,725.5,Raw,3
SBD,M,Stephen Kim,ON,89.1,93,Juniors,215,125,237.5,577.5,Raw,10
SBD,M,Newton Ly,BC,92.9,93,Juniors,297.5,177.5,282.5,757.5,Raw,1
SBD,M,Michel Balik,QU,90.5,93,Juniors,235,130,252.5,617.5,Raw,8
SBD,M,Matthew Lewis Vena,BC,85.5,93,Juniors,237.5,120,260,617.5,Raw,7
SBD,M,Mathieu Doré,QU,91.3,93,Juniors,277.5,167.5,265,710,Raw,4
SBD,M,Mario Gibbs,ON,92,93,Juniors,260,155,282.5,697.5,Raw,5
SBD,M,Marc-Antoine Tremblay,QU,89.1,93,Juniors,237.5,130,227.5,595,Raw,9
SBD,M,Kurtis Tallaire,MB,92.3,93,Juniors,207.5,110,240,557.5,Raw,12
SBD,M,Graeme Laprade,ON,92.4,93,Juniors,282.5,160,300,742.5,Raw,2
SBD,M,Dave Powell,QU,91.7,93,Juniors,232.5,170,250,652.5,Raw,6
SBD,M,Blake Taylor,BC,90.2,93,Juniors,210,122.5,192.5,525,Raw,13
SBD,M,Andrew Dinn,ON,92.6,93,Juniors,207.5,137.5,230,575,Raw,11
SBD,F,Rebecca Garand,QU,89.2,84+,Juniors,165,97.5,195,457.5,Raw,1
SBD,F,Paula Norton,ON,80.7,84,Juniors,160,67.5,172.5,400,Raw,2
SBD,F,Marie-Pier Simard,QU,78.2,84,Juniors,120,65,132.5,317.5,Raw,4
SBD,F,Camille Tremblay,QU,73.6,84,Juniors,170,85,165,420,Raw,1
SBD,F,Alexandra Kousathana,ON,78.1,84,Juniors,137.5,87.5,152.5,377.5,Raw,3
SBD,M,Willy Lam,AB,82.3,83,Juniors,247.5,140,285,672.5,Raw,1
SBD,M,Tyler Neeb,ON,82.8,83,Juniors,240,125,242.5,607.5,Raw,5
SBD,M,Patrick Lui,ON,81.6,83,Juniors,185,112.5,210,507.5,Raw,13
SBD,M,Nickolaus Gray,ON,82.6,83,Juniors,230,137.5,235,602.5,Raw,6
SBD,M,Mathieu Kennedy,QU,81.8,83,Juniors,212.5,135,235,582.5,Raw,7
SBD,M,Mathew McEvoy,ON,81.3,83,Juniors,192.5,120,212.5,525,Raw,12
SBD,M,Justin Smith #1,PE,79.8,83,Juniors,217.5,152.5,262.5,632.5,Raw,3
SBD,M,Félix Gagnon,QU,80.5,83,Juniors,200,132.5,232.5,565,Raw,9
SBD,M,Eric Melendez-Duke,SK,80.2,83,Juniors,212.5,122.5,227.5,562.5,Raw,10
SBD,M,Brent Butler,NL,83,83,Juniors,222.5,117.5,270,610,Raw,4
SBD,M,Brenden Dupe,ON,82.7,83,Juniors,192.5,130,252.5,575,Raw,8
SBD,M,Brandon Leclerc,QU,81.9,83,Juniors,242.5,150,275,667.5,Raw,2
SBD,M,Blake Barrett,ON,77.2,83,Juniors,210,117.5,230,557.5,Raw,11
SBD,M,Adrian Brubacher,ON,82.6,83,Juniors,207.5,97.5,200,505,Raw,14
SBD,M,Sharlon Pena,ON,73.7,74,Juniors,217.5,122.5,242.5,582.5,Raw,3
SBD,M,Olanrewaju Adeoye,ON,73,74,Juniors,222.5,110,240,572.5,Raw,4
SBD,M,Morgan Penney,NL,73.3,74,Juniors,220,105,240,565,Raw,5
SBD,M,Mathieu Bernier,QU,73.8,74,Juniors,200,117.5,235,552.5,Raw,6
SBD,M,Josh Reyes,ON,74,74,Juniors,230,135,272.5,637.5,Raw,2
SBD,M,Jagdev Singh,ON,73.1,74,Juniors,172.5,105,215,492.5,Raw,10
SBD,M,Jacob MacKinnon,ON,73.4,74,Juniors,192.5,110,232.5,535,Raw,7
SBD,M,Christopher Dang,ON,72.3,74,Juniors,210,147.5,280,637.5,Raw,1
SBD,M,Bronson Jacque,NL,71.7,74,Juniors,185,130,197.5,512.5,Raw,9
SBD,M,Adrian Masangkay,ON,71.3,74,Juniors,185,110,227.5,522.5,Raw,8
SBD,F,Marie-Jeanne Gagnon,QU,71.7,72,Juniors,142.5,77.5,147.5,367.5,Raw,3
SBD,F,Kyra Thomson,AB,71.5,72,Juniors,150,70,180,400,Raw,2
SBD,F,Emily McKenna,PE,65.5,72,Juniors,115,45,125,285,Raw,5
SBD,F,Chelsey Gaulin,ON,69.9,72,Juniors,137.5,62.5,147.5,347.5,Raw,4
SBD,F,Catherine Chu,ON,70.7,72,Juniors,155,72.5,177.5,405,Raw,1
SBD,M,Philippe Llena-Naud,QU,66,66,Juniors,190,120,215,525,Raw,3
SBD,M,Derick Luu,ON,65,66,Juniors,190,122.5,237.5,550,Raw,2
SBD,M,Clifton Pho,AB,65.2,66,Juniors,215,142.5,283,640.5,Raw,1
SBD,F,Taylor Langlais,ON,63,63,Juniors,150,82.5,132.5,365,Raw,5
SBD,F,Justine Maltais,QU,62.6,63,Juniors,142.5,90,157.5,390,Raw,3
SBD,F,Jenna Sabino,BC,60.9,63,Juniors,135,70,150,355,Raw,6
SBD,F,Élodie Morin,QU,60.3,63,Juniors,142.5,85,170,397.5,Raw,1
SBD,F,Alison Kam,BC,59.8,63,Juniors,153,72.5,165,390.5,Raw,2
SBD,F,Abby Hall,NS,62,63,Juniors,135,85,150,370,Raw,4
SBD,M,Jason Luo,AB,59,59,Juniors,195,105,228,528,Raw,1
SBD,M,Derek Ng,ON,58.9,59,Juniors,150,80,215,445,Raw,2
SBD,M,Darcy Ducharme,ON,58.8,59,Juniors,170,92.5,165,427.5,Raw,3
SBD,F,Trena Restoule,ON,56.6,57,Juniors,130,55,137.5,322.5,Raw,3
SBD,F,Mikayla Lohse,SK,55.4,57,Juniors,107.5,55,125,287.5,Raw,4
SBD,F,Anna Schneider,SK,56.1,57,Juniors,130,75,152.5,357.5,Raw,1
SBD,F,Alexandra Stodalka,AB,56.1,57,Juniors,127.5,80,147.5,355,Raw,2
SBD,F,Nicola Paviglianiti,ON,51.9,52,Juniors,122.5,67.5,153,343,Raw,1
SBD,F,Julia Collins,NL,50.5,52,Juniors,92.5,45,115,252.5,Raw,2
SBD,F,Delaina Roul,NL,45.9,47,Juniors,102.5,50,135.5,288,Raw,1
SBD,M,Mo Malik,ON,139.1,120+,Juniors,290,172.5,287.5,750,Raw,2
SBD,M,Joshua Derchia,ON,131.3,120+,Juniors,285,197.5,300,782.5,Raw,1
SBD,M,Anthony Singeris,AB,123.5,120+,Juniors,237.5,145,262.5,645,Raw,3
SBD,M,Jackson Spencer,ON,116.6,120,Juniors,318.5,185,318,821.5,Raw,1
SBD,M,George Varvaresos,ON,119.1,120,Juniors,302.5,147.5,272.5,722.5,Raw,3
SBD,M,Adam Graves,ON,115,120,Juniors,285,182.5,272.5,740,Raw,2
SBD,M,Zacharey Chwok,AB,97.6,105,Juniors,260,145,287.5,692.5,Raw,2
SBD,M,Tristan Fortin,QU,97.9,105,Juniors,245,162.5,272.5,680,Raw,3
SBD,M,Tommi Peters,ON,103.9,105,Juniors,227.5,145,245,617.5,Raw,6
SBD,M,Nicholas Hadjistavropoulos,SK,102.2,105,Juniors,215,147.5,227.5,590,Raw,8
SBD,M,Luke Tremblay,ON,103.6,105,Juniors,285,180,300,765,Raw,1
SBD,M,Logan Vessey,PE,100.5,105,Juniors,220,135,267.5,622.5,Raw,5
SBD,M,Justin Koscak,ON,103.6,105,Juniors,195,90,245,530,Raw,9
SBD,M,Fady Mitry,QU,102.6,105,Juniors,210,157.5,232.5,600,Raw,7
SBD,M,Andy Langin,NL,104.7,105,Juniors,265,112.5,265,642.5,Raw,4
B,F,Karyne Turcotte,QU,61.5,63,Open,,70,,70,Single-ply,1
B,M,Ryan Fowler,SK,135.1,120+,Open,,260,,260,Single-ply,1
B,M,Shane Martin,AB,109.1,120,Open,,275,,275,Single-ply,1
B,M,Chad Sinclair,NS,98,105,Open,,180,,180,Single-ply,1
B,M,Jerry Marentette,ON,85.1,93,Masters 3,,110,,110,Single-ply,1
B,F,Linda Rousseau,ON,82.6,84,Masters 3,,82.5,,82.5,Single-ply,1
B,M,John Noguera,ON,82.5,83,Masters 3,,110,,110,Single-ply,1
B,M,Daniel Royer,QU,99.5,105,Masters 3,,100,,100,Single-ply,1
B,M,Andrew Bryant,BC,85,93,Masters 2,,160,,160,Single-ply,1
B,F,Sue Thomson,ON,50.2,52,Masters 2,,72.5,,72.5,Single-ply,1
B,M,John Beres,ON,137.4,120+,Masters 2,,207.5,,207.5,Single-ply,1
B,M,Rémy Dufour,QU,100.6,105,Masters 2,,175,,175,Single-ply,1
B,M,Robert Truchon,ON,91.4,93,Masters 1,,140,,140,Single-ply,1
B,M,Robert King,NL,82.1,83,Masters 1,,152.5,,152.5,Single-ply,1
B,M,Jacob Sinnott,PE,100.7,105,Sub-Juniors,,125,,125,Raw,1
B,M,Robert Perry,NL,89.2,93,Open,,147.5,,147.5,Raw,4
B,M,Jonathan Simard,QU,85,93,Open,,192.5,,192.5,Raw,1
B,M,Jared Bradley,ON,85.3,93,Open,,167.5,,167.5,Raw,3
B,M,Greg Zilberbrant,ON,91.9,93,Open,,192.5,,192.5,Raw,2
B,F,Rhaea Stinn,SK,74.8,84,Open,,115,,115,Raw,1
B,F,Dana Sandler,AB,83.8,84,Open,,82.5,,82.5,Raw,2
B,M,Ryan MacLellan,BC,81.8,83,Open,,172.5,,172.5,Raw,1
B,M,Adam Manery,AB,82.3,83,Open,,162.5,,162.5,Raw,2
B,M,Loc Xn,ON,71.9,74,Open,,147.5,,147.5,Raw,1
B,M,Alex Groleau,QU,71.7,74,Open,,107.5,,107.5,Raw,2
B,F,Elodie Vanasse,QU,63.8,72,Open,,87.5,,87.5,Raw,1
B,F,Maria Frank,AB,62.2,63,Open,,85,,85,Raw,1
B,M,Shane Martin,AB,108.3,120,Open,,222.5,,222.5,Raw,1
B,M,Michel Lebrun,QU,115,120,Open,,200,,200,Raw,3
B,M,Avi Silverberg,AB,114.7,120,Open,,210,,210,Raw,2
B,M,Leon Brown,ON,102.9,105,Open,,222.5,,222.5,Raw,2
B,M,Kohlton Parenteau,SK,103.9,105,Open,,222.5,,222.5,Raw,3
B,M,Alexandre Ritcher,QU,99.9,105,Open,,230,,230,Raw,1
B,M,Yves Dubois,QU,91,93,Masters 3,,140,,140,Raw,1
B,M,Tilman Gallant,PE,85.8,93,Masters 3,,137.5,,137.5,Raw,2
B,F,Susan Haywood,MB,86,84+,Masters 3,,57.5,,57.5,Raw,1
B,M,John Noguera,ON,82.7,83,Masters 3,,115,,115,Raw,2
B,M,Jerry Marentette,ON,82.6,83,Masters 3,,120,,120,Raw,1
B,F,Kim Crumpton,ON,52,52,Masters 3,,51,,51,Raw,1
B,M,John T Fraser,NS,93.4,105,Masters 3,,145,,145,Raw,1
B,M,Edvins Ozolins,NS,104.2,105,Masters 3,,137.5,,137.5,Raw,2
B,M,Daniel Royer,QU,99.9,105,Masters 3,,102.5,,102.5,Raw,3
B,M,Robert Monti,ON,85.7,93,Masters 2,,130,,130,Raw,1
B,M,Claude Dallaire,QU,90.3,93,Masters 2,,127.5,,127.5,Raw,2
B,M,Rémi Fortier,QU,82.8,83,Masters 2,,172.5,,172.5,Raw,1
B,M,Gerald Chafe,NL,73.8,74,Masters 2,,85,,85,Raw,1
B,F,Lisanne Glavin,ON,71,72,Masters 2,,65,,65,Raw,1
B,F,Beverly Sharpe,NL,72,72,Masters 2,,52.5,,52.5,Raw,2
B,F,Karen Hann,NL,60.1,63,Masters 2,,50,,50,Raw,1
B,M,John Beres,ON,136.2,120+,Masters 2,,185,,185,Raw,1
B,M,David Holmes,ON,111.8,120,Masters 2,,150,,150,Raw,1
B,M,John Ralf,AB,101.6,105,Masters 2,,155,,155,Raw,1
B,M,Robert Truchon,ON,90.6,93,Masters 1,,112.5,,112.5,Raw,2
B,M,Barry Antoniow,ON,91.8,93,Masters 1,,165,,165,Raw,1
B,M,Robert King,NL,82.5,83,Masters 1,,132.5,,132.5,Raw,2
B,M,John Lefuel,QU,79.7,83,Masters 1,,120,,120,Raw,3
B,M,Bill You,AB,77.9,83,Masters 1,,145,,145,Raw,1
B,M,Art Chan,ON,73.6,74,Masters 1,,150,,150,Raw,1
B,M,Pete Vickery,NS,108.3,120,Masters 1,,150,,150,Raw,1
B,M,Guillaume Fillion,QU,102.6,105,Masters 1,,200,,200,Raw,1
B,M,Sébastien Painchaud,QU,92.2,93,Juniors,,137.5,,137.5,Raw,1
B,F,Camille Tremblay,QU,73.8,84,Juniors,,87,,87.5,Raw,1
B,M,Justin Smith #1,PE,81,83,Juniors,,155,,155,Raw,1
B,F,Justine Maltais,QU,63.1,72,Juniors,,90,,90,Raw,1
B,M,Logan Vessey,PE,99.8,105,Juniors,,130,,130,Raw,1
