Place,Sex,Division,Equipment,Name,Country,BirthDate,WeightClassKg,BodyweightKg,Squat1Kg,Squat2Kg,Squat3Kg,Best3SquatKg,Squat4Kg,Bench1Kg,Bench2Kg,Bench3Kg,Best3BenchKg,Bench4Kg,Deadlift1Kg,Deadlift2Kg,Deadlift3Kg,Best3DeadliftKg,Deadlift4Kg,TotalKg,Event
1,M,Amateur Children 9,Wraps,Kim Tarverdiev,Ukraine,2008-07-09,44,43.3,-40,42.5,47.5,47.5,,27.5,-35,-35,27.5,,50,57.5,60,60,,135,SBD
1,M,Amateur Children 11-12,Wraps,Davit Papyan,Armenia,2007-01-09,44,38.6,60,-65,65,65,,25,30,-32.5,30,,80,-85,90,90,,185,SBD
1,M,Amateur Teenagers 13-15,Wraps,Hovik Babadjanyan,Armenia,2002-07-20,52,52,-100,100,105,105,,55,65,-70,65,,135,145,150,150,,320,SBD
1,M,Amateur Teenagers 13-15,Wraps,Dmytro Rozhanskyy,Ukraine,2004-08-09,60,59.95,90,100,105,105,,52.5,57.5,60,60,,95,110,-117.5,110,,275,SBD
DQ,M,Amateur Teenagers 13-15,Wraps,Erik Khachatryan,Armenia,2002-12-03,60,59.7,-70,-70,-70,,,-60,,,,,-100,,,,,,SBD
1,M,Amateur Teenagers 13-15,Wraps,Igor Rymarchuk,Ukraine,2004-02-20,75,69,-110,-120,120,120,,60,67.5,-70,67.5,,-115,-120,120,120,,307.5,SBD
1,M,Amateur Teenagers 13-15,Wraps,Yarosvav Gaviada,Ukraine,2003-02-18,100,97.55,190,200,-210,200,,-100,100,110,110,,220,230,240,240,-250,550,SBD
1,M,Amateur Teenagers 13-15,Wraps,Gurgen Tiliz,Turkey,2003-06-12,125,120.3,120,140,150,150,,50,70,-80,70,,-130,160,-170,160,,380,SBD
1,M,Amateur Teenagers 16-17,Wraps,Oleksandr Korchaka,Ukraine,2001-05-07,82.5,81.45,170,180,190,190,,115,120,125,125,,190,200,205,205,,520,SBD
2,M,Amateur Teenagers 16-17,Wraps,Karen Araqelyan,Armenia,2000-10-02,82.5,80.8,130,140,-145,140,,100,110,-115,110,,-190,190,200,200,,450,SBD
1,M,Amateur Teenagers 16-17,Wraps,Ivan Gmyrya,Ukraine,2001-05-23,100,99.5,185,195,205,205,,115,-120,-120,115,,-180,195,-205,195,,515,SBD
2,M,Amateur Teenagers 16-17,Wraps,Igor Fedorenko,Ukraine,2001-11-19,100,98.65,150,160,175,175,,110,115,-120,115,,150,160,-175,160,,450,SBD
1,M,Amateur Teenagers 18-19,Wraps,Emir Alp Tümke,Turkey,2000-04-13,56,53.25,75,80,-85,80,,35,45,-60,45,,-105,115,130,130,,255,SBD
1,M,Amateur Teenagers 18-19,Wraps,Eren Sarp Tumke,Turkey,2000-03-14,60,56.3,85,90,-100,90,,35,45,60,60,,-105,115,120,120,,270,SBD
DQ,M,Amateur Teenagers 18-19,Wraps,Alper Sen,Turkey,2000-04-01,67.5,64.15,-100,-110,-110,,,-60,,,,,-100,,,,,,SBD
1,M,Amateur Teenagers 18-19,Wraps,Nazarii Levytskyy,Ukraine,2000-04-28,82.5,78.85,160,170,180,180,,120,125,130,130,,190,200,202.5,202.5,,512.5,SBD
1,M,Amateur Juniors 20-23,Wraps,Illia Nosenok,Ukraine,1997-08-02,60,59.9,120,130,-140,130,,90,100,107.5,107.5,,130,150,167.5,167.5,,405,SBD
1,M,Amateur Juniors 20-23,Wraps,Andrii Bykhun,Ukraine,1996-12-12,67.5,65.15,140,-145,145,145,,67.5,70,,70,,165,170,-180,170,,385,SBD
1,M,Amateur Juniors 20-23,Wraps,Kyrylo Romanchuk,Ukraine,1998-01-07,75,73.8,195,205,-210,205,,110,115,120,120,,-200,200,-205,200,,525,SBD
2,M,Amateur Juniors 20-23,Wraps,Stepan Dolgopolyy,Ukraine,1995-07-11,75,74.7,160,175,180,180,,100,-107.5,-107.5,100,,165,177.5,190,190,,470,SBD
1,M,Amateur Juniors 20-23,Wraps,Serdar Tosun,Turkey,1997-05-31,82.5,79.85,200,220,-230,220,,135,145,-155,145,,250,-260,-260,250,,615,SBD
2,M,Amateur Juniors 20-23,Wraps,Artem Demidov,Ukraine,1994-08-01,82.5,76.4,140,145,150,150,,140,145,-150,145,,185,195,205,205,,500,SBD
1,M,Amateur Juniors 20-23,Wraps,Davit Avetikyan,Armenia,1997-02-20,90,87.35,170,190,205,205,,110,125,-135,125,,150,-180,200,200,,530,SBD
1,M,Amateur Juniors 20-23,Wraps,Talha Cetin,Turkey,1997-12-09,110,108.55,240,255,270,270,,165,175,-180,175,,285,300,305,305,,750,SBD
2,M,Amateur Juniors 20-23,Wraps,Robert Ordinyan,Armenia,1997-04-06,110,104.85,210,-220,-225,210,,150,160,-165,160,,230,-240,-240,230,,600,SBD
DQ,M,Amateur Juniors 20-23,Wraps,Piotr Sadowski,Poland,1996-04-14,110,108.95,-240,-240,-240,,,-180,,,,,-300,,,,,,SBD
DQ,M,Amateur Open,Wraps,Piotr Stefaniuk,Poland,1991-02-08,60,59.3,-115,-115,-115,,-115,-105,,,,,-170,,,,,,SBD
1,M,Amateur Open,Wraps,Varazdat Hakobyan,Armenia,1989-12-18,67.5,66.55,140,-150,150,150,,60,70,75,75,,150,160,-170,160,,385,SBD
1,M,Amateur Open,Wraps,Vadym Doroshenko,Ukraine,1989-11-27,75,74.05,155,165,172.5,172.5,,90,-100,-100,90,,165,175,182.5,182.5,,445,SBD
2,M,Amateur Open,Wraps,Denys Popov,Ukraine,1988-09-10,75,70.3,160,162.5,-165,162.5,,92.5,-95,-95,92.5,,-180,185,-190,185,,440,SBD
1,M,Amateur Open,Wraps,Sergiy Chalyy,Ukraine,1993-08-31,82.5,81.1,-200,205,-212.5,205,,115,120,-122.5,120,,220,227.5,-230,227.5,,552.5,SBD
2,M,Amateur Open,Wraps,Yaroslav Kalugin,Ukraine,1994-05-08,82.5,76.85,185,-192.5,192.5,192.5,,100,105,-107.5,105,,225,-235,,225,,522.5,SBD
DQ,M,Amateur Open,Wraps,Tomasz Miloch,Poland,1983-09-17,82.5,80.2,-220,-220,-220,,,-140,,,,,-250,,,,,,SBD
1,M,Amateur Open,Wraps,Leonid Andrievskyy,Ukraine,1989-02-04,90,89.8,200,210,220,220,,175,185,-187.5,185,,255,270,275,275,,680,SBD
2,M,Amateur Open,Wraps,Vitalii Meserenko,Ukraine,1976-11-06,90,89.15,225,240,-250,240,,160,-170,-170,160,,210,-222.5,-222.5,210,,610,SBD
3,M,Amateur Open,Wraps,Artur Araqelyan,Armenia,1986-08-20,90,88.2,170,-180,180,180,,130,140,145,145,,210,230,-240,230,,555,SBD
1,M,Amateur Open,Wraps,Maksym Zhuravel,Ukraine,1987-11-18,100,97.9,230,-240,240,240,,140,152.5,-162.5,152.5,,230,245,-250,245,,637.5,SBD
2,M,Amateur Open,Wraps,Aleksandr Ageenko,Ukraine,1976-02-16,100,99.35,200,-220,220,220,,155,-160,,155,,220,230,-240,230,,605,SBD
3,M,Amateur Open,Wraps,Anton Lotkov,Ukraine,1989-02-10,100,97.85,-180,-190,190,190,,140,-150,150,150,,220,235,245,245,,585,SBD
1,M,Amateur Open,Wraps,Mariusz Snarski,Poland,1984-05-08,110,103.7,240,260,270,270,,160,180,-187.5,180,,250,270,280,280,,730,SBD
2,M,Amateur Open,Wraps,Pavlo Kipnyak,Ukraine,1969-02-16,110,106.7,200,-220,,200,,150,157.5,-162.5,157.5,,210,220,,220,,577.5,SBD
1,M,Amateur Open,Wraps,Davit Naroushvili,Georgia,1988-05-18,125,111.5,200,210,,210,,160,170,-180,170,,200,220,230,230,,610,SBD
1,M,Amateur Open,Wraps,Marek Makarewicz,Poland,1979-04-09,140,129.05,250,260,-270,260,,210,-220,220,220,,270,290,-300,290,,770,SBD
2,M,Amateur Open,Wraps,Oleksandr Kalkutin,Ukraine,1965-09-07,140,132.4,-220,-240,240,240,,155,-165,-170,155,,210,230,-240,230,,625,SBD
1,M,Amateur Submasters 33-39,Wraps,Mykhaylo Moshkovych,Ukraine,1984-06-14,82.5,81.55,160,165,170,170,,90,-95,-95,90,,200,210,-215,210,,470,SBD
DQ,M,Amateur Submasters 33-39,Wraps,Tomasz Miloch,Poland,1983-09-17,82.5,80.2,-220,-220,-220,,,-140,,,,,-250,,,,,,SBD
DQ,M,Amateur Submasters 33-39,Wraps,Aram Khachatryan,Armenia,1982-01-15,90,87.55,-205,-205,-205,,,-110,,,,,-245,,,,,,SBD
1,M,Amateur Submasters 33-39,Wraps,Andrii Karneta,Ukraine,1984-09-24,100,97,150,-170,-170,150,,110,-120,120,120,,180,200,-210,200,,470,SBD
1,M,Amateur Submasters 33-39,Wraps,Mariusz Snarski,Poland,1984-05-08,110,103.7,240,260,270,270,,160,180,-187.5,180,,250,270,280,280,,730,SBD
1,M,Amateur Submasters 33-39,Wraps,Can Yesilpinar,Turkey,1983-02-20,125,111.5,-130,140,-170,140,,160,175,185,185,,-190,190,-240,190,,515,SBD
1,M,Amateur Submasters 33-39,Wraps,Marek Makarewicz,Poland,1979-04-09,140,129.05,250,260,-270,260,,210,-220,220,220,,270,290,-300,290,,770,SBD
1,M,Amateur Submasters 33-39,Wraps,Gurhan Gurler,Turkey,1983-07-20,140+,180.8,270,290,-310,290,,-190,190,212.5,212.5,,270,-290,290,290,,792.5,SBD
1,M,Amateur Masters 40-44,Wraps,Volodymyr Bushtryuk,Ukraine,1976-09-22,82.5,80.95,220,230,235,235,,140,-145,-145,140,,180,190,195,195,,570,SBD
1,M,Amateur Masters 40-44,Wraps,Andrii Zhdanov,Ukraine,1975-02-06,90,89.8,210,225,235,235,,140,150,155,155,,210,227.5,235,235,,625,SBD
2,M,Amateur Masters 40-44,Wraps,Vitalii Meserenko,Ukraine,1976-11-06,90,89.15,225,240,-250,240,,160,-170,-170,160,,210,-222.5,-222.5,210,,610,SBD
1,M,Amateur Masters 40-44,Wraps,Aleksandr Ageenko,Ukraine,1976-02-16,100,99.35,200,-220,220,220,,155,-160,,155,,220,230,-240,230,,605,SBD
1,M,Amateur Masters 45-49,Wraps,Pavlo Kipnyak,Ukraine,1969-02-16,110,106.7,200,-220,,200,,150,157.5,-162.5,157.5,,210,220,,220,,577.5,SBD
1,M,Amateur Masters 50-54,Wraps,Gasan Garumov,Ukraine,1963-07-01,82.5,80.15,120,130,135,135,,90,95,-100,95,,150,160,165,165,,395,SBD
1,M,Amateur Masters 50-54,Wraps,Oleksandr Kalkutin,Ukraine,1965-09-07,140,132.4,-220,-240,240,240,,155,-165,-170,155,,210,230,-240,230,,625,SBD
1,M,Amateur Masters 55-59,Wraps,Volodymyr Morozevych,Ukraine,1958-10-29,67.5,65.9,80,100,110,110,,60,65,70,70,,100,110,120,120,,300,SBD
1,M,Amateur Masters 55-59,Wraps,Gennadii Petrenko,Ukraine,1959-08-10,75,74.45,155,162.5,167.5,167.5,,85,-90,,85,,185,202.5,210,210,,462.5,SBD
1,M,Amateur Masters 55-59,Wraps,Volodymyr Chepurnyy,Ukraine,1960-07-27,82.5,82.2,190,200,205,205,,97.5,102.5,105,105,,210,225,-232.5,225,,535,SBD
2,M,Amateur Masters 55-59,Wraps,Mykhailo Burkov,Ukraine,1963-02-19,82.5,79.25,-180,180,185,185,,107.5,112.5,115,115,,180,190,-195,190,,490,SBD
1,M,Amateur Masters 55-59,Wraps,Volodymyr Mushchynin,Ukraine,1961-10-04,100,96.35,130,-150,150,150,,75,85,-90,85,,130,150,-160,150,,385,SBD
1,M,Amateur Masters 55-59,Wraps,Vasyl Golivets,Ukraine,1960-01-30,125,123.3,200,210,225,225,,155,165,170,170,,200,210,220,220,,615,SBD
1,M,Amateur Masters 65-69,Wraps,Oleksandr Ostrovskyy,Ukraine,1953-02-10,75,74.75,145,155,-165,155,,85,-95,-95,85,,155,165,170,170,,410,SBD
1,M,Amateur Masters 65-69,Wraps,Stefan Sochański,Poland,1948-11-17,100,90.25,-165,-165,165,165,,90,,,90,,185,205,,205,,460,SBD
1,M,Amateur Masters 70-74,Wraps,Yurii Starkov,Ukraine,1947-09-01,82.5,81.4,140,150,155,155,,105,110,-115,110,,200,210,215,215,,480,SBD
1,M,Amateur Masters 75-79,Wraps,Volodymyr Korshunov,Ukraine,1942-11-15,100,90.05,100,,,100,,110,117.5,122.5,122.5,125,120,130,,130,,352.5,SBD
1,M,Amateur MPF,Wraps,Mykhailo Burkov,Ukraine,1963-02-19,82.5,79.25,-180,180,185,185,,107.5,112.5,115,115,,180,190,-195,190,,490,SBD
1,M,Amateur MPF,Wraps,Maksym Zhuravel,Ukraine,1987-11-18,100,97.9,230,-240,240,240,,140,152.5,-162.5,152.5,,230,245,-250,245,,637.5,SBD
1,M,Amateur MPF,Wraps,Mariusz Snarski,Poland,1984-05-08,110,103.7,240,260,270,270,,160,180,-187.5,180,,250,270,280,280,,730,SBD
1,F,Amateur Teenagers 13-15,Wraps,Zhasmin Hayrapetyan,Armenia,2003-10-16,56,53,70,75,-80,75,,30,35,40,40,,80,85,90,90,,205,SBD
1,F,Amateur Teenagers 18-19,Wraps,Yana Khmel,Ukraine,1999-01-16,67.5,67,-102.5,-110,110,110,,52.5,60,-62.5,60,,-100,110,118,118,125,288,SBD
2,F,Amateur Teenagers 18-19,Wraps,Diana Mishchenko,Ukraine,2000-03-29,67.5,60.65,82.5,87.5,92.5,92.5,,40,42.5,-45,42.5,,87.5,95,100,100,,235,SBD
1,F,Amateur Teenagers 18-19,Wraps,Arina Oleinyk,Ukraine,1998-10-06,75,75,105,115,-120,115,,60,65,67.5,67.5,,125,135,-140,135,,317.5,SBD
1,F,Amateur Juniors 20-23,Wraps,Nelia Boiko,Ukraine,1995-12-31,52,50.2,80,-82.5,-82.5,80,,-35,-35,35,35,,95,100,105,105,,220,SBD
1,F,Amateur Juniors 20-23,Wraps,Anna Evdokimova,Ukraine,1994-10-06,56,55.1,95,-100,100,100,,45,-47.5,-47.5,45,,105,110,117.5,117.5,,262.5,SBD
1,F,Amateur Juniors 20-23,Wraps,Yana Mulishova,Ukraine,1995-09-29,67.5,66.3,80,-90,90,90,,42.5,47.5,-52.5,47.5,,82.5,92.5,102.5,102.5,,240,SBD
1,F,Amateur Open,Wraps,Galyna Danylenko,Ukraine,1991-02-10,44,42.3,-95,-95,95,95,,35,37.5,40.0,40.0,,90,-95,,90,,225.00,SBD
2,F,Amateur Open,Wraps,Nadiya Osaenko,Ukraine,1990-05-07,44,42.9,65,70,72.5,72.5,-75,32.5,35,-37.5,35,,90,92.5,95,95,,202.5,SBD
1,F,Amateur Open,Wraps,Tetiana Stepatska,Ukraine,1989-11-29,48,47.8,120.00,-133,-133,120.00,,50,-55,55,55,,82.5,92.5,100,100,,275,SBD
1,F,Amateur Open,Wraps,Yana Nechaieva,Ukraine,1991-05-07,52,51.25,95,-97.5,-100,95,,60,62.5,65,65,,100,105,-107.5,105,,265,SBD
2,F,Amateur Open,Wraps,Kateryna Yarushyna,Ukraine,1990-11-06,52,52,-90,90,95,95,,45,47.5,50,50,,110,-117.5,-117.5,110,,255,SBD
1,F,Amateur Open,Wraps,Olga Skorokhodova,Ukraine,1980-11-11,56,55.35,135,145,-150,145,,70,-75,-75,70,,140,147.5,-152.5,147.5,,362.5,SBD
2,F,Amateur Open,Wraps,Alla Ryazanova,Ukraine,1979-11-28,56,55.6,90,-100,-100,90,,45,50,-52.5,50,,140,150,-152.5,150,,290,SBD
1,F,Amateur Open,Wraps,Darina Kovalova,Ukraine,1990-12-27,60,58.8,135,-142.5,-145,135,,60,65,-67.5,65,,160,167.5,170,170,,370,SBD
DQ,F,Amateur Open,Wraps,Iryna Bozhko,Ukraine,1993-11-13,60,58.6,-127.5,-127.5,-127.5,,-127.5,-57.5,,,,,-120,,,,,,SBD
1,F,Amateur Open,Wraps,Viktoria Reznik,Ukraine,1984-08-31,67.5,60.6,70,75,-80,75,,35,37.5,40,40,,90,100,107.5,107.5,,222.5,SBD
1,F,Amateur Submasters 33-39,Wraps,Nataliia Krasiy,Ukraine,1978-09-20,52,51.15,70,75,80,80,,35,37.5,-40,37.5,,75,-80,80,80,,197.5,SBD
1,F,Amateur Submasters 33-39,Wraps,Olga Skorokhodova,Ukraine,1980-11-11,56,55.35,135,145,-150,145,,70,-75,-75,70,,140,147.5,-152.5,147.5,,362.5,SBD
1,F,Amateur Submasters 33-39,Wraps,Olena Bubnova,Ukraine,1985-03-22,67.5,60.25,-125,-125,125,125,,65,75,80,80,,-130,130,140,140,,345,SBD
1,F,Amateur Submasters 33-39,Wraps,Tetyana Khomyak,Ukraine,1979-06-26,82.5,77.3,90,100,105,105,,60,65,70,70,,110,120,125,125,,300,SBD
1,F,Amateur Masters 45-49,Wraps,Yuliya Chumaieva,Ukraine,1973-04-17,60,60,70,80,85,85,,47.5,-52.5,-52.5,47.5,,95,107.5,-115,107.5,,240,SBD
1,F,Amateur Masters 45-49,Wraps,Olga Kritikova,Ukraine,1971-05-30,67.5,67.15,-120,120,-132.5,120,,75,82.5,85,85,,120,130,137.5,137.5,,342.5,SBD
1,M,Pro Teenagers 16-17,Wraps,Sergii Mak-Mak,Ukraine,2001-06-20,60,57.95,-140,140,150,150,,80,90,-95,90,,140,150,155,155,,395,SBD
1,M,Pro Teenagers 16-17,Wraps,Hasan Kadir Uçmazoğlu,Turkey,2000-07-24,75,74.05,-115,115,-120,115,,75,82.5,87.5,87.5,,120,-140,150,150,,352.5,SBD
DQ,M,Pro Teenagers 16-17,Wraps,Ata Yiğit Duran,Turkey,2000-12-26,82.5,82.15,-200,-200,-200,,,-100,,,,,-195,,,,,,SBD
1,M,Pro Teenagers 16-17,Wraps,Yildiz Berk,Turkey,2000-10-16,90,87.2,170,180,-200,180,,110,-120,120,120,,200,210,-225,210,,510,SBD
1,M,Pro Juniors 20-23,Wraps,Eugenij Tymokhin,Ukraine,1997-08-29,90,88.4,200,212.5,220,220,,110,-120,120,120,,217.5,230,-235,230,,570,SBD
1,M,Pro Juniors 20-23,Wraps,Cenk Kocak,Turkey,1996-07-25,125,119,280,310,-330,310,,190,200,215,215,,330,340,-360,340,,865,SBD
1,M,Pro Open,Wraps,Dmytro Solovyov,Ukraine,1970-10-03,75,75,220,235,245,245,,130,140,145,145,,220,240,252.5,252.5,,642.5,SBD
DQ,M,Pro Open,Wraps,Gor Khachatryan,Armenia,1986-05-05,75,74.1,-180,180,200,200,,160,175,-182.5,175,,-160,,,,,,SBD
1,M,Pro Open,Wraps,Oleg Khrystoforov,Ukraine,1975-05-01,100,99.75,-335,335,-352.5,335,,180,-190,-190,180,,270,-290,-290,270,,785,SBD
1,M,Pro Open,Wraps,Łukasz Lipka,Poland,1992-09-24,110,109.6,280,-300,300,300,,160,170,175,175,,300,310,,310,,785,SBD
2,M,Pro Open,Wraps,Iegor Polomoshnov,Ukraine,1980-03-06,110,104.05,250,260,265,265,,200,210,220,220,,260,270,280,280,,765,SBD
3,M,Pro Open,Wraps,Oleksandr Burda,Ukraine,1988-08-17,110,108.3,260,-280,-280,260,,170,180,190,190,,280,300,-320,300,,750,SBD
4,M,Pro Open,Wraps,Wilfred Kebenge,Cameroon,1983-07-21,110,108.1,300,320,330,330,,140,160,170,170,,240,-270,,240,,740,SBD
5,M,Pro Open,Wraps,Valiko Pipia,Georgia,1983-02-27,110,107.3,220,-240,-260,220,,150,160,-165,160,,260,275,-280,275,,655,SBD
1,M,Pro Open,Wraps,Rafał Wójcik,Poland,1987-10-03,125,116.35,-265,270,-280,270,,170,180,-187.5,180,,300,310,-320,310,,760,SBD
2,M,Pro Open,Wraps,Oleksandr Desyatskyy,Ukraine,1976-11-24,125,124.5,-240,240,-250,240,,190,200,-210,200,,260,280,285,285,,725,SBD
DQ,M,Pro Open,Wraps,Maksym Rybalka,Ukraine,1993-09-28,125,112.3,-340,-340,-340,,,-170,,,,,-310,,,,,,SBD
1,M,Pro Open,Wraps,Roman Dzyuba,Ukraine,1968-03-25,140,127.75,330,350,365.5,365.5,,200,-207.5,-207.5,200,,270,305,320,320,330,885.5,SBD
1,M,Pro Masters 40-44,Wraps,Erni Gregorčič,Slovenia,1976-06-04,75,74.45,200,210,216,216,,140,145,150,150,,230,240,250,250,,616,SBD
1,M,Pro Masters 40-44,Wraps,Oleg Khrystoforov,Ukraine,1975-05-01,100,99.75,-335,335,-352.5,335,,180,-190,-190,180,,270,-290,-290,270,,785,SBD
1,M,Pro Masters 40-44,Wraps,Oleksandr Desyatskyy,Ukraine,1976-11-24,125,124.5,-240,240,-250,240,,190,200,-210,200,,260,280,285,285,,725,SBD
1,M,Pro Masters 45-49,Wraps,Dmytro Solovyov,Ukraine,1970-10-03,75,75,220,235,245,245,,130,140,145,145,,220,240,252.5,252.5,,642.5,SBD
2,M,Pro Masters 45-49,Wraps,Oleksandr Popovych,Ukraine,1972-08-12,75,71.7,-150,160,-175,160,,122.5,132.5,137.5,137.5,,165,175,-185,175,,472.5,SBD
1,M,Pro Masters 50-54,Wraps,Roman Dzyuba,Ukraine,1968-03-25,140,127.75,330,350,365.5,365.5,,200,-207.5,-207.5,200,,270,305,320,320,330,885.5,SBD
1,M,Pro MPF,Wraps,Ilia Kochiashvili,Georgia,1991-11-01,125,111.9,200,230,,230,,160,176,,176,,250,270,285,285,-301,691,SBD
1,F,Pro Teenagers 18-19,Wraps,Anna Syvokobylska,Ukraine,1998-05-30,75,70.05,145,160,-170,160,,67.5,72.5,75,75,,140,-155,-155,140,,375,SBD
1,F,Pro Open,Wraps,Mariša Golob,Slovenia,1990-05-15,56,54.95,145,155,162.5,162.5,,90,95,100,100,,165,-175,-175,165,,427.5,SBD
1,F,Pro Open,Wraps,Svitlana Glatman,Ukraine,1981-09-05,67.5,64.7,135,145,150,150,,65,70,-72.5,70,,137.5,145,155,155,,375,SBD
2,F,Pro Open,Wraps,Olena Razuvaieva,Ukraine,1988-04-26,67.5,67.2,-135,140,-150,140,,72.5,77.5,-82.5,77.5,,130,140,-155,140,,357.5,SBD
1,F,Pro Open,Wraps,Nataliya Mavdrik,Ukraine,1984-05-14,75,70.4,170,180,185,185,,95,100,105,105,,170,180,190,190,,480,SBD
1,F,Pro Submasters 33-39,Wraps,Nataliya Mavdrik,Ukraine,1984-05-14,75,70.4,170,180,185,185,,95,100,105,105,,170,180,190,190,,480,SBD
1,M,Amateur Juniors 20-23,Multi-ply,Andranik Minasyan,Armenia,1997-10-02,75,72.35,120,,,120,,90,,,90,,150,,,150,,360,SBD
1,M,Amateur Open,Multi-ply,Nver Gharibyan,Armenia,1987-09-01,110,107.25,160,,,160,,150,-155,,150,,200,,,200,,510,SBD
1,M,Amateur Masters 65-69,Multi-ply,Stefan Sochański,Poland,1948-11-17,100,90.25,210,230,,230,,105,-120,,105,,215,235,-253,235,,570,SBD
1,M,Amateur MPF,Multi-ply,Stefan Sochański,Poland,1948-11-17,100,90.25,210,230,,230,,105,-120,,105,,215,235,-253,235,,570,SBD
1,M,Pro Teenagers 18-19,Multi-ply,Vitaliy Menchuk,Ukraine,1998-05-27,100,95.35,220,-235,235,235,,-240,240,-250,240,,230,245,255,255,,730,SBD
1,M,Pro Open,Multi-ply,Hrach Guloyan,Armenia,1993-07-28,100,95.2,100,,,100,,100,,,100,,100,,,100,,300,SBD
1,M,Amateur Children 9,Raw,Kim Tarverdiev,Ukraine,2008-07-09,44,43.3,,,,,,,,,,,50,57.5,60,60,,60,D
1,M,Amateur Children 11-12,Raw,Tigran Matevosyan,Armenia,2007-01-26,44,30.6,,,,,,,,,,,80,85,92.5,92.5,,92.5,D
1,M,Amateur Teenagers 13-15,Raw,Erik Khachatryan,Armenia,2002-12-03,60,59.7,,,,,,,,,,,90,110,130,130,-156,130,D
1,M,Amateur Teenagers 13-15,Raw,Igor Bigun,Ukraine,2002-06-18,82.5,79.75,,,,,,,,,,,135,145,155,155,,155,D
1,M,Amateur Teenagers 13-15,Raw,Devrim Keskin,Turkey,2002-07-28,90,88.15,,,,,,,,,,,170,190,200,200,-210,200,D
1,M,Amateur Teenagers 13-15,Raw,Yarosvav Gaviada,Ukraine,2003-02-18,100,97.55,,,,,,,,,,,220,230,240,240,-250,240,D
1,M,Amateur Teenagers 16-17,Raw,Krystian Zawadzki,Poland,2000-05-31,67.5,62.75,,,,,,,,,,,130,-137.5,140,140,,140,D
1,M,Amateur Teenagers 16-17,Raw,Cengizhan Öztürk,Turkey,2001-06-09,75,71.25,,,,,,,,,,,170,185,-190,185,,185,D
1,M,Amateur Teenagers 16-17,Raw,Karen Araqelyan,Armenia,2000-10-02,82.5,80.8,,,,,,,,,,,-190,190,200,200,,200,D
1,M,Amateur Teenagers 16-17,Raw,Emre Erdoğan,Turkey,2000-08-11,110,100.65,,,,,,,,,,,200,215,230,230,240,230,D
1,M,Amateur Teenagers 18-19,Raw,Alper Sen,Turkey,2000-04-01,67.5,64.15,,,,,,,,,,,-90,95,110,110,,110,D
1,M,Amateur Teenagers 18-19,Raw,Valentyn Krakovetskyy,Ukraine,1999-04-25,75,72.9,,,,,,,,,,,150,160,-170,160,,160,D
1,M,Amateur Teenagers 18-19,Raw,Nazarii Levytskyy,Ukraine,2000-04-28,82.5,78.85,,,,,,,,,,,190,200,-202.5,200,,200,D
2,M,Amateur Teenagers 18-19,Raw,Ivan Yarmolyuk,Ukraine,1998-10-02,82.5,75.7,,,,,,,,,,,165,177.5,190,190,,190,D
1,M,Amateur Teenagers 18-19,Raw,Vitalii Pidkaura,Ukraine,2000-04-10,90,83.05,,,,,,,,,,,215,230,240,240,,240,D
2,M,Amateur Teenagers 18-19,Raw,Nazar Klets,Ukraine,1998-09-19,90,87.2,,,,,,,,,,,155,-165,-165,155,,155,D
1,M,Amateur Juniors 20-23,Raw,Davit Petrosyan,Armenia,1995-08-17,75,72.2,,,,,,,,,,,170,190,-210,190,,190,D
2,M,Amateur Juniors 20-23,Raw,Andrii Maslej,Ukraine,1996-07-06,75,74.2,,,,,,,,,,,155,170,-175,170,,170,D
1,M,Amateur Juniors 20-23,Raw,Dmytro Nestrachuk,Ukraine,1995-06-13,90,90,,,,,,,,,,,180,190,200,200,,200,D
1,M,Amateur Juniors 20-23,Raw,Piotr Sadowski,Poland,1996-04-14,110,108.95,,,,,,,,,,,300,-315,-315,300,,300,D
1,M,Amateur Open,Raw,Piotr Stefaniuk,Poland,1991-02-08,60,59.3,,,,,,,,,,,-170,180,190,190,,190,D
1,M,Amateur Open,Raw,Varazdat Hakobyan,Armenia,1989-12-18,67.5,66.55,,,,,,,,,,,150,160,-170,160,,160,D
1,M,Amateur Open,Raw,Volodymyr Zhmudyk,Ukraine,1993-01-22,75,73.85,,,,,,,,,,,170,180,190,190,,190,D
1,M,Amateur Open,Raw,Tomasz Miloch,Poland,1983-09-17,82.5,80.2,,,,,,,,,,,240,252.5,257.5,257.5,,257.5,D
1,M,Amateur Open,Raw,Leonid Andrievskyy,Ukraine,1989-02-04,90,89.8,,,,,,,,,,,255,270,275,275,,275,D
2,M,Amateur Open,Raw,Sergii Yurchuk,Ukraine,1986-05-12,90,87.85,,,,,,,,,,,230,-240,-240,230,,230,D
3,M,Amateur Open,Raw,Artur Araqelyan,Armenia,1986-08-20,90,88.2,,,,,,,,,,,210,230,-240,230,,230,D
1,M,Amateur Open,Raw,Oleksandr Lisovskiy,Ukraine,1990-01-17,100,94.3,,,,,,,,,,,260,272.5,-285,272.5,-285.5,272.5,D
2,M,Amateur Open,Raw,Mykhailo Kravchenya,Ukraine,1992-11-13,100,94.6,,,,,,,,,,,235,250,-260,250,,250,D
3,M,Amateur Open,Raw,Anton Lotkov,Ukraine,1989-02-10,100,97.85,,,,,,,,,,,220,235,245,245,,245,D
4,M,Amateur Open,Raw,Aleksandr Ageenko,Ukraine,1976-02-16,100,99.35,,,,,,,,,,,220,230,-240,230,,230,D
1,M,Amateur Open,Raw,Pavlo Kipnyak,Ukraine,1969-02-16,110,106.7,,,,,,,,,,,210,220,,220,,220,D
2,M,Amateur Open,Raw,Vadym Omelchuk,Ukraine,1989-09-16,110,102.1,,,,,,,,,,,190,205,215,215,,215,D
3,M,Amateur Open,Raw,Ivan Ilchenko,Ukraine,1988-07-19,110,109.05,,,,,,,,,,,-215,215,-222.5,215,,215,D
4,M,Amateur Open,Raw,Michał Szaszkowski,Poland,1988-09-11,110,100.6,,,,,,,,,,,180,195,202.5,202.5,,202.5,D
1,M,Amateur Open,Raw,Oleksandr Tolmachov,Ukraine,1974-05-23,125,124.6,,,,,,,,,,,130,150,160,160,,160,D
1,M,Amateur Open,Raw,Oleksandr Kalkutin,Ukraine,1965-09-07,140,132.4,,,,,,,,,,,210,230,-240,230,,230,D
1,M,Amateur Open,Raw,Oleg Brazhnyk,Ukraine,1970-05-06,140+,152.5,,,,,,,,,,,180,190,-200,190,,190,D
1,M,Amateur Submasters 33-39,Raw,Tomasz Miloch,Poland,1983-09-17,82.5,80.2,,,,,,,,,,,240,252.5,257.5,257.5,,257.5,D
2,M,Amateur Submasters 33-39,Raw,Dmytro Romanenko,Ukraine,1983-09-22,82.5,79.2,,,,,,,,,,,180,-202.5,202.5,202.5,,202.5,D
1,M,Amateur Submasters 33-39,Raw,Aram Khachatryan,Armenia,1982-01-15,90,87.55,,,,,,,,,,,-235,235,-240,235,,235,D
1,M,Amateur Masters 40-44,Raw,Aleksandr Ageenko,Ukraine,1976-02-16,100,99.35,,,,,,,,,,,220,230,-240,230,,230,D
1,M,Amateur Masters 40-44,Raw,Igor Gavrylov,Ukraine,1977-02-05,110,110,,,,,,,,,,,250,-275.5,-275.5,250,,250,D
1,M,Amateur Masters 40-44,Raw,Oleksandr Tolmachov,Ukraine,1974-05-23,125,124.6,,,,,,,,,,,130,150,160,160,,160,D
1,M,Amateur Masters 45-49,Raw,Pavlo Kipnyak,Ukraine,1969-02-16,110,106.7,,,,,,,,,,,210,220,,220,,220,D
1,M,Amateur Masters 45-49,Raw,Oleg Brazhnyk,Ukraine,1970-05-06,140+,152.5,,,,,,,,,,,180,190,-200,190,,190,D
1,M,Amateur Masters 50-54,Raw,Ararat Shahinyan,Armenia,1963-06-24,82.5,82.4,,,,,,,,,,,190,-200,-202.5,190,,190,D
1,M,Amateur Masters 50-54,Raw,Oleksandr Kalkutin,Ukraine,1965-09-07,140,132.4,,,,,,,,,,,210,230,-240,230,,230,D
1,M,Amateur Masters 55-59,Raw,Gennadii Petrenko,Ukraine,1959-08-10,75,74.45,,,,,,,,,,,185,202.5,210,210,,210,D
1,M,Amateur Masters 55-59,Raw,Volodymyr Chepurnyy,Ukraine,1960-07-27,82.5,82.2,,,,,,,,,,,210,225,-232.5,225,,225,D
1,M,Amateur Masters 65-69,Raw,Oleksandr Ostrovskyy,Ukraine,1953-02-10,75,74.75,,,,,,,,,,,155,165,170,170,,170,D
1,M,Amateur Masters 65-69,Raw,Stefan Sochański,Poland,1948-11-17,100,90.25,,,,,,,,,,,185,205,,205,,205,D
1,M,Amateur Masters 70-74,Raw,Yurii Starkov,Ukraine,1947-09-01,82.5,81.4,,,,,,,,,,,200,210,215,215,,215,D
1,M,Amateur MPF,Raw,Vadym Yukhov,Ukraine,1996-08-06,75,71.5,,,,,,,,,,,205,215,225,225,-230,225,D
1,M,Amateur MPF,Raw,Dmytro Romanenko,Ukraine,1983-09-22,82.5,79.2,,,,,,,,,,,180,-202.5,202.5,202.5,,202.5,D
2,M,Amateur MPF,Raw,Artur Avetisyan,Armenia,1981-11-20,82.5,78.6,,,,,,,,,,,170,185,195,195,,195,D
1,M,Amateur MPF,Raw,Roman Boichekov,Ukraine,1990-07-18,100,99,,,,,,,,,,,110,130,152.5,152.5,,152.5,D
1,F,Amateur Children 11-12,Raw,Jassica Jordan,Poland,2005-10-23,67.5,64.25,,,,,,,,,,,75,80,90,90,,90,D
1,F,Amateur Teenagers 13-15,Raw,Asia Kaczmarczyk,Poland,2004-05-01,44,35.7,,,,,,,,,,,55,60,-67.5,60,,60,D
1,F,Amateur Teenagers 18-19,Raw,Yana Khmel,Ukraine,1999-01-16,67.5,67,,,,,,,,,,,100,110,118,118,,118,D
2,F,Amateur Teenagers 18-19,Raw,Diana Mishchenko,Ukraine,2000-03-29,67.5,60.65,,,,,,,,,,,87.5,95,100,100,,100,D
1,F,Amateur Juniors 20-23,Raw,Yana Mulishova,Ukraine,1995-09-29,67.5,66.3,,,,,,,,,,,82.5,92.5,102.5,102.5,,102.5,D
1,F,Amateur Juniors 20-23,Raw,Renata Zapała,Poland,1994-07-28,75,72,,,,,,,,,,,120,130,-140,130,,130,D
1,F,Amateur Open,Raw,Nadiya Osaenko,Ukraine,1990-05-07,44,42.9,,,,,,,,,,,90,92.5,95,95,,95,D
1,F,Amateur Open,Raw,Oksana Motrunchyk,Ukraine,1992-08-06,48,46.65,,,,,,,,,,,100,110,115,115,,115,D
1,F,Amateur Open,Raw,Olga Yarmolyuk,Ukraine,1989-03-04,52,52,,,,,,,,,,,150,157.5,-162.5,157.5,,157.5,D
2,F,Amateur Open,Raw,Yuliia Tsymbalyuk,Ukraine,1987-08-12,52,50.5,,,,,,,,,,,107.5,-112.5,112.5,112.5,,112.5,D
1,F,Amateur Open,Raw,Alla Ryazanova,Ukraine,1979-11-28,56,55.6,,,,,,,,,,,140,150,-152.5,150,,150,D
1,F,Amateur Open,Raw,Darina Kovalova,Ukraine,1990-12-27,60,58.8,,,,,,,,,,,160,167.5,170,170,,170,D
2,F,Amateur Open,Raw,Olena Kuznetsova,Ukraine,1992-06-25,60,60,,,,,,,,,,,115,-125,-125,115,,115,D
1,F,Amateur Submasters 33-39,Raw,Veronika Bashmanova,Ukraine,1980-03-09,56,55.35,,,,,,,,,,,97.5,107.5,-117.5,107.5,,107.5,D
1,F,Amateur Submasters 33-39,Raw,Nina Romanenko,Ukraine,1983-03-25,60,59.3,,,,,,,,,,,95,102.5,-107.5,102.5,,102.5,D
1,F,Amateur Submasters 33-39,Raw,Olena Bubnova,Ukraine,1985-03-22,67.5,60.25,,,,,,,,,,,-130,130,140,140,,140,D
1,F,Amateur Masters 40-44,Raw,Marzena Janzer,Poland,1974-09-21,82.5,78.9,,,,,,,,,,,110,120,127.5,127.5,,127.5,D
1,M,Pro Teenagers 13-15,Raw,Norik Karapetyan,Armenia,2002-12-06,60,59.1,,,,,,,,,,,70,90,-100,90,,90,D
1,M,Pro Teenagers 16-17,Raw,Belen Mağden,Turkey,2001-08-07,75,72.75,,,,,,,,,,,190,-205,205,205,,205,D
1,M,Pro Teenagers 16-17,Raw,Mustafa Eser,Turkey,2000-12-07,82.5,80.8,,,,,,,,,,,-130,130,150,150,,150,D
1,M,Pro Teenagers 16-17,Raw,Nika Diasamidze,Georgia,2001-11-04,110,105.2,,,,,,,,,,,200,-220,235,235,,235,D
DQ,M,Pro Juniors 20-23,Raw,Kevin Nguefack-Tchinda,Cameroon,1996-04-27,60,59.5,,,,,,,,,,,-120,-120,,,,,D
1,M,Pro Juniors 20-23,Raw,Orhan Akgün,Turkey,1995-12-10,75,74.2,,,,,,,,,,,225,240,-257,240,,240,D
1,M,Pro Juniors 20-23,Raw,Nukri Diasamidze,Georgia,1996-05-10,82.5,80.6,,,,,,,,,,,200,-230,-230,200,,200,D
1,M,Pro Juniors 20-23,Raw,Dmytro Shpargala,Ukraine,1995-11-09,90,83.5,,,,,,,,,,,220,230,240,240,,240,D
1,M,Pro Juniors 20-23,Raw,Cenk Kocak,Turkey,1996-07-25,125,119,,,,,,,,,,,330,340,-360,340,,340,D
1,M,Pro Open,Raw,Sergii Denysevych,Ukraine,1994-09-13,75,71,,,,,,,,,,,220,-235,-235,220,,220,D
2,M,Pro Open,Raw,Denys Pavlyak,Ukraine,1991-04-15,75,75,,,,,,,,,,,175,185,-195,185,,185,D
1,M,Pro Open,Raw,Serhii Kapustin,Ukraine,1979-06-28,82.5,81.4,,,,,,,,,,,-250,250,268,268,,268,D
1,M,Pro Open,Raw,Muhammed Enes Ozkan,Turkey,1987-06-29,90,89.4,,,,,,,,,,,290,307.5,320.5,320.5,-325,320.5,D
2,M,Pro Open,Raw,Pavlo Ishchenko,Ukraine,1991-05-06,90,84.9,,,,,,,,,,,290,-305,,290,,290,D
3,M,Pro Open,Raw,Viacheslav Kravchenko,Ukraine,1969-12-02,90,89.1,,,,,,,,,,,260,-270,270,270,,270,D
4,M,Pro Open,Raw,Valerii Poryadin,Russia,1966-05-20,90,90,,,,,,,,,,,200,225,235,235,,235,D
5,M,Pro Open,Raw,Mykola Stepasyuk,Ukraine,1993-05-10,90,85.4,,,,,,,,,,,200,220,-240,220,,220,D
1,M,Pro Open,Raw,Aris Eyubov,Ukraine,1979-12-07,100,100,,,,,,,,,,,280,292.5,-302.5,292.5,,292.5,D
2,M,Pro Open,Raw,Mikhail Verbitskii,Belarus,1951-07-31,100,91.9,,,,,,,,,,,255,-282.5,-282.5,255,,255,D
3,M,Pro Open,Raw,Eugen Kandaurov,Ukraine,1988-07-16,100,98.7,,,,,,,,,,,245,255,-260,255,,255,D
1,M,Pro Open,Raw,Łukasz Lipka,Poland,1992-09-24,110,109.6,,,,,,,,,,,300,310,,310,,310,D
1,M,Pro Open,Raw,Maksym Rybalka,Ukraine,1993-09-28,125,112.3,,,,,,,,,,,290,300,310,310,-327.5,310,D
2,M,Pro Open,Raw,Rafał Wójcik,Poland,1987-10-03,125,116.35,,,,,,,,,,,300,310,-320,310,,310,D
3,M,Pro Open,Raw,Robert Nemś,Poland,1969-06-15,125,115.7,,,,,,,,,,,220,250,275,275,,275,D
1,M,Pro Submasters 33-39,Raw,Serhii Kapustin,Ukraine,1979-06-28,82.5,81.4,,,,,,,,,,,-250,250,268,268,,268,D
DQ,M,Pro Submasters 33-39,Raw,Vasyl' Mykhalskyy,Ukraine,1980-01-14,90,88.75,,,,,,,,,,,-265,-265,-265,,,,D
1,M,Pro Submasters 33-39,Raw,Aris Eyubov,Ukraine,1979-12-07,100,100,,,,,,,,,,,280,292.5,-302.5,292.5,,292.5,D
1,M,Pro Submasters 33-39,Raw,Vitalii Chunikhovskii,Ukraine,1983-04-11,110,105.6,,,,,,,,,,,260,-270,-270,260,,260,D
1,M,Pro Masters 40-44,Raw,Erni Gregorčič,Slovenia,1976-06-04,75,74.45,,,,,,,,,,,230,240,250,250,,250,D
1,M,Pro Masters 45-49,Raw,Viacheslav Kravchenko,Ukraine,1969-12-02,90,89.1,,,,,,,,,,,260,-270,270,270,,270,D
1,M,Pro Masters 45-49,Raw,Datuna Mzhavanadze,Georgia,1972-05-14,110,109.2,,,,,,,,,,,200,230,255,255,,255,D
2,M,Pro Masters 45-49,Raw,Ihar Pyzhyanau,Belarus,1972-12-18,110,101.1,,,,,,,,,,,175,190,200,200,,200,D
1,M,Pro Masters 45-49,Raw,Robert Nemś,Poland,1969-06-15,125,115.7,,,,,,,,,,,220,250,275,275,,275,D
1,M,Pro Masters 50-54,Raw,Valerii Poryadin,Russia,1966-05-20,90,90,,,,,,,,,,,200,225,235,235,,235,D
1,M,Pro Masters 60-64,Raw,Zbigniew Koper,Poland,1953-10-04,75,75,,,,,,,,,,,140,150,160,160,,160,D
1,M,Pro Masters 65-69,Raw,Ryszard Śliwiński,Poland,1950-01-22,75,73.1,,,,,,,,,,,140,150,160,160,,160,D
1,M,Pro Masters 65-69,Raw,Mikhail Verbitskii,Belarus,1951-07-31,100,91.9,,,,,,,,,,,255,-282.5,-282.5,255,,255,D
1,M,Pro MPF,Raw,Yukhym Stepatskyy,Ukraine,1987-05-07,90,88.6,,,,,,,,,,,250,-272.5,-272.5,250,,250,D
1,M,Pro MPF,Raw,Andriy Levytskyy,Ukraine,1988-06-04,100,96.6,,,,,,,,,,,250,-268,-268,250,,250,D
1,M,Pro MPF,Raw,Shalva Bebiashvili,Georgia,1987-01-05,125,121.65,,,,,,,,,,,260,270,280,280,,280,D
1,F,Pro Teenagers 18-19,Raw,Anastasia Kyrpychova,Ukraine,1999-02-01,67.5,61.2,,,,,,,,,,,122.5,132.5,142.5,142.5,-150,142.5,D
1,F,Pro Teenagers 18-19,Raw,Weronika Lenort,Poland,2000-02-17,75,69.25,,,,,,,,,,,162.5,172.5,-182.5,172.5,,172.5,D
2,F,Pro Teenagers 18-19,Raw,Anna Syvokobylska,Ukraine,1998-05-30,75,70.05,,,,,,,,,,,140,-155,-155,140,,140,D
1,F,Pro Open,Raw,Mariša Golob,Slovenia,1990-05-15,56,54.95,,,,,,,,,,,165,-175,-175,165,,165,D
DQ,F,Pro Open,Raw,Mariia Kravchuk,Ukraine,1983-07-17,56,56,,,,,,,,,,,-160,-160,-160,,,,D
1,F,Pro Open,Raw,Olena Razuvaieva,Ukraine,1988-04-26,67.5,67.2,,,,,,,,,,,130,140,-155,140,,140,D
1,F,Pro Open,Raw,Nataliya Mavdrik,Ukraine,1984-05-14,75,70.4,,,,,,,,,,,170,180,190,190,,190,D
1,F,Pro Submasters 33-39,Raw,Nataliya Mavdrik,Ukraine,1984-05-14,75,70.4,,,,,,,,,,,170,180,190,190,,190,D
1,F,Pro Masters 50-54,Raw,Krystyna Puzio,Poland,1965-04-23,90,87.9,,,,,,,,,,,135,145,-150,145,,145,D
1,M,Amateur Juniors 20-23,Multi-ply,Oleksandr Naiden,Ukraine,1997-05-27,90,84.1,,,,,,,,,,,215,225,-235,225,,225,D
1,M,Amateur Open,Multi-ply,Nver Gharibyan,Armenia,1987-09-01,110,107.25,,,,,,,,,,,200,,,200,,200,D
1,M,Amateur Masters 65-69,Multi-ply,Stefan Sochański,Poland,1948-11-17,100,90.25,,,,,,,,,,,215,235,-253,235,,235,D
1,M,Pro Juniors 20-23,Multi-ply,Oleksii Tkachuk,Ukraine,1996-03-11,125,119.85,,,,,,,,,,,-300,300,315,315,327.5,315,D
1,M,Pro Open,Multi-ply,Hamid Heidari-Pebdani,Iran,1990-03-26,75,75,,,,,,,,,,,280,295,302.5,302.5,-309,302.5,D
1,M,Pro Open,Multi-ply,Valerii Poryadin,Russia,1966-05-20,90,90,,,,,,,,,,,200,240,,240,,240,D
1,M,Pro Open,Multi-ply,Hrach Guloyan,Armenia,1993-07-28,100,95.2,,,,,,,,,,,100,,,100,,100,D
1,M,Pro Open,Multi-ply,Volodymyr Rozhansky,Ukraine,1980-08-25,125,118.2,,,,,,,,,,,300,325,,325,,325,D
1,M,Pro Masters 50-54,Multi-ply,Valerii Poryadin,Russia,1966-05-20,90,90,,,,,,,,,,,200,240,,240,,240,D
1,M,Pro Masters 50-54,Multi-ply,Yuriy Malygin,Ukraine,1967-06-30,100,98.6,,,,,,,,,,,120,150,165,165,,165,D
1,M,Amateur Children 9,Raw,Kim Tarverdiev,Ukraine,2008-07-09,44,43.3,,,,,,27.5,-35,-35,27.5,,,,,,,27.5,B
1,M,Amateur Children 11-12,Raw,Ostap Chemerys,Ukraine,2006-11-14,44,36.6,,,,,,35,-37.5,-37.5,35,,,,,,,35,B
1,M,Amateur Children 11-12,Raw,Alan Kviatkovskii,Ukraine,2005-10-05,60,57.65,,,,,,50,52.5,-55,52.5,,,,,,,52.5,B
1,M,Amateur Teenagers 13-15,Raw,Nikita Gavrylenko,Ukraine,2002-11-15,52,48.8,,,,,,70,75,77.5,77.5,,,,,,,77.5,B
1,M,Amateur Teenagers 13-15,Raw,Anil Kaya,Turkey,2004-06-08,56,55.6,,,,,,55,70,-82.5,70,,,,,,,70,B
2,M,Amateur Teenagers 13-15,Raw,Bogdan Sukhovarov,Ukraine,2003-06-26,56,53.7,,,,,,37.5,42.5,47.5,47.5,,,,,,,47.5,B
DQ,M,Amateur Teenagers 13-15,Raw,Stanislav Brovarenko,Ukraine,2003-09-20,56,52.7,,,,,,-55,-60,-60,,,,,,,,,B
1,M,Amateur Teenagers 13-15,Raw,Dmytro Melnyk,Ukraine,2003-09-22,67.5,63.35,,,,,,75,80,-82.5,80,,,,,,,80,B
2,M,Amateur Teenagers 13-15,Raw,Mykola Lynnyk,Ukraine,2003-10-02,67.5,64.25,,,,,,72.5,77.5,-82.5,77.5,,,,,,,77.5,B
1,M,Amateur Teenagers 13-15,Raw,Yarosvav Gaviada,Ukraine,2003-02-18,100,97.55,,,,,,-100,100,110,110,,,,,,,110,B
1,M,Amateur Teenagers 16-17,Raw,Volodymyr Tyutyushkin,Ukraine,2001-07-24,75,72,,,,,,160,-167.5,167.5,167.5,,,,,,,167.5,B
2,M,Amateur Teenagers 16-17,Raw,Maksym Nekrasov,Ukraine,2001-08-30,75,71.15,,,,,,120,125,135,135,,,,,,,135,B
1,M,Amateur Teenagers 16-17,Raw,Oleksandr Ovcharenko,Ukraine,2001-01-30,82.5,82.1,,,,,,115,120,-122.5,120,,,,,,,120,B
2,M,Amateur Teenagers 16-17,Raw,Andranik Asatryan,Armenia,2000-06-27,82.5,78.65,,,,,,115,-125,-125,115,,,,,,,115,B
3,M,Amateur Teenagers 16-17,Raw,Getin Yaksi,Turkey,,82.5,75.7,,,,,,80,95,-102.5,95,,,,,,,95,B
1,M,Amateur Teenagers 18-19,Raw,Vasyl Kovalchuk,Ukraine,1999-01-28,75,75,,,,,,-132.5,137.5,-140,137.5,,,,,,,137.5,B
1,M,Amateur Juniors 20-23,Raw,Oleksandr Voytovych,Ukraine,1997-07-13,56,54.35,,,,,,-102.5,-102.5,107.5,107.5,,,,,,,107.5,B
1,M,Amateur Juniors 20-23,Raw,Maksym Yarmoliuk,Ukraine,1997-02-04,67.5,66.35,,,,,,110,125,-130,125,,,,,,,125,B
1,M,Amateur Juniors 20-23,Raw,Davit Petrosyan,Armenia,1995-08-17,75,72.2,,,,,,140,150,-162.5,150,,,,,,,150,B
1,M,Amateur Juniors 20-23,Raw,Oleg Balabash,Ukraine,1997-10-22,82.5,79.55,,,,,,135,-142.5,-142.5,135,,,,,,,135,B
2,M,Amateur Juniors 20-23,Raw,Omer Kayisoglu,Turkey,1993-05-10,82.5,75.7,,,,,,125,132.5,-142.5,132.5,,,,,,,132.5,B
1,M,Amateur Juniors 20-23,Raw,Davit Avetikyan,Armenia,1997-02-20,90,87.35,,,,,,110,125,-135,125,,,,,,,125,B
1,M,Amateur Juniors 20-23,Raw,Ulaş Maden,Turkey,1996-07-16,110,107.85,,,,,,160,170,-187.5,170,,,,,,,170,B
1,M,Amateur Juniors 20-23,Raw,Roman Taradyuk,Ukraine,1994-08-07,140,125.8,,,,,,172.5,-180,-180,172.5,,,,,,,172.5,B
1,M,Amateur Open,Raw,Piotr Stefaniuk,Poland,1991-02-08,60,59.3,,,,,,105,110,-112.5,110,,,,,,,110,B
1,M,Amateur Open,Raw,Sergii Melnyk,Ukraine,1982-02-10,67.5,67.3,,,,,,135,-140,-140,135,,,,,,,135,B
1,M,Amateur Open,Raw,Volodymyr Tyutyushkin,Ukraine,2001-07-24,75,72,,,,,,160,-167.5,167.5,167.5,,,,,,,167.5,B
2,M,Amateur Open,Raw,Davit Petrosyan,Armenia,1995-08-17,75,72.2,,,,,,140,150,-162.5,150,,,,,,,150,B
3,M,Amateur Open,Raw,Dmytro Kuriata,Ukraine,1984-12-20,75,74.3,,,,,,-137.5,137.5,-140,137.5,,,,,,,137.5,B
1,M,Amateur Open,Raw,Gorkem Ozturk,Turkey,1990-07-06,82.5,81.8,,,,,,125,140,-145,140,,,,,,,140,B
1,M,Amateur Open,Raw,Leonid Andrievskyy,Ukraine,1989-02-04,90,89.8,,,,,,175,185,-187.5,185,,,,,,,185,B
2,M,Amateur Open,Raw,Sergiy Kovalchuk,Ukraine,1993-06-30,90,89.8,,,,,,165,175,180,180,,,,,,,180,B
3,M,Amateur Open,Raw,Oleksandr Klymenko,Ukraine,1990-03-03,90,86.85,,,,,,150,157.5,160,160,,,,,,,160,B
4,M,Amateur Open,Raw,Oleksadnr Nikulin,Ukraine,1983-11-29,90,88.6,,,,,,150,157.5,-160,157.5,,,,,,,157.5,B
5,M,Amateur Open,Raw,Roman Tymchuk,Ukraine,1990-02-12,90,89.95,,,,,,130,135,-140,135,,,,,,,135,B
6,M,Amateur Open,Raw,Yuriy Filonenko,Ukraine,1954-03-10,90,86.6,,,,,,-125,125,130,130,,,,,,,130,B
DQ,M,Amateur Open,Raw,Vladyslav Dudinov,Ukraine,1993-12-22,90,88.6,,,,,,-145,-145,-145,,,,,,,,,B
1,M,Amateur Open,Raw,Andrii Petruk,Ukraine,1975-01-15,100,98.4,,,,,,190,197.5,-202.5,197.5,,,,,,,197.5,B
2,M,Amateur Open,Raw,Vitalii Zinchenko,Ukraine,1980-03-28,100,93.5,,,,,,175,185,190,190,,,,,,,190,B
3,M,Amateur Open,Raw,Beytullah Deliktas,Turkey,1993-02-18,100,99.9,,,,,,175,185,-195,185,,,,,,,185,B
4,M,Amateur Open,Raw,Valentyn Slutskyy,Ukraine,1973-11-17,100,99.95,,,,,,150,167.5,-170,167.5,,,,,,,167.5,B
5,M,Amateur Open,Raw,Mykola Gorbachov,Ukraine,1962-09-25,100,92.85,,,,,,165,-170,-175,165,,,,,,,165,B
6,M,Amateur Open,Raw,Evgen Fylyma,Ukraine,1990-06-04,100,99.6,,,,,,165,-170,-170,165,,,,,,,165,B
7,M,Amateur Open,Raw,Aleksandr Ageenko,Ukraine,1976-02-16,100,99.35,,,,,,155,-160,,155,,,,,,,155,B
1,M,Amateur Open,Raw,Sviatoslav Boichuk,Ukraine,1992-01-15,110,107.15,,,,,,200,205,210,210,,,,,,,210,B
2,M,Amateur Open,Raw,Volodymyr Kukhar,Ukraine,1985-03-30,110,109.2,,,,,,165,175,-182.5,175,,,,,,,175,B
3,M,Amateur Open,Raw,Pavlo Kipnyak,Ukraine,1969-02-16,110,106.7,,,,,,150,157.5,-162.5,157.5,,,,,,,157.5,B
1,M,Amateur Open,Raw,Kostiantyn Karpov,Ukraine,1985-03-28,125,112.7,,,,,,195,-205,-205,195,,,,,,,195,B
2,M,Amateur Open,Raw,Viktor Bozhukha,Ukraine,1978-09-06,125,111.85,,,,,,165,170,-175,170,,,,,,,170,B
3,M,Amateur Open,Raw,Andrii Danyliuk,Ukraine,1982-06-01,125,111.05,,,,,,130,-140,140,140,,,,,,,140,B
4,M,Amateur Open,Raw,Oleksandr Tolmachov,Ukraine,1974-05-23,125,124.6,,,,,,110,-120,-120,110,,,,,,,110,B
1,M,Amateur Open,Raw,Oleksandr Slutskyy,Ukraine,1975-07-23,140,134.8,,,,,,170,180,185,185,,,,,,,185,B
2,M,Amateur Open,Raw,Roman Taradyuk,Ukraine,1994-08-07,140,125.8,,,,,,172.5,-180,-180,172.5,,,,,,,172.5,B
3,M,Amateur Open,Raw,Oleksandr Kalkutin,Ukraine,1965-09-07,140,132.4,,,,,,155,-165,-170,155,,,,,,,155,B
1,M,Amateur Submasters 33-39,Raw,Dmytro Kuriata,Ukraine,1984-12-20,75,74.3,,,,,,-137.5,137.5,-140,137.5,,,,,,,137.5,B
1,M,Amateur Submasters 33-39,Raw,Mykola Kryshun,Ukraine,1983-12-23,82.5,82.5,,,,,,135,140,147.5,147.5,,,,,,,147.5,B
2,M,Amateur Submasters 33-39,Raw,Mykhailo Bugremenko,Ukraine,1979-05-13,82.5,82.35,,,,,,135,142.5,-147.5,142.5,,,,,,,142.5,B
3,M,Amateur Submasters 33-39,Raw,Lyubomyr Kogut,Ukraine,1983-05-25,82.5,81.7,,,,,,130,-135,140,140,,,,,,,140,B
4,M,Amateur Submasters 33-39,Raw,Hayk Avetisyan,Armenia,1979-12-30,82.5,80.6,,,,,,105,115,-120,115,,,,,,,115,B
1,M,Amateur Submasters 33-39,Raw,Oleksadnr Nikulin,Ukraine,1983-11-29,90,88.6,,,,,,150,157.5,-160,157.5,,,,,,,157.5,B
2,M,Amateur Submasters 33-39,Raw,Mykola Shushura,Ukraine,1981-09-01,90,86.95,,,,,,130,145,-157.5,145,,,,,,,145,B
1,M,Amateur Submasters 33-39,Raw,Vitalii Zinchenko,Ukraine,1980-03-28,100,93.5,,,,,,175,185,190,190,,,,,,,190,B
2,M,Amateur Submasters 33-39,Raw,Evren Temel,Turkey,1982-05-07,100,100,,,,,,160,172.5,-187.5,172.5,,,,,,,172.5,B
3,M,Amateur Submasters 33-39,Raw,Ivan Zeel,Ukraine,1984-12-18,100,95.9,,,,,,-150,150,160,160,,,,,,,160,B
4,M,Amateur Submasters 33-39,Raw,Yaroslav Yurkiv,Ukraine,1983-02-25,100,93.8,,,,,,140,-150,-150,140,,,,,,,140,B
1,M,Amateur Submasters 33-39,Raw,Oktay Akay,Turkey,1981-03-08,110,103.85,,,,,,150,160,-172.5,160,,,,,,,160,B
1,M,Amateur Submasters 33-39,Raw,Can Yesilpinar,Turkey,1983-02-20,125,111.5,,,,,,160,175,185,185,,,,,,,185,B
2,M,Amateur Submasters 33-39,Raw,Viktor Bozhukha,Ukraine,1978-09-06,125,111.85,,,,,,165,170,-175,170,,,,,,,170,B
3,M,Amateur Submasters 33-39,Raw,Andrii Danyliuk,Ukraine,1982-06-01,125,111.05,,,,,,130,-140,140,140,,,,,,,140,B
1,M,Amateur Submasters 33-39,Raw,Gurhan Gurler,Turkey,1983-07-20,140+,180.8,,,,,,-190,190,212.5,212.5,,,,,,,212.5,B
2,M,Amateur Submasters 33-39,Raw,Anatolii Rubin,Ukraine,1984-03-19,140+,178.4,,,,,,120,-132.5,-132.5,120,,,,,,,120,B
1,M,Amateur Masters 40-44,Raw,Igor Trofymchuk,Ukraine,1978-03-18,67.5,67.15,,,,,,125,132.5,-137.5,132.5,,,,,,,132.5,B
1,M,Amateur Masters 40-44,Raw,Viacheslav Bevzyuk,Ukraine,1975-07-02,90,86.15,,,,,,137.5,-142.5,-142.5,137.5,,,,,,,137.5,B
1,M,Amateur Masters 40-44,Raw,Andrii Petruk,Ukraine,1975-01-15,100,98.4,,,,,,190,197.5,-202.5,197.5,,,,,,,197.5,B
2,M,Amateur Masters 40-44,Raw,Valentyn Slutskyy,Ukraine,1973-11-17,100,99.95,,,,,,150,167.5,-170,167.5,,,,,,,167.5,B
3,M,Amateur Masters 40-44,Raw,Aleksandr Ageenko,Ukraine,1976-02-16,100,99.35,,,,,,155,-160,,155,,,,,,,155,B
1,M,Amateur Masters 40-44,Raw,Dmytro Svyrydenko,Ukraine,1977-04-11,110,103.5,,,,,,-180,180,-195,180,,,,,,,180,B
DQ,M,Amateur Masters 40-44,Raw,Artem Sokolov,Ukraine,1976-08-01,110,108.7,,,,,,-160,-160,-160,,,,,,,,,B
1,M,Amateur Masters 40-44,Raw,Oleksandr Tolmachov,Ukraine,1974-05-23,125,124.6,,,,,,110,-120,-120,110,,,,,,,110,B
1,M,Amateur Masters 40-44,Raw,Oleksandr Slutskyy,Ukraine,1975-07-23,140,134.8,,,,,,170,180,185,185,,,,,,,185,B
1,M,Amateur Masters 45-49,Raw,Dmytro Mazur,Ukraine,1972-11-07,67.5,67.4,,,,,,90,100,-105,100,,,,,,,100,B
1,M,Amateur Masters 45-49,Raw,Igor Yepishev,Ukraine,1969-12-04,75,74,,,,,,122.5,127.5,130,130,,,,,,,130,B
2,M,Amateur Masters 45-49,Raw,Vadym Koverznev,Ukraine,1970-02-07,75,74,,,,,,100,-105,105,105,,,,,,,105,B
1,M,Amateur Masters 45-49,Raw,Dmytro Nesterenko,Ukraine,1969-10-20,82.5,77.3,,,,,,-100,105,110,110,,,,,,,110,B
1,M,Amateur Masters 45-49,Raw,Vitalii Pulin,Ukraine,1970-02-15,90,86.95,,,,,,130,140,-150,140,,,,,,,140,B
1,M,Amateur Masters 45-49,Raw,Pavlo Kipnyak,Ukraine,1969-02-16,110,106.7,,,,,,150,157.5,-162.5,157.5,,,,,,,157.5,B
1,M,Amateur Masters 45-49,Raw,Serhii Avramenko,Ukraine,1971-08-16,125,113.3,,,,,,115,120,122.5,122.5,,,,,,,122.5,B
1,M,Amateur Masters 50-54,Raw,Igor Chumak,Ukraine,1965-12-30,75,68,,,,,,95,105,110,110,,,,,,,110,B
1,M,Amateur Masters 50-54,Raw,Viacheslav Bulgakov,Ukraine,1966-12-23,82.5,78.35,,,,,,110,120,130,130,,,,,,,130,B
1,M,Amateur Masters 50-54,Raw,Gagik Saroyan,Armenia,1967-03-12,125,124.05,,,,,,80,100,,100,,,,,,,100,B
1,M,Amateur Masters 50-54,Raw,Oleksandr Kalkutin,Ukraine,1965-09-07,140,132.4,,,,,,155,-165,-170,155,,,,,,,155,B
1,M,Amateur Masters 55-59,Raw,Mykola Gorbachov,Ukraine,1962-09-25,100,92.85,,,,,,165,-170,-175,165,,,,,,,165,B
1,M,Amateur Masters 55-59,Raw,Vasyl Golivets,Ukraine,1960-01-30,125,123.3,,,,,,150,165,170,170,,,,,,,170,B
1,M,Amateur Masters 60-64,Raw,Oleksandr Nekhoroshev,Ukraine,1954-06-19,82.5,81.45,,,,,,90,95,100,100,,,,,,,100,B
1,M,Amateur Masters 60-64,Raw,Yuriy Filonenko,Ukraine,1954-03-10,90,86.6,,,,,,-125,125,130,130,,,,,,,130,B
1,M,Amateur Masters 65-69,Raw,Oleksandr Ostrovskyy,Ukraine,1953-02-10,75,74.75,,,,,,85,-95,-95,85,,,,,,,85,B
1,M,Amateur Masters 70-74,Raw,Yurii Starkov,Ukraine,1947-09-01,82.5,81.4,,,,,,105,110,-115,110,,,,,,,110,B
1,M,Amateur Masters 75-79,Raw,Volodymyr Korshunov,Ukraine,1942-11-15,100,90.05,,,,,,110,117.5,122.5,122.5,,,,,,,122.5,B
1,M,Amateur MPF,Raw,Dmytro Romanenko,Ukraine,1983-09-22,82.5,79.2,,,,,,110,-117.5,117.5,117.5,,,,,,,117.5,B
1,M,Amateur MPF,Raw,Mykola Shushura,Ukraine,1981-09-01,90,86.95,,,,,,130,145,-157.5,145,,,,,,,145,B
1,M,Amateur MPF,Raw,Dmytro Svyrydenko,Ukraine,1977-04-11,110,103.5,,,,,,-180,180,-195,180,,,,,,,180,B
1,M,Amateur MPF,Raw,Kostiantyn Karpov,Ukraine,1985-03-28,125,112.7,,,,,,195,-205,-205,195,,,,,,,195,B
2,M,Amateur MPF,Raw,Serhii Avramenko,Ukraine,1971-08-16,125,113.3,,,,,,115,120,122.5,122.5,,,,,,,122.5,B
1,M,Amateur MPF,Raw,Anatolii Rubin,Ukraine,1984-03-19,140+,178.4,,,,,,120,-132.5,-132.5,120,,,,,,,120,B
1,F,Amateur Teenagers 13-15,Raw,Anastasia Savinova,Ukraine,2005-03-01,67.5,67,,,,,,-42.5,42.5,-47.5,42.5,,,,,,,42.5,B
1,F,Amateur Teenagers 16-17,Raw,Anastasia Telyatnykova,Ukraine,2000-07-20,52,51.6,,,,,,35,40,-42.5,40,,,,,,,40,B
DQ,F,Amateur Teenagers 16-17,Raw,Arina Borovkova,Ukraine,2002-04-17,56,54.7,,,,,,-60,-60,-60,,,,,,,,,B
1,F,Amateur Teenagers 18-19,Raw,Yana Khmel,Ukraine,1999-01-16,67.5,67,,,,,,52.5,60,-62.5,60,,,,,,,60.00,B
2,F,Amateur Teenagers 18-19,Raw,Diana Mishchenko,Ukraine,2000-03-29,67.5,60.65,,,,,,40,42.5,-45,42.5,,,,,,,42.5,B
1,F,Amateur Juniors 20-23,Raw,Valeriia Tsiupryk,Ukraine,1995-11-08,56,54.8,,,,,,-45,-47.5,47.5,47.5,,,,,,,47.5,B
1,F,Amateur Juniors 20-23,Raw,Yana Mulishova,Ukraine,1995-09-29,67.5,66.3,,,,,,42.5,47.5,-52.5,47.5,,,,,,,47.5,B
1,F,Amateur Open,Raw,Olena Levada,Ukraine,1975-05-16,48,48,,,,,,57.5,60,62.5,62.5,,,,,,,62.5,B
2,F,Amateur Open,Raw,Oksana Motrunchyk,Ukraine,1992-08-06,48,46.65,,,,,,47.5,52.5,55,55,,,,,,,55,B
1,F,Amateur Open,Raw,Nataliya Melnychuk,Ukraine,1975-06-13,52,51.2,,,,,,-70,-70,70,70,,,,,,,70,B
DQ,F,Amateur Open,Raw,Alina Samuilova,Ukraine,1994-02-24,52,50.9,,,,,,-65,-65,-65,,,,,,,,,B
1,F,Amateur Open,Raw,Olga Skorokhodova,Ukraine,1980-11-11,56,55.35,,,,,,70,-75,-75,70,,,,,,,70,B
2,F,Amateur Open,Raw,Tetiana Kovalchuk,Ukraine,1994-01-12,56,53.3,,,,,,50,-55,-55,50,,,,,,,50,B
1,F,Amateur Open,Raw,Małgorzata Hałas-Koralewska,Poland,1987-06-10,60,60,,,,,,107.5,115,117.5,117.5,120,,,,,,117.5,B
1,F,Amateur Submasters 33-39,Raw,Armine Sargsyan,Ukraine,1981-02-20,56,55,,,,,,67.5,-70,-70,67.5,,,,,,,67.5,B
1,F,Amateur Submasters 33-39,Raw,Svitlana Ovzyak,Ukraine,1983-07-07,60,59.8,,,,,,-47.5,52.5,55,55,,,,,,,55,B
1,F,Amateur Submasters 33-39,Raw,Olena Bubnova,Ukraine,1985-03-22,67.5,60.25,,,,,,65,75,80,80,,,,,,,80,B
2,F,Amateur Submasters 33-39,Raw,Viktoria Rozhanska,Ukraine,1978-09-25,67.5,65.9,,,,,,47.5,52.5,55,55,,,,,,,55,B
1,F,Amateur Submasters 33-39,Raw,Olena Golubytska,Ukraine,1981-11-27,75,74.4,,,,,,55,60,62.5,62.5,,,,,,,62.5,B
1,F,Amateur Masters 40-44,Raw,Olena Levada,Ukraine,1975-05-16,48,48,,,,,,57.5,60,62.5,62.5,,,,,,,62.5,B
1,F,Amateur Masters 40-44,Raw,Nataliya Melnychuk,Ukraine,1975-06-13,52,51.2,,,,,,-70,-70,70,70,,,,,,,70,B
1,F,Amateur Masters 40-44,Raw,Viktoriia Ryabkova,Ukraine,1975-04-25,56,56,,,,,,52.5,57.5,-60,57.5,,,,,,,57.5,B
1,F,Amateur Masters 45-49,Raw,Olga Kritikova,Ukraine,1971-05-30,67.5,67.15,,,,,,75,82.5,85,85,,,,,,,85,B
2,F,Amateur Masters 45-49,Raw,Oksana Muzyka,Ukraine,1969-11-25,67.5,67.15,,,,,,62.5,-67.5,-67.5,62.5,,,,,,,62.5,B
1,F,Amateur Paralympians,Raw,Małgorzata Hałas-Koralewska,Poland,1987-06-10,60,60,,,,,,107.5,115,117.5,117.5,120,,,,,,117.5,B
1,M,Amateur Juniors 20-23,Multi-ply,Vilyam Saroyan,Armenia,1994-12-02,75,73.45,,,,,,80,110,-120,110,,,,,,,110,B
1,M,Amateur Open,Multi-ply,Viktor Bozhukha,Ukraine,1978-09-06,125,111.85,,,,,,190,200,-210,200,,,,,,,200,B
1,M,Amateur Submasters 33-39,Multi-ply,Gevorg Davtyan,Armenia,1984-04-25,100,97.45,,,,,,80,,,80,,,,,,,80,B
1,M,Amateur Submasters 33-39,Multi-ply,Viktor Bozhukha,Ukraine,1978-09-06,125,111.85,,,,,,190,200,-210,200,,,,,,,200,B
1,M,Amateur Masters 40-44,Multi-ply,Oleksandr Shvab,Ukraine,1976-05-05,140,128.6,,,,,,200,215,225,225,,,,,,,225,B
1,M,Pro Teenagers 13-15,Raw,Oleg Mykhalskyy,Ukraine,2004-04-06,44,40.35,,,,,,57.5,60,-62.5,60,,,,,,,60,B
1,M,Pro Teenagers 13-15,Raw,Norik Karapetyan,Armenia,2002-12-06,60,59.1,,,,,,50,60,-65,60,,,,,,,60,B
1,M,Pro Teenagers 13-15,Raw,Yurii Nych,Ukraine,2003-04-19,75,73.9,,,,,,90,100,-110,100,,,,,,,100,B
1,M,Pro Teenagers 13-15,Raw,Maksym Bugir,Ukraine,2005-02-01,90,87,,,,,,85,-92.5,92.5,92.5,,,,,,,92.5,B
1,M,Pro Teenagers 16-17,Raw,Giorgi Lortkipanidze,Georgia,2001-03-11,82.5,82.25,,,,,,80,100,115,115,,,,,,,115,B
1,M,Pro Teenagers 18-19,Raw,Kamil Kowalski,Poland,1998-09-01,100,97.8,,,,,,155,-162.5,-162.5,155,,,,,,,155,B
1,M,Pro Juniors 20-23,Raw,Jakub Chrzanowski,Poland,1997-09-22,75,74.3,,,,,,190,200,-205,200,,,,,,,200,B
1,M,Pro Juniors 20-23,Raw,Patryk Kaczmarek,Poland,1995-04-23,90,89.25,,,,,,165,172.5,-175,172.5,,,,,,,172.5,B
1,M,Pro Juniors 20-23,Raw,Tomasz Benisz,Poland,1996-11-27,110,103.1,,,,,,162.5,170,-175,170,,,,,,,170,B
1,M,Pro Open,Raw,Jakub Chrzanowski,Poland,1997-09-22,75,74.3,,,,,,190,200,-205,200,,,,,,,200,B
2,M,Pro Open,Raw,Gor Khachatryan,Armenia,1986-05-05,75,74.1,,,,,,160,175,-182.5,175,,,,,,,175,B
1,M,Pro Open,Raw,Viktor Blakytnyy,Ukraine,1981-04-26,82.5,80.1,,,,,,165,-172.5,175,175,,,,,,,175,B
2,M,Pro Open,Raw,Besik Malakmadze,Georgia,1986-06-21,82.5,82.5,,,,,,90,105,110,110,,,,,,,110,B
1,M,Pro Open,Raw,Artem Kots,Ukraine,1987-06-20,90,90,,,,,,180,187.5,192.5,192.5,,,,,,,192.5,B
2,M,Pro Open,Raw,Sergii Vasyltsov,Ukraine,1990-02-20,90,89.2,,,,,,162.5,170,175,175,,,,,,,175,B
3,M,Pro Open,Raw,Paweł Pruszyński,Poland,1988-04-04,90,86.9,,,,,,-160,160,165,165,,,,,,,165,B
1,M,Pro Open,Raw,Danylo Shmatovskyy,Ukraine,1983-08-05,100,95.8,,,,,,207.5,215,225,225,,,,,,,225,B
2,M,Pro Open,Raw,Hovhannes Yazichyan,Armenia,1971-05-08,100,96.15,,,,,,215,220,-227.5,220,,,,,,,220,B
3,M,Pro Open,Raw,Jaroslaw Fabiszewski,Poland,1989-01-21,100,96.2,,,,,,205,212.5,217.5,217.5,,,,,,,217.5,B
1,M,Pro Open,Raw,Volodymyr Oliynyk,Ukraine,1990-06-27,110,102.3,,,,,,200,210,217.5,217.5,,,,,,,217.5,B
2,M,Pro Open,Raw,Tomasz Napierała,Poland,1979-11-07,110,104.7,,,,,,190,200,-205,200,,,,,,,200,B
1,M,Pro Open,Raw,Georgi Beroshvili,Georgia,1984-04-27,125,114.6,,,,,,265,275,-282.5,275,,,,,,,275,B
2,M,Pro Open,Raw,Vitalii Pokinchereda,Ukraine,1976-10-26,125,120,,,,,,205,212.5,-217.5,212.5,,,,,,,212.5,B
3,M,Pro Open,Raw,Oleg Palamarchuk,Ukraine,1972-11-23,125,110.4,,,,,,200,207.5,-212.5,207.5,,,,,,,207.5,B
4,M,Pro Open,Raw,Adam Slawnikowski,Poland,1986-12-21,125,111.5,,,,,,202.5,-207.5,-210,202.5,,,,,,,202.5,B
5,M,Pro Open,Raw,Dmytro Sarkits,Ukraine,1974-07-27,125,118.7,,,,,,187.5,-197.5,-202.5,187.5,,,,,,,187.5,B
6,M,Pro Open,Raw,Rafał Wójcik,Poland,1987-10-03,125,116.35,,,,,,170,180,-187.5,180,,,,,,,180,B
DQ,M,Pro Open,Raw,Sergii Yaremchuk,Ukraine,1989-06-03,125,118.25,,,,,,-200,-210,-217.5,,,,,,,,,B
1,M,Pro Open,Raw,Oleksandr Gensitskyy,Ukraine,1975-12-18,140+,141.3,,,,,,220,-225,,220,,,,,,,220,B
2,M,Pro Open,Raw,Hossein Majidi-bidgoli,Iran,1982-06-06,140+,166.85,,,,,,150,155,-170,155,,,,,,,155,B
1,M,Pro Submasters 33-39,Raw,Viktor Blakytnyy,Ukraine,1981-04-26,82.5,80.1,,,,,,165,-172.5,175,175,,,,,,,175,B
1,M,Pro Submasters 33-39,Raw,Danylo Shmatovskyy,Ukraine,1983-08-05,100,95.8,,,,,,207.5,215,225,225,,,,,,,225,B
1,M,Pro Submasters 33-39,Raw,Tomasz Napierała,Poland,1979-11-07,110,104.7,,,,,,190,200,-205,200,,,,,,,200,B
2,M,Pro Submasters 33-39,Raw,Andriy Prykhodko,Ukraine,1981-03-13,110,110,,,,,,185,192.5,-197.5,192.5,,,,,,,192.5,B
3,M,Pro Submasters 33-39,Raw,Vitalii Chunikhovskii,Ukraine,1983-04-11,110,105.6,,,,,,175,187.5,-192.5,187.5,,,,,,,187.5,B
1,M,Pro Submasters 33-39,Raw,Tomasz Andrzejczak,Poland,1978-07-09,140+,140.1,,,,,,200,,,200,,,,,,,200,B
1,M,Pro Masters 40-44,Raw,Oleksandr Ploskyy,Ukraine,1974-08-30,90,88.85,,,,,,150,155,160,160,,,,,,,160,B
2,M,Pro Masters 40-44,Raw,Michał Grawiński,Poland,1977-07-30,90,89.45,,,,,,122.5,-127.5,132.5,132.5,,,,,,,132.5,B
1,M,Pro Masters 40-44,Raw,Eugene Aleksienko,Ukraine,1976-10-11,100,93.1,,,,,,200,207.5,212.5,212.5,,,,,,,212.5,B
2,M,Pro Masters 40-44,Raw,Sukhrab Kurbanov,Ukraine,1974-11-01,100,97.55,,,,,,185,190,-197.5,190,,,,,,,190,B
3,M,Pro Masters 40-44,Raw,Volodymyr Ratushnyy,Ukraine,1974-12-23,100,97,,,,,,155,-162.5,-162.5,155,,,,,,,155,B
1,M,Pro Masters 40-44,Raw,Oleksii Glatman,Ukraine,1973-07-25,110,106.9,,,,,,125,132.5,140,140,,,,,,,140,B
1,M,Pro Masters 40-44,Raw,Vitalii Pokinchereda,Ukraine,1976-10-26,125,120,,,,,,205,212.5,-217.5,212.5,,,,,,,212.5,B
2,M,Pro Masters 40-44,Raw,Rafał Palubicki,Poland,1976-10-04,125,120,,,,,,200,205,-210,205,,,,,,,205,B
3,M,Pro Masters 40-44,Raw,Dmytro Sarkits,Ukraine,1974-07-27,125,118.7,,,,,,187.5,-197.5,-202.5,187.5,,,,,,,187.5,B
1,M,Pro Masters 40-44,Raw,Zbigniew Strzelecki,Poland,1973-11-01,140,125.5,,,,,,200,205,207.5,207.5,,,,,,,207.5,B
2,M,Pro Masters 40-44,Raw,Viktor Kulik,Belarus,1974-11-19,140,127.2,,,,,,190,-200,200,200,,,,,,,200,B
1,M,Pro Masters 40-44,Raw,Oleksandr Gensitskyy,Ukraine,1975-12-18,140+,141.3,,,,,,220,-225,,220,,,,,,,220,B
1,M,Pro Masters 45-49,Raw,Hovhannes Yazichyan,Armenia,1971-05-08,100,96.15,,,,,,215,220,-227.5,220,,,,,,,220,B
1,M,Pro Masters 45-49,Raw,Andriy Belov,Ukraine,1972-03-05,110,108.4,,,,,,207.5,212.5,217.5,217.5,,,,,,,217.5,B
2,M,Pro Masters 45-49,Raw,Datuna Mzhavanadze,Georgia,1972-05-14,110,109.2,,,,,,170,190,195,195,,,,,,,195,B
3,M,Pro Masters 45-49,Raw,Oleksii Elamkov,Ukraine,1973-04-17,110,109.9,,,,,,170,180,190,190,,,,,,,190,B
1,M,Pro Masters 45-49,Raw,Oleg Palamarchuk,Ukraine,1972-11-23,125,110.4,,,,,,200,207.5,-212.5,207.5,,,,,,,207.5,B
2,M,Pro Masters 45-49,Raw,Vsevolod Goncharov,Ukraine,1969-02-21,125,110.5,,,,,,100,-105,105,105,,,,,,,105,B
1,M,Pro Masters 45-49,Raw,Zbigniew Drewniak,Poland,1973-03-23,140,130.2,,,,,,160,170,180,180,,,,,,,180,B
1,M,Pro Masters 45-49,Raw,Hossein Kazemi,Iran,1969-04-24,140+,142.85,,,,,,140,155,160,160,,,,,,,160,B
1,M,Pro Masters 50-54,Raw,Valentin Petrovskii,Belarus,1967-05-29,100,98.3,,,,,,150,-160,160,160,,,,,,,160,B
1,M,Pro Masters 55-59,Raw,Mykhailo Geienko,Ukraine,1963-04-04,125,111.7,,,,,,162.5,167.5,-170,167.5,,,,,,,167.5,B
1,M,Pro Masters 60-64,Raw,Zbigniew Koper,Poland,1953-10-04,75,75,,,,,,95,100,105,105,,,,,,,105,B
1,M,Pro Masters 65-69,Raw,Ryszard Śliwiński,Poland,1950-01-22,75,73.1,,,,,,70,72.5,-75,72.5,,,,,,,72.5,B
1,M,Pro Masters 70-74,Raw,Mirosław Orłowski,Poland,1943-12-29,100,98.2,,,,,,140,-144,-144,140,,,,,,,140,B
1,M,Pro MPF,Raw,Paweł Pruszyński,Poland,1988-04-04,90,86.9,,,,,,-160,160,165,165,,,,,,,165,B
2,M,Pro MPF,Raw,Yukhym Stepatskyy,Ukraine,1987-05-07,90,88.6,,,,,,160,-165,-165,160,,,,,,,160,B
1,M,Pro MPF,Raw,Gocha Batsiashvili,Georgia,1981-02-23,100,92.25,,,,,,160,170,180,180,,,,,,,180,B
2,M,Pro MPF,Raw,Volodymyr Ratushnyy,Ukraine,1974-12-23,100,97,,,,,,155,-162.5,-162.5,155,,,,,,,155,B
1,M,Pro MPF,Raw,Tomasz Napierała,Poland,1979-11-07,110,104.7,,,,,,190,200,-205,200,,,,,,,200,B
1,M,Pro MPF,Raw,Shalva Bebiashvili,Georgia,1987-01-05,125,121.65,,,,,,170,180,190,190,,,,,,,190,B
1,F,Pro Teenagers 18-19,Raw,Anna Syvokobylska,Ukraine,1998-05-30,75,70.05,,,,,,67.5,72.5,75,75,,,,,,,75,B
1,F,Pro Juniors 20-23,Raw,Kamila Korolewska,Poland,1994-12-03,75,70.2,,,,,,55,60,-62.5,60,,,,,,,60,B
1,F,Pro Open,Raw,Eteri Kumsishvili,Georgia,1984-02-17,60,58.7,,,,,,67.5,77.5,-87.5,77.5,,,,,,,77.5,B
1,F,Pro Open,Raw,Olena Razuvaieva,Ukraine,1988-04-26,67.5,67.2,,,,,,72.5,77.5,-82.5,77.5,,,,,,,77.5,B
1,F,Pro Open,Raw,Nataliya Mavdrik,Ukraine,1984-05-14,75,70.4,,,,,,95,100,105,105,,,,,,,105,B
1,F,Pro Open,Raw,Svetlana Sinacheva,Russia,1966-12-15,82.5,79.55,,,,,,107.5,110,115,115,,,,,,,115,B
1,F,Pro Submasters 33-39,Raw,Nataliya Mavdrik,Ukraine,1984-05-14,75,70.4,,,,,,95,100,105,105,,,,,,,105,B
2,F,Pro Submasters 33-39,Raw,Monika Gryziecka,Poland,1981-04-30,75,68.6,,,,,,55,60,-62.5,60,,,,,,,60,B
1,F,Pro Masters 50-54,Raw,Svetlana Sinacheva,Russia,1966-12-15,82.5,79.55,,,,,,107.5,110,115,115,,,,,,,115,B
1,F,Pro Masters 50-54,Raw,Krystyna Puzio,Poland,1965-04-23,90,87.9,,,,,,55,60,65,65,,,,,,,65,B
1,M,Pro Teenagers 18-19,Multi-ply,Vitaliy Menchuk,Ukraine,1998-05-27,100,95.35,,,,,,-240,240,-250,240,,,,,,,240,B
1,M,Pro Open,Multi-ply,Roman Pelykh,Ukraine,1985-09-07,75,72.3,,,,,,235,-245,-245,235,,,,,,,235,B
1,M,Pro Open,Multi-ply,Sergii Demianov,Ukraine,1986-10-25,90,89,,,,,,-210,210,-220,210,,,,,,,210,B
DQ,M,Pro Open,Multi-ply,Kostiantyn Chernov,Ukraine,1984-11-24,90,88.85,,,,,,-280,-280,-280,,,,,,,,,B
1,M,Pro Open,Multi-ply,Vitaliy Popov,Belarus,1977-10-30,100,100,,,,,,255,265,272.5,272.5,,,,,,,272.5,B
2,M,Pro Open,Multi-ply,Franciszek Szabluk,Poland,1956-09-17,100,97.5,,,,,,-230,-230,230,230,-250,,,,,,230,B
1,M,Pro Open,Multi-ply,Vladimir Omelkov,Russia,1970-05-10,110,107.3,,,,,,240,-252.5,-260,240,,,,,,,240,B
1,M,Pro Open,Multi-ply,Volodymyr Rozhansky,Ukraine,1980-08-25,125,118.2,,,,,,-245,250,-255,250,,,,,,,250,B
2,M,Pro Open,Multi-ply,Seyed Samed Ghoreishi,Iran,1982-08-22,125,122.9,,,,,,220,-240,-250,220,,,,,,,220,B
1,M,Pro Masters 40-44,Multi-ply,Vitaliy Popov,Belarus,1977-10-30,100,100,,,,,,255,265,272.5,272.5,,,,,,,272.5,B
1,M,Pro Masters 40-44,Multi-ply,Rafał Palubicki,Poland,1976-10-04,125,120,,,,,,200,,,200,,,,,,,200,B
1,M,Pro Masters 45-49,Multi-ply,Vladimir Omelkov,Russia,1970-05-10,110,107.3,,,,,,240,-252.5,-260,240,,,,,,,240,B
1,M,Pro Masters 45-49,Multi-ply,Hossein Bani-Fatemeh,Iran,1968-10-28,125,110.6,,,,,,45,70,90,90,,,,,,,90,B
1,M,Pro Masters 50-54,Multi-ply,Aleksandr Makey,Belarus,1964-05-15,110,108.1,,,,,,240,250,-260,250,,,,,,,250,B
1,M,Pro Masters 60-64,Multi-ply,Franciszek Szabluk,Poland,1956-09-17,100,97.5,,,,,,-230,-230,230,230,-250,,,,,,230,B
1,M,Pro Masters 70-74,Multi-ply,Mirosław Orłowski,Poland,1943-12-29,100,98.2,,,,,,-170,170,175,175,180,,,,,,175,B
