Place,Name,State,WeightClassKg,BodyweightKg,Age,Best3SquatKg,Best3BenchKg,Best3DeadliftKg,TotalKg,Sex,Division,Equipment,Bench4Kg,Event
1,Dana Davies,CA,56,55,19,90,42.5,125,257.5,F,Juniors 18-19,Raw,,SBD
1,Jordan Foletta,CA,67.5,62.7,19,130,65,147.5,342.5,F,Juniors 18-19,Raw,,SBD
1,Patricia Lopez,CA,67.5,67.1,23,120,75,145,340,F,Juniors 20-23,Raw,,SBD
2,Shannon McNally,CA,67.5,67.3,20,105,77.5,130,312.5,F,Juniors 20-23,Raw,,SBD
3,Rachael Johnson,CA,67.5,64.1,21,87.5,55,137.5,280,F,Juniors 20-23,Raw,,SBD
1,Savanna Barajas,CA,75,70.6,19,57.5,45,90,192.5,F,Juniors 18-19,Raw,,SBD
1,Cynthia Leu,CA,67.5,63.8,24,142.5,75,167.5,385,F,Open,Raw,,SBD
2,Jordan Foletta,CA,67.5,62.7,19,130,65,147.5,342.5,F,Open,Raw,,SBD
1,Lauren Bridgman,CA,75,73.4,25,120,67.5,132.5,320,F,Open,Raw,,SBD
1,Gina Gardali,CA,82.5,75.8,34,110,62.5,120,292.5,F,Open,Raw,,SBD
1,Inger Appanaitis,CA,90,88.1,32,160,92.5,170,422.5,F,Open,Raw,,SBD
DQ,Lara Wilson,CA,82.5,75.5,48,114,-55,137.5,,F,Masters 45-49,Raw,,SBD
1,Asael Galvan,CA,67.5,65,23,137.5,95,172.5,405,M,Juniors 20-23,Raw,,SBD
2,Jacob Dilger,CA,67.5,62.6,20,125,82.5,155,362.5,M,Juniors 20-23,Raw,,SBD
1,Oscar Morales,CA,75,74.1,18,165,102.5,187.5,455,M,Juniors 18-19,Raw,,SBD
1,James Lougaris,CA,75,74.6,23,210,117.5,230,557.5,M,Juniors 20-23,Raw,,SBD
2,Gabriel Orpia,CA,75,72.8,23,157.5,112.5,190,460,M,Juniors 20-23,Raw,,SBD
1,Michael Capelli,CA,82.5,81.1,19,192.5,169,192.5,554,M,Juniors 18-19,Raw,,SBD
2,Cooper Silva,CA,82.5,80.2,19,197.5,142.5,185,525,M,Juniors 18-19,Raw,,SBD
1,Uriel Tapia,CA,82.5,82.1,22,210,145,237.5,592.5,M,Juniors 20-23,Raw,,SBD
1,Michael Nottenkamper,CA,90,87.7,18,177.5,135,240,552.5,M,Juniors 18-19,Raw,,SBD
2,Ryan Armendariz,CA,90,87.3,19,185,110,215,510,M,Juniors 18-19,Raw,,SBD
1,Dave Polansky,CA,90,88.8,21,167.5,120,192.5,480,M,Juniors 20-23,Raw,,SBD
1,Larry Ravelo,CA,100,98.4,21,250,142.5,205,597.5,M,Juniors 20-23,Raw,,SBD
2,Jordan Lewis,CA,100,98.2,20,187.5,115,210,512.5,M,Juniors 20-23,Raw,,SBD
1,Collin Taylor,CA,110,109.3,23,275,205.5,317.5,798,M,Juniors 20-23,Raw,211.5,SBD
2,Richard Flores,CA,110,109.7,20,210,147.5,240,597.5,M,Juniors 20-23,Raw,,SBD
1,Blake Gonzales,CA,140+,156.7,23,300,210,270,780,M,Juniors 20-23,Raw,,SBD
1,Jacob Springer,CA,67.5,66.5,25,147.5,92.5,157.5,397.5,M,Open,Raw,,SBD
DQ,Randy Galvan,CA,67.5,66.7,24,-197.5,112.5,,,M,Open,Raw,,SBD
1,Michael Russel Jr,CA,75,74.6,35,217.5,132.5,245,595,M,Open,Raw,,SBD
2,Nathan Abely,CA,75,74.6,24,190,142.5,242.5,575,M,Open,Raw,,SBD
3,Jesus Resendez,CA,75,74.4,26,145,132.5,197.5,475,M,Open,Raw,,SBD
4,Oscar Morales,CA,75,74.1,18,165,102.5,187.5,455,M,Open,Raw,,SBD
5,Adam Hoffman,CA,75,69.5,29,160,107.5,177.5,445,M,Open,Raw,,SBD
6,Cesar Galvan,CA,75,74.6,30,152.5,95,192.5,440,M,Open,Raw,,SBD
7,Esteve Maya,CA,75,73.4,26,137.5,100,170,407.5,M,Open,Raw,,SBD
8,Andrew Hartsen,CA,75,72.6,26,140,80,182.5,402.5,M,Open,Raw,,SBD
1,Michael Capelli,CA,82.5,81.1,19,192.5,169,192.5,554,M,Open,Raw,,SBD
1,Vijay Panchal,CA,90,88.2,21,192.5,115,212.5,520,M,Open,Raw,,SBD
2,Chris Gonzales #2,CA,90,88.9,29,170,135,215,520,M,Open,Raw,,SBD
3,Vincent Flores,CA,90,85.2,23,195,90,210,495,M,Open,Raw,,SBD
4,John Tennant,CA,90,86.1,28,150,117.5,200,467.5,M,Open,Raw,,SBD
DQ,LaDell Erby,CA,90,88.8,28,210,-140,295,,M,Open,Raw,,SBD
DQ,Zachary Zabala,CA,90,85.1,26,192.5,-145,230,,M,Open,Raw,,SBD
1,Matthew Mammone,CA,100,99.7,34,205,142.5,250,597.5,M,Open,Raw,,SBD
1,Scott O'Farrell,CA,140+,152.4,30,250,152.5,262.5,665,M,Open,Raw,,SBD
1,Michael Russel Jr,CA,75,74.6,35,217.5,132.5,245,595,M,Submasters 35-39,Raw,,SBD
1,Ben Green,CA,100,95.1,35,170,125,210,505,M,Submasters 35-39,Raw,,SBD
1,Cecil Johnson,CA,82.5,78.5,60,152.5,112.5,182.5,447.5,M,Masters 60-64,Raw,,SBD
1,Gary Lyons,CA,90,88.2,58,142.5,120,222.5,485,M,Masters 55-59,Raw,,SBD
1,Maria Hernandez,CA,90,89.8,22,185,80,157.5,422.5,F,Juniors 20-23,Wraps,,SBD
1,Maria Hernandez,CA,90,89.8,22,185,80,157.5,422.5,F,Open,Wraps,,SBD
1,Daniel Soto,CA,110,107.1,18,185,145,240,570,M,Juniors 18-19,Wraps,,SBD
1,Dylan Mayer,CA,125,116.6,23,320,200,330,850,M,Juniors 20-23,Wraps,,SBD
1,Michael Mendez,CA,82.5,81.5,21,220,142.5,237.5,600,M,Open,Wraps,,SBD
1,Richard Loza,CA,110,102.7,32,230,160,260,650,M,Open,Wraps,,SBD
1,Dylan Mayer,CA,125,116.6,23,320,200,330,850,M,Open,Wraps,,SBD
2,Clayton Cox,CA,125,123.9,26,295,200,305,800,M,Open,Wraps,,SBD
1,Mark Ray,CA,100,97.7,59,185,155,242.5,582.5,M,Masters 55-59,Wraps,,SBD
1,Aaron Gianini,CA,125,119,48,185,125,172.5,482.5,M,Masters 45-49,Wraps,,SBD
1,Stephanie Stephens,NV,82.5,77.3,37,192.5,125,190,507.5,F,Open,Single-ply,,SBD
1,Peter Giannopoulos,CA,82.5,80.9,32,160,172.5,175,507.5,M,Open,Single-ply,,SBD
1,Robert Huizar,CA,140,129.6,55,287.5,150,240,677.5,M,Open,Single-ply,,SBD
1,Howard Winegarden,CA,125,114.1,52,232.5,215,220,667.5,M,Open,Single-ply,,SBD
1,Howard Winegarden,CA,125,114.1,52,232.5,215,220,667.5,M,Masters 50-54,Single-ply,,SBD
1,Brittney Martine,CA,56,55.5,25,,47.5,,47.5,F,Open,Raw,,B
1,Jene Railsbeck,CA,90+,144.6,26,,75,,75,F,Open,Raw,,B
1,Jacob Dilger,CA,67.5,62.6,20,,82.5,,82.5,M,Juniors 20-23,Raw,,B
1,Eric Banks #1,CA,140,130.8,43,,205,,205,M,Masters 40-44,Raw,,B
1,Charles Trembley,CA,75,74.5,47,,140,,140,M,Masters 45-49,Raw,,B
1,Peter Giannopoulos,CA,82.5,80.9,32,,172.5,,172.5,M,Open,Single-ply,,B
1,Howard Winegarden,CA,125,114.1,52,,215,,215,M,Masters 50-54,Single-ply,,B
1,Brittney Martine,CA,56,55.5,25,,,122.5,122.5,F,Open,Raw,,D
1,Jene Railsbeck,CA,90+,144.6,26,,,162.5,162.5,F,Open,Raw,,D
1,Charles Trembley,CA,75,74.5,47,,,195,195,M,Masters 45-49,Raw,,D
1,Howard Winegarden,CA,125,114.1,52,,,220,220,M,Masters 50-54,Single-ply,,D
