Place,Name,Sex,Event,Division,WeightClassKg,Equipment,BirthYear,State,BodyweightKg,Squat1Kg,Squat2Kg,Squat3Kg,Best3SquatKg,Bench1Kg,Bench2Kg,Bench3Kg,Best3BenchKg,Deadlift1Kg,Deadlift2Kg,Deadlift3Kg,Best3DeadliftKg,TotalKg
1,Christina Wickingson,F,SBD,R-JR,63,Raw,1994,MN,61.7,85,90,95,95,55,57.5,60,60,82.5,90,-95,90,245
1,Amy Thimmesh,F,SBD,R-M1a,84,Raw,1978,MN,79.45,100,107.5,117.5,117.5,55,57.5,-60,57.5,110,120,125,125,300
1,Alice Kirchhoff,F,SBD,R-M1a,84+,Raw,1978,MN,97.45,120,127.5,132.5,132.5,65,70,-75,70,130,135,-145,135,337.5
1,Lois Mahlberg,F,SBD,R-M1b,63,Raw,1969,MN,62.25,97.5,-110,-112.5,97.5,67.5,-70,70,70,127.5,137.5,142.5,142.5,310
1,Angela Josephs,F,SBD,R-M1b,72,Raw,1972,MN,63.85,80,85,90,90,52.5,-57.5,-57.5,52.5,102.5,107.5,112.5,112.5,255
1,Sandy Burch,F,SBD,R-M2a,84,Raw,1966,MN,76.85,-97.5,97.5,102.5,102.5,57.5,62.5,-67.5,62.5,115,125,-132.5,125,290
1,Pa-Woua Vang,F,SBD,R-O,57,Raw,1992,MN,55.7,117.5,125,-132.5,125,70,75,-80,75,142.5,147.5,150,150,350
2,Neng Vang,F,SBD,R-O,57,Raw,1992,MN,56,115,-120,-120,115,47.5,-52.5,-52.5,47.5,115,-120,-120,115,277.5
1,Mary Tatge,F,SBD,R-O,63,Raw,1990,MN,62.9,122.5,-130,-130,122.5,52.5,-55,-55,52.5,147.5,155,162.5,162.5,337.5
2,Elise Lee,F,SBD,R-O,63,Raw,1991,MN,61.25,107.5,115,120,120,70,75,80,80,110,117.5,122.5,122.5,322.5
1,Alison Behnke,F,SBD,R-O,72,Raw,1981,MN,69.55,127.5,135,137.5,137.5,82.5,-87.5,87.5,87.5,132.5,140,145,145,370
2,Michelle Beuthling,F,SBD,R-O,72,Raw,1990,MN,71.5,97.5,102.5,107.5,107.5,55,57.5,60,60,120,127.5,132.5,132.5,300
3,Laura Williams #3,F,SBD,R-O,72,Raw,1987,MN,70.25,90,97.5,102.5,102.5,55,57.5,60,60,120,130,-132.5,130,292.5
1,Maggie Hall,F,SBD,R-O,84,Raw,1992,MN,81.35,115,127.5,137.5,137.5,67.5,72.5,-77.5,72.5,150,162.5,172.5,172.5,382.5
2,Jordan Rice,F,SBD,R-O,84,Raw,1993,MN,81.05,130,137.5,-142.5,137.5,65,72.5,-82.5,72.5,165,170,-172.5,170,380
3,Vanessa Roman,F,SBD,R-O,84,Raw,1981,MN,78.9,-85,85,-92.5,85,60,67.5,72.5,72.5,130,140,145,145,302.5
4,Colleen Ryan,F,SBD,R-O,84,Raw,1992,MN,80.6,75,80,85,85,62.5,70,-75,70,115,130,137.5,137.5,292.5
5,Felicia Wallin,F,SBD,R-O,84,Raw,1985,MN,79.7,85,90,-95,90,42.5,-45,45,45,112.5,117.5,125,125,260
1,Melissa Lasch,F,SBD,R-O,84+,Raw,1984,MN,90.7,92.5,97.5,100,100,47.5,52.5,-55,52.5,120,125,127.5,127.5,280
2,Danielle Hagen,F,SBD,R-O,84+,Raw,1993,MN,96.1,75,82.5,90,90,47.5,52.5,-55,52.5,120,127.5,135,135,277.5
1,Amelia Merfeld,F,SBD,R-T2,47,Raw,2001,MN,46.45,52.5,57.5,62.5,62.5,35,40,42.5,42.5,62.5,67.5,72.5,72.5,177.5
1,Asif Ally,M,SBD,R-JR,59,Raw,1998,MN,58.95,132.5,140,145,145,92.5,100,-105,100,195,-210,-210,195,440
1,Aaron Steiner,M,SBD,R-JR,83,Raw,1997,MN,75.7,175,190,200,200,120,127.5,130,130,175,190,200,200,530
1,Ian Rollman,M,SBD,R-JR,105,Raw,1997,MN,93.9,205,217.5,227.5,227.5,137.5,145,150,150,210,227.5,-235,227.5,605
2,Elyas Hirsi,M,SBD,R-JR,105,Raw,1997,MN,93.65,137.5,147.5,155,155,-95,95,-100,95,200,-212.5,-212.5,200,450
1,Bart Dahl,M,SBD,R-M1a,120+,Raw,1977,WI,138.45,207.5,225,242.5,242.5,140,152.5,-165,152.5,225,245,-265,245,640
1,Michael Haukaas,M,SBD,R-M1b,105,Raw,1971,MN,100.15,160,167.5,-170,167.5,97.5,102.5,105,105,175,182.5,187.5,187.5,460
1,Jon Forbort,M,SBD,R-M1b,120+,Raw,1971,MN,129.4,-167.5,170,182.5,182.5,122.5,-127.5,127.5,127.5,185,192.5,200,200,510
1,Thomas Hay,M,SBD,R-M3a,83,Raw,1956,MN,78.65,90,100,105,105,-70,72.5,75,75,130,140,150,150,330
1,Jon Govin,M,SBD,R-M3a,105,Raw,1956,MN,100.95,165,175,185,185,90,95,100,100,175,192.5,202.5,202.5,487.5
2,Dennis Bakken,M,SBD,R-M3a,105,Raw,1958,MN,94.7,120,127.5,137.5,137.5,60,65,-70,65,157.5,170,-175,170,372.5
1,Sid Reid,M,SBD,R-M4a,83,Raw,1948,MN,81.1,122.5,-130,-130,122.5,65,67.5,-70,67.5,145,150,-157.5,150,340
1,John Milnes,M,SBD,R-M4a,105,Raw,1947,MN,98.3,125,-137.5,137.5,137.5,80,-87.5,-87.5,80,-160,172.5,-187.5,172.5,390
1,William Puckett,M,SBD,R-M4a,120,Raw,1945,MN,108.85,132.5,140,-145,140,-95,97.5,-100,97.5,150,155,160,160,397.5
1,Scott Spencer,M,SBD,R-O,74,Raw,1980,MN,73.6,175,185,195,195,135,145,-147.5,145,185,202.5,207.5,207.5,547.5
2,Andrew Xayamongkhon,M,SBD,R-O,74,Raw,1989,MN,69.45,170,177.5,-187.5,177.5,127.5,132.5,137.5,137.5,207.5,217.5,227.5,227.5,542.5
3,David Dang,M,SBD,R-O,74,Raw,1987,MN,73.5,142.5,150,160,160,110,115,-120,115,155,160,-170,160,435
1,Randall Burns,M,SBD,R-O,83,Raw,1993,MN,80.2,150,162.5,-167.5,162.5,72.5,80,-85,80,192.5,207.5,-215,207.5,450
1,Cameron Barukzoy,M,SBD,R-O,93,Raw,1991,MN,89.45,250,257.5,265,265,165,172.5,-180,172.5,260,267.5,272.5,272.5,710
2,Tommy Schneider,M,SBD,R-O,93,Raw,1994,MN,88.4,230,237.5,247.5,247.5,147.5,155,-160,155,270,282.5,285,285,687.5
3,Micah Rodahl,M,SBD,R-O,93,Raw,1993,MN,92.15,257.5,272.5,280,280,130,137.5,-142.5,137.5,230,242.5,-245,242.5,660
4,Robert Munoz,M,SBD,R-O,93,Raw,1994,MN,91.9,212.5,227.5,235,235,120,127.5,-132.5,127.5,257.5,272.5,-277.5,272.5,635
5,Kevin Hermanson,M,SBD,R-O,93,Raw,1987,MN,92.75,187.5,197.5,205,205,122.5,130,135,135,240,257.5,-265,257.5,597.5
6,Jacob Morphis,M,SBD,R-O,93,Raw,1994,MN,92.95,182.5,195,202.5,202.5,122.5,130,-132.5,130,205,217.5,227.5,227.5,560
1,Leslie Kiang,M,SBD,R-O,105,Raw,1987,MN,104.6,280,297.5,-312.5,297.5,185,192.5,195,195,280,-295,295,295,787.5
2,Diamond Jenkins,M,SBD,R-O,105,Raw,1992,MN,103.7,205,217.5,-232.5,217.5,165,-177.5,-177.5,165,227.5,247.5,262.5,262.5,645
3,Jake Piwko,M,SBD,R-O,105,Raw,1992,MN,93.7,225,235,-240,235,145,150,155,155,242.5,250,-255,250,640
4,Garrison Gless,M,SBD,R-O,105,Raw,1990,MN,95.15,200,215,230,230,132.5,140,145,145,235,255,-275,255,630
5,Dan Moen,M,SBD,R-O,105,Raw,1979,WI,98.4,165,185,195,195,125,130,135,135,195,210,222.5,222.5,552.5
6,Joshua Williams,M,SBD,R-O,105,Raw,1992,MN,98.9,177.5,187.5,195,195,130,-137.5,137.5,137.5,205,217.5,-222.5,217.5,550
7,Max Feld,M,SBD,R-O,105,Raw,1993,MN,99,165,175,185,185,97.5,105,110,110,237.5,247.5,-255,247.5,542.5
8,Barret Gosen,M,SBD,R-O,105,Raw,1993,MN,100.8,-182.5,182.5,192.5,192.5,115,122.5,125,125,167.5,182.5,195,195,512.5
9,Haydn Luker,M,SBD,R-O,105,Raw,1993,MN,102.25,-165,172.5,175,175,115,120,122.5,122.5,187.5,197.5,202.5,202.5,500
1,Ross Ojala,M,SBD,R-O,120,Raw,1983,MN,119.35,255,267.5,275,275,150,160,167.5,167.5,262.5,272.5,280,280,722.5
2,Austin Lind,M,SBD,R-O,120,Raw,1988,WI,112.35,200,212.5,-220,212.5,152.5,157.5,160,160,232.5,237.5,-245,237.5,610
3,Christopher Martin,M,SBD,R-O,120,Raw,1982,MN,115.65,-195,-195,195,195,100,102.5,105,105,210,215,220,220,520
1,Phillip Matheis,M,SBD,R-O,120+,Raw,1988,MN,139.2,205,217.5,225,225,137.5,145,152.5,152.5,210,222.5,232.5,232.5,610
2,Craig Appelquist,M,SBD,R-O,120+,Raw,1986,MN,170.15,145,-147.5,-147.5,145,135,140,-150,140,185,-200,200,200,485
1,Mitchell Belland,M,SBD,R-T2,74,Raw,2001,MN,70.5,157.5,167.5,180,180,92.5,97.5,102.5,102.5,175,185,195,195,477.5
1,Graham Paatela,M,SBD,R-T3,93,Raw,1999,MN,90.95,190,-200,200,200,110,-122.5,-122.5,110,-200,200,-210,200,510
