Event,Sex,Name,State,WeightClassKg,Division,Best3SquatKg,Best3BenchKg,Best3DeadliftKg,TotalKg,Equipment,Place
SBD,M,Neil MacIsaac,PE,67.5,Open,200,130,200,530,Single-ply,1
SBD,M,Avery Kuryluk,PE,110,Open,240,190,240,670,Single-ply,1
SBD,M,Paul Williams,NF,100,Open,255,155,255,665,Single-ply,1
SBD,M,Frank Williams,NF,100,Masters 2,182.5,102.5,185,470,Single-ply,1
SBD,M,John Fraser,NS,90,Masters 1,245,177.5,257.5,680,Single-ply,1
SBD,M,Byron Monstur,PE,100,Masters 1,232.5,132.5,230,595,Single-ply,1
SBD,M,Jamie Emberley,PE,90,Juniors,280,170,260,710,Single-ply,1
SBD,M,Peter Siepierski,NS,75,Juniors,150,102.5,185,437.5,Single-ply,2
SBD,M,Paul MacDonald,NF,75,Juniors,182.5,120,227.5,530,Single-ply,1
SBD,M,Ryan Cooper,NF,100,Juniors,197.5,117.5,232.5,547.5,Single-ply,1
B,M,Chris Cormier,NF,140+,Open,,192.5,,192.5,Single-ply,1
B,M,Noel Doucette,PE,125,Open,,205,,205,Single-ply,1
B,M,Jamie Jury,NF,125,Open,,177.5,,177.5,Single-ply,2
B,M,Avery Kuryluk,PE,110,Open,,190,,190,Single-ply,1
B,M,John Fraser,NS,82.5,Masters 1,,177.5,,177.5,Single-ply,1
B,M,Byron Monstur,PE,100,Masters 1,,130,,130,Single-ply,1
B,M,Jamie Emberly,PE,90,Juniors,,170,,170,Single-ply,1
B,M,Paul MacDonald,NF,75,Juniors,,122.5,,122.5,Single-ply,1
