Division,WeightClassKg,Place,Name,Team,BodyweightKg,Best3SquatKg,Best3BenchKg,Best3DeadliftKg,TotalKg,Equipment,Event,Sex
Boys,52,1,Steve Melgar,Hitchcock,44.18,147.42,56.7,145.15,349.27,Single-ply,SBD,M
Boys,52,2,David Owens,La Marque,51.26,136.08,56.7,129.27,322.05,Single-ply,SBD,M
Boys,52,DQ,Nathan Acosta,Pearland Dawson,51.07,,56.7,124.74,,Single-ply,SBD,M
Boys,67.5,1,Pablo Cavazos,Dickinson,66.04,185.97,79.38,197.31,462.66,Single-ply,SBD,M
Boys,67.5,2,Russell Pickney,La Marque,63.32,136.08,77.11,163.29,376.48,Single-ply,SBD,M
Boys,67.5,3,Perry Preston,La Marque,67.13,136.08,79.38,154.22,369.68,Single-ply,SBD,M
Boys,67.5,DQ,Ricky Hampton,Hitchcock,67.13,,,,,Single-ply,SBD,M
Boys,75,1,Keandre Owens,La Marque,69.22,142.88,79.38,156.49,378.75,Single-ply,SBD,M
Boys,75,DQ,Randy Williams,Hitchcock,74.12,204.12,,,,Single-ply,SBD,M
Boys,82.5,1,Dane Rendon,Hitchcock,81.56,210.92,108.86,183.7,503.49,Single-ply,SBD,M
Boys,82.5,2,Jaden Bishop,La Marque,80.1,181.44,111.13,179.17,471.74,Single-ply,SBD,M
Boys,82.5,3,Malik Holmes,La Marque,82.1,170.1,108.86,176.9,455.86,Single-ply,SBD,M
Boys,82.5,4,Octavio Galicia,Dickinson,81.6,170.1,102.06,181.44,453.59,Single-ply,SBD,M
Boys,82.5,5,Digeo Vela,Dickinson,81.15,158.76,99.79,170.1,428.64,Single-ply,SBD,M
Boys,82.5,DQ,Tyewon Walker,La Marque,82.1,,,,,Single-ply,SBD,M
Boys,90,1,Demontre Bell,Texas City,86.73,226.8,117.93,249.48,594.21,Single-ply,SBD,M
Boys,90,2,Trevor Anderson,Dickinson,89.72,226.8,115.67,213.19,555.65,Single-ply,SBD,M
Boys,90,3,Ellis Muldrow,Dickinson,89.77,192.78,95.25,192.78,480.81,Single-ply,SBD,M
Boys,90,DQ,Anthony Gonzalez,Hitchcock,89.81,,,,,Single-ply,SBD,M
Boys,100,1,Brent Smith,Hitchcock,96.62,226.8,120.2,206.38,553.38,Single-ply,SBD,M
Boys,100,2,Jose Rodriguez,Dickinson,93.03,192.78,113.4,190.51,496.68,Single-ply,SBD,M
Boys,100,3,Bralan Spriggins,Dickinson,99.79,142.88,79.38,165.56,387.82,Single-ply,SBD,M
Boys,100,DQ,Hunter Thiem,Hitchcock,99.79,,,,,Single-ply,SBD,M
Boys,110,1,Xavian Hampton,Hitchcock,105.78,297.1,136.08,265.35,698.53,Single-ply,SBD,M
Boys,110,2,Livan Lopez,Dickinson,109.13,233.6,151.95,219.99,605.55,Single-ply,SBD,M
Boys,110,3,Jared Mancuso,Hitchcock,106.59,226.8,97.52,204.12,528.44,Single-ply,SBD,M
Boys,110,4,Daniel Parr,Dickinson,100.88,208.65,102.06,183.7,494.42,Single-ply,SBD,M
Boys,110,5,Armando Alaniz Jr,Dickinson,106.23,181.44,106.59,181.44,469.47,Single-ply,SBD,M
Boys,110,6,Brandon Rangel,Dickinson,109.59,185.97,79.38,170.1,435.45,Single-ply,SBD,M
Boys,110,DQ,Anthony Nixon,Texas City,108.68,,,,,Single-ply,SBD,M
Boys,125,1,Joel Otero,Dickinson,114.12,195.04,104.33,163.29,462.66,Single-ply,SBD,M
Boys,125,DQ,Elijah Mason,Hitchcock,124.74,,,,,Single-ply,SBD,M
Boys,125+,1,Marlon Ford,La Marque,160.57,294.84,124.74,272.16,691.73,Single-ply,SBD,M
Boys,125+,2,Kaleen Oatis,Dickinson,155.22,213.19,129.27,174.63,517.1,Single-ply,SBD,M
Boys,125+,3,Torrey Lastice,Dickinson,146.24,183.7,102.06,142.88,428.64,Single-ply,SBD,M
Boys,125+,4,Parker Correia,Pearland Dawson,149.96,265.35,127.01,,392.36,Single-ply,SB,M
Boys,125+,DQ,Aymiel Fleming,La Marque,125.19,,,,,Single-ply,SBD,M
Boys,125+,DQ,William Tinner,La Marque,125.19,,,,,Single-ply,SBD,M
