Sex,Equipment,Division,WeightClassKg,Name,BodyweightKg,Best3SquatKg,Squat4Kg,Best3BenchKg,Best3DeadliftKg,Deadlift4Kg,TotalKg,Event,Place
F,Raw,Amateur Masters 40-44,48,Tracey Lizsa Mancuso,46.63,70.31,72.57,38.56,97.52,99.79,206.38,SBD,1
F,Raw,Amateur Masters 45-49,52,Ninette Longsworth,51.71,75.98,83.91,52.16,102.06,106.59,230.20,SBD,1
F,Raw,Amateur Open,52,Laura Genore,51.35,92.99,,47.63,115.67,,256.28,SBD,1
F,Raw,Amateur Submasters 33-39,56,Renée Howland,55.79,83.91,,52.16,111.13,,247.21,SBD,1
F,Raw,Amateur Juniors 20-23,60,Manon van Mil,59.96,83.91,,49.90,120.20,,254.01,SBD,2
F,Raw,Amateur Juniors 20-23,60,Chanel Nolet,58.51,95.25,,54.43,111.13,,260.82,SBD,1
F,Raw,Amateur Open,67.5,Maya Levin,60.24,115.67,,68.04,149.69,,333.39,SBD,1
F,Raw,Amateur Submasters 33-39,67.5,Hilda Siegel,65.59,104.33,,72.57,145.15,,322.05,SBD,1
F,Wraps,Amateur Open,67.5,Vanessa Baez,64.77,83.91,,45.36,111.13,,240.40,SBD,1
F,Wraps,Pro Open,67.5,Meana Franco,63.05,140.61,,86.18,138.35,,365.14,SBD,1
F,Wraps,Pro Juniors 20-23,67.5,Meana Franco,63.05,140.61,,86.18,138.35,,365.14,SBD,1
F,Raw,Amateur Juniors 20-23,75,Marilyn Bonheur,74.66,102.06,,56.70,165.56,,324.32,SBD,1
F,Raw,Pro Open,75,Aneta Wilga,74.98,97.52,,56.70,145.15,,299.37,SBD,1
F,Raw,Amateur Open,82.5,Sophie Smith,79.20,117.93,,61.23,120.20,,299.37,SBD,1
F,Raw,Amateur Submasters 33-39,82.5,Sophie Smith,79.20,117.93,,61.23,120.20,,299.37,SBD,1
F,Raw,Amateur Juniors 20-23,90,Erin Cooke,85.55,129.27,,61.23,129.27,,319.78,SBD,1
F,Raw,Amateur Submasters 33-39,90,Kim Bucci,83.91,70.31,,61.23,117.93,,249.48,SBD,1
M,Raw,Amateur Open,75,Adrian Nichol,70.76,172.37,,127.01,242.67,,542.04,SBD,1
M,Raw,Pro Open,75,Mark Devlin,73.48,129.27,,92.99,174.63,,396.89,SBD,1
M,Raw,Amateur Juniors 20-23,82.5,Claudio Lattanzio,79.11,167.83,,124.74,215.46,,508.02,SBD,1
M,Multi-ply,Amateur Open,90,Martin Lebrun,87.09,231.33,,151.95,229.06,,612.35,SBD,1
M,Raw,Amateur Teen 16-17,90,Graeme Oliver,88.90,174.63,,127.01,208.65,,510.29,SBD,1
M,Wraps,Amateur Open,90,Joseph Casero,89.99,210.92,,129.27,238.14,,578.33,SBD,1
M,Wraps,Military Pro Open,90,Chase Clark,88.81,158.76,,129.27,226.80,,514.83,SBD,1
M,Raw,Pro Juniors 20-23,90,Jack O'Rourke,89.81,192.78,,154.22,249.48,,596.47,SBD,1
M,Raw,Pro Open,90,Chris Sousa,89.90,247.21,,170.10,272.16,,689.46,SBD,2
M,Raw,Pro Open,90,Mark Webster,89.09,251.74,,151.95,294.84,,698.53,SBD,1
M,Raw,Pro Masters 55-59,90,Derek Tiller,85.28,124.74,,102.06,219.99,,446.79,SBD,1
M,Wraps,Pro Open,90,Jordan Moffitt,89.99,249.48,,181.44,299.37,,730.28,SBD,1
M,Raw,Amateur Open,100,Michel Fortin,94.80,142.88,,95.25,190.51,,428.64,SBD,3
M,Raw,Amateur Open,100,Paul Greeley,97.16,174.63,,120.20,210.92,,505.76,SBD,2
M,Raw,Amateur Open,100,Mathew Bourdon,94.53,183.70,,120.20,208.65,,512.56,SBD,1
M,Wraps,Amateur Juniors 20-23,100,Alec Moffatt,95.25,195.04,,122.47,222.26,,539.77,SBD,1
M,Wraps,Amateur Open,100,Skylar Farley,92.80,224.53,,136.08,258.55,,619.15,SBD,1
M,Wraps,Amateur Teen 18-19,100,Jackson Spencer,98.34,240.40,,147.42,247.21,,635.03,SBD,1
M,Wraps,Military Pro Open,100,Ignatius DeFranco,99.97,294.84,,190.51,294.84,,780.18,SBD,1
M,Raw,Pro Open,100,Anthony Kell,98.16,204.12,,136.08,231.33,,571.53,SBD,1
M,Raw,Pro Submasters 33-39,100,Jason Argue,99.06,265.35,,174.63,310.71,,750.70,SBD,1
M,Wraps,Pro Open,100,Paul Oneid,99.06,340.19,,192.78,299.37,,832.34,SBD,1
M,Raw,Amateur Open,110,Ryan Kingma,109.77,206.38,,158.76,249.48,,614.62,SBD,1
M,Raw,Amateur Submasters 33-39,110,Sean Murphy,105.69,190.51,,117.93,229.06,,537.51,SBD,1
M,Wraps,Amateur Open,110,Mohamed El Sherif,100.97,208.65,,156.49,265.35,,630.49,SBD,1
M,Wraps,Pro Open,110,Erik Willis,109.95,301.64,,190.51,324.32,,816.47,SBD,1
M,Raw,Amateur Open,125,Chadwick Haines,122.92,254.01,,163.29,308.44,,725.75,SBD,1
M,Wraps,Amateur Juniors 20-23,125,John Carden,122.38,219.99,,140.61,267.62,,628.23,SBD,1
M,Raw,Pro Open,125,Chris Goodman,117.75,235.87,,181.44,294.84,,712.14,SBD,1
M,Raw,Amateur Open,140,Ryan Wereley,132.36,272.16,,199.58,249.48,,721.21,SBD,1
M,Wraps,Amateur Open,140+,Jamie Seguin,157.58,317.51,,176.90,276.69,,771.11,SBD,1
M,Wraps,Military Pro Open,140+,Aaron Runnalls,169.01,249.48,,201.85,226.80,,678.12,SBD,1
M,Raw,Amateur Open,90,Chris Sousa,89.90,247.21,,,,,247.21,S,1
M,Raw,Pro Masters 55-59,90,Derek Tiller,85.28,,,102.06,,,102.06,B,1
M,Raw,Amateur Open,100,Vyacheslav Serebrianik,95.25,,,142.88,,,142.88,B,1
M,Raw,Amateur Submasters 33-39,100,Vyacheslav Serebrianik,95.25,,,142.88,,,142.88,B,1
M,Raw,Amateur Open,100,Scott MacDiarmid,98.34,,,161.03,,,161.03,B,1
M,Raw,Amateur Masters 45-49,100,Scott MacDiarmid,98.34,,,161.03,,,161.03,B,1
M,Multi-ply,Amateur Open,100,Scott MacDiarmid,98.34,,,251.74,,,251.74,B,1
M,Multi-ply,Amateur Masters 45-49,100,Scott MacDiarmid,98.34,,,251.74,,,251.74,B,1
M,Raw,Pro Masters 55-59,110,Mike Dickson,102.51,,,161.03,,,161.03,B,1
M,Raw,Military Pro Masters 50+,125,Jack MacDonald,122.47,,,151.95,,,151.95,B,1
M,Single-ply,Amateur Open,100,Andrei Oudovikine,98.88,,,208.65,,,208.65,B,1
M,Raw,Pro Masters 45-49,140+,Curd Hos,153.13,,,206.38,,,206.38,B,1
F,Raw,Amateur Open,75,Rachel Lessard,68.67,,,49.90,90.72,,140.61,BD,1
M,Raw,Amateur Open,75,Daniel Cole,74.93,,,115.67,197.31,,312.98,BD,1
M,Raw,Pro Masters 55-59,90,Derek Tiller,85.28,,,102.06,219.99,,322.05,BD,1
M,Raw,Amateur Juniors 20-23,82.5,Richie Binzangi,81.92,,,,274.42,,274.42,D,1
M,Raw,Amateur Juniors 20-23,90,Ryan Taylor,88.45,,,,229.06,,229.06,D,1
M,Multi-ply,Pro Masters 45-49,90,Joseph Lamonica,84.82,158.76,,,183.70,,342.46,SD,1
M,Raw,Pro Masters 55-59,90,Derek Tiller,85.28,,,,219.99,,219.99,D,1
