WeightClassKg,Division,Name,Best3BenchKg,Best3DeadliftKg,TotalKg,BodyweightKg,BirthYear,Event,Sex,Equipment,Place
52,Amateur Masters (40-44),Vicki Lodise,63.5,90.72,154.22,50.8,1970,BD,F,Raw,1
90,Amateur Teen (18-19),Raymond Krissick,111.13,226.8,337.93,88.45,1995,BD,M,Raw,1
100,Amateur Masters (45-49),Peter Lodise,129.27,158.76,288.03,95.25,1967,BD,M,Raw,1
110,Amateur Masters (45-49),Stephen Abramowitz,142.88,240.4,383.29,105.69,1967,BD,M,Raw,1
90,Amateur Teen (18-19),Jake Benedict,147.42,,147.42,88.68,1996,B,M,Raw,1
