Place,Name,Sex,Event,Division,WeightClassKg,Equipment,BirthYear,State,BodyweightKg,Squat1Kg,Squat2Kg,Squat3Kg,Best3SquatKg,Bench1Kg,Bench2Kg,Bench3Kg,Best3BenchKg,Deadlift1Kg,Deadlift2Kg,Deadlift3Kg,Best3DeadliftKg,TotalKg
1,Tiffney Oliver,F,SBD,R-O,52,Raw,1982,PA,51.3,-132.5,137.5,-142.5,137.5,67.5,72.5,-77.5,72.5,155,165,170,170,380
2,Alyssa Mirasol,F,SBD,R-O,52,Raw,1994,NY,51.93,120,-130,130,130,62.5,67.5,-70,67.5,162.5,-175,-175,162.5,360
3,Mune van Luen,F,SBD,R-O,52,Raw,1976,CA,51.68,127.5,132.5,-137.5,132.5,65,67.5,-70,67.5,137.5,145,150,150,350
4,Emma Ife,F,SBD,R-O,52,Raw,1989,NY,50.98,117.5,125,135,135,72.5,80,-85,80,122.5,132.5,-135,132.5,347.5
5,Sophia Rizzuto,F,SBD,R-O,52,Raw,1996,NJ,51.55,112.5,120,125,125,70,75,77.5,77.5,127.5,137.5,142.5,142.5,345
6,Rachael Bielmeier,F,SBD,R-O,52,Raw,1994,NY,50.98,115,122.5,-127.5,122.5,65,67.5,-70,67.5,137.5,145,-150,145,335
7,Kerry Sachs,F,SBD,R-O,52,Raw,1990,MA,50.69,115,122.5,-127.5,122.5,52.5,55,57.5,57.5,132.5,140,-145,140,320
1,Courtney Tedesco,F,SBD,R-O,57,Raw,1991,NY,57,127.5,132.5,-137.5,132.5,82.5,-87.5,-87.5,82.5,142.5,155,162.5,162.5,377.5
2,Jenny Lee,F,SBD,R-O,57,Raw,1994,CA,52.22,127.5,135,145,145,75,80,-85,80,132.5,142.5,150,150,375
3,Rachel Orbach,F,SBD,R-O,57,Raw,1993,NJ,55.94,120,127.5,-135,127.5,67.5,72.5,-75,72.5,162.5,170,-172.5,170,370
1,Arthi Nithi,F,SBD,R-O,63,Raw,1996,GA,62.97,140,150,160,160,80,87.5,90,90,155,167.5,175,175,425
2,Taryn Albright,F,SBD,R-O,63,Raw,1993,CA,62.93,132.5,140,142.5,142.5,100,105,110,110,155,165,170,170,422.5
3,Laura O'Connor-Butler,F,SBD,R-O,63,Raw,1981,TX,62.74,137.5,-142.5,-142.5,137.5,77.5,80,-82.5,80,175,185,-192.5,185,402.5
4,Maria Capuano,F,SBD,R-O,63,Raw,1992,RI,62.11,132.5,140,147.5,147.5,75,80,82.5,82.5,150,162.5,170,170,400
5,Lauren Roseman,F,SBD,R-O,63,Raw,1979,PA,63,130,137.5,142.5,142.5,82.5,87.5,92.5,92.5,150,160,165,165,400
6,Dana Linn Bailey,F,SBD,R-O,63,Raw,1983,MT,60.55,132.5,140,-145,140,92.5,97.5,102.5,102.5,145,155,-162.5,155,397.5
7,Jo Ann Aita,F,SBD,R-O,63,Raw,1970,CA,60.71,130,135,-140,135,77.5,82.5,-85,82.5,155,165,172.5,172.5,390
8,Sonya McMillan,F,SBD,R-O,63,Raw,1979,GA,59.9,130,-142.5,145,145,72.5,77.5,-85,77.5,145,157.5,-175,157.5,380
9,Rachel Gody,F,SBD,R-O,63,Raw,1994,PA,60.72,125,135,142.5,142.5,82.5,90,-95,90,137.5,147.5,-155,147.5,380
10,Ashley Bogan,F,SBD,R-O,63,Raw,1995,MI,61.69,127.5,-137.5,-137.5,127.5,-70,70,72.5,72.5,160,172.5,177.5,177.5,377.5
11,Ashley Akehurst,F,SBD,R-O,63,Raw,1988,MN,61.75,125,132.5,-135,132.5,65,70,-75,70,-170,170,-172.5,170,372.5
1,Ellen Liverpool,F,SBD,R-O,72,Raw,1993,DC,71.71,172.5,182.5,-188.5,182.5,77.5,82.5,85,85,182.5,195,202.5,202.5,470
2,Erin Kyle,F,SBD,R-O,72,Raw,1988,PA,67.57,145,155,160,160,77.5,82.5,85,85,182.5,192.5,200,200,445
3,Alice Zheng,F,SBD,R-O,72,Raw,1992,CO,68.78,150,157.5,165,165,80,85,-90,85,170,185,-190,185,435
4,Cassandra Garcilaso,F,SBD,R-O,72,Raw,1991,MO,71.61,145,152.5,-157.5,152.5,85,90,-92.5,90,182.5,190,-200,190,432.5
5,Ashleigh Uhl,F,SBD,R-O,72,Raw,1994,CT,71.14,137.5,142.5,150,150,92.5,97.5,-100,97.5,170,182.5,-190,182.5,430
6,Sydney Atkinson,F,SBD,R-O,72,Raw,1994,CO,70.5,137.5,145,147.5,147.5,85,90,92.5,92.5,172.5,182.5,187.5,187.5,427.5
1,Amanda Lawrence,F,SBD,R-O,84,Raw,1997,MN,82.12,210,-220,220,220,92.5,-97.5,-97.5,92.5,195,207.5,215,215,527.5
2,Gina Hensley,F,SBD,R-O,84,Raw,1995,MI,75.63,147.5,157.5,165,165,87.5,92.5,95,95,177.5,185,187.5,187.5,447.5
1,Bonica Brown,F,SBD,R-O,84+,Raw,1988,NE,131.84,250,262.5,-270,262.5,125,135,140,140,227.5,240.5,246.5,246.5,649
2,Sarah Brenner #1,F,SBD,R-O,84+,Raw,1990,PA,128.37,222.5,-235,235,235,92.5,97.5,102.5,102.5,222.5,235,245,245,582.5
3,Gabrielle Felps,F,SBD,R-O,84+,Raw,1994,GA,88.07,182.5,192.5,200,200,90,97.5,-102.5,97.5,187.5,202.5,207.5,207.5,505
1,Micheal Seay,M,SBD,R-O,74,Raw,1996,TX,73.22,230,242.5,252.5,252.5,152.5,-162.5,162.5,162.5,247.5,262.5,272.5,272.5,687.5
2,Zachary DiCostanzo,M,SBD,R-O,74,Raw,1992,MA,72.68,235,245,250,250,150,157.5,160,160,247.5,260,272.5,272.5,682.5
3,Eric LaPointe,M,SBD,R-O,74,Raw,1992,NH,73.53,217.5,230,-235,230,147.5,155,-160,155,275,292.5,-305,292.5,677.5
4,TraShon Hightower,M,SBD,R-O,74,Raw,1996,GA,73.75,242.5,257.5,262.5,262.5,142.5,152.5,160,160,230,247.5,-255,247.5,670
5,Alexander Mcquillen,M,SBD,R-O,74,Raw,1995,OH,73.9,230,240,-250,240,145,150,-155,150,240,252.5,260,260,650
6,Myo Thiha,M,SBD,R-O,74,Raw,1994,NC,72.06,205,210,215,215,155,160,-165,160,250,-260,-260,250,625
7,Kyle Coogan,M,SBD,R-O,74,Raw,1994,MA,73.05,207.5,-220,-220,207.5,132.5,-142.5,142.5,142.5,265,-277.5,-277.5,265,615
1,Sean Noriega,M,SBD,R-O,83,Raw,1996,NY,82.65,-260,270,277.5,277.5,185,192.5,195,195,280,295,-310,295,767.5
2,Marcus Adodo,M,SBD,R-O,83,Raw,1995,NC,83,265,275,285,285,160,167.5,-177.5,167.5,285,300,-317.5,300,752.5
3,David Shelton,M,SBD,R-O,83,Raw,1993,TX,77.32,232.5,245,255,255,165,172.5,177.5,177.5,260,272.5,282.5,282.5,715
4,Drew Thompson,M,SBD,R-O,83,Raw,1988,MO,81.45,240,250,-252.5,250,180,190,-195,190,252.5,262.5,272.5,272.5,712.5
5,Sol Na,M,SBD,R-O,83,Raw,1991,GA,82.37,237.5,250,257.5,257.5,165,172.5,175,175,257.5,267.5,-277.5,267.5,700
6,Benjamin Smith #1,M,SBD,R-O,83,Raw,1988,KY,80.96,217.5,230,240,240,155,165,-172.5,165,240,257.5,-270,257.5,662.5
1,Dominique Stephens,M,SBD,R-O,93,Raw,1992,MD,88.51,235,252.5,265,265,182.5,192.5,202.5,202.5,285,302.5,-317.5,302.5,770
2,Andrew Jones,M,SBD,R-O,93,Raw,1994,MO,92.48,262.5,270,272.5,272.5,175,182.5,185,185,292.5,302.5,-315,302.5,760
3,Mitchell Deskis,M,SBD,R-O,93,Raw,1991,TX,83.06,260,272.5,277.5,277.5,162.5,170,175,175,277.5,292.5,305,305,757.5
4,Kristopher Hunt,M,SBD,R-O,93,Raw,1982,IN,92.83,267.5,282.5,-297.5,282.5,155,162.5,167.5,167.5,275,287.5,-300,287.5,737.5
5,Ross Leppala,M,SBD,R-O,93,Raw,1984,AK,83.81,240,255,-267.5,255,180,187.5,190,190,252.5,267.5,277.5,277.5,722.5
6,Dawson Windham,M,SBD,R-O,93,Raw,1998,SC,92.65,237.5,252.5,262.5,262.5,175,182.5,-187.5,182.5,-270,270,-300,270,715
7,Michael Condo,M,SBD,R-O,93,Raw,1995,OH,90.85,222.5,230,235,235,155,162.5,165,165,300,312.5,-317.5,312.5,712.5
DD,Derrington Wright,M,SBD,R-O,105,Raw,1992,OR,98.35,267.5,285,300,300,185,195,202.5,202.5,292.5,312.5,327.5,327.5,
1,Collin Whitney,M,SBD,R-O,105,Raw,1990,PA,103.65,255,267.5,277.5,277.5,190,200,205,205,295,312.5,-320,312.5,795
2,Walker Bradshaw,M,SBD,R-O,105,Raw,1992,NY,104.93,260,275,285,285,165,175,182.5,182.5,310,322.5,,322.5,790
3,Joseph Franzo,M,SBD,R-O,105,Raw,1990,CA,104.67,272.5,285,292.5,292.5,187.5,195,200,200,265,282.5,290,290,782.5
4,Theodore Mouratidis,M,SBD,R-O,105,Raw,1993,MA,103.83,247.5,262.5,270,270,162.5,-170,-170,162.5,300,320,335,335,767.5
5,Andrew Stone,M,SBD,R-O,105,Raw,1994,VA,103.46,262.5,277.5,-287.5,277.5,145,152.5,155,155,292.5,302.5,310,310,742.5
1,Matthew Cronin,M,SBD,R-O,120,Raw,1990,VA,119.44,282.5,295,305,305,207.5,217.5,-222.5,217.5,265,282.5,287.5,287.5,810
2,Kevin Phillipson,M,SBD,R-O,120,Raw,1980,FL,118.65,250,265,275,275,185,195,202.5,202.5,297.5,317.5,-335,317.5,795
3,Tyler Cierski,M,SBD,R-O,120,Raw,1992,VA,119.1,300,315,330,330,145,152.5,-160,152.5,300,-320,-320,300,782.5
1,Jamey Grotjahn,M,SBD,R-O,120+,Raw,1974,AK,177.46,275,290,302.5,302.5,225,240,-252.5,240,300,325,-335,325,867.5
2,John D Jones Jr,M,SBD,R-O,120+,Raw,1986,MD,133.15,275,292.5,305,305,205,-217.5,217.5,217.5,287.5,307.5,-322.5,307.5,830
3,Carley Skarupinski,M,SBD,R-O,120+,Raw,1990,NY,159.4,310,-325,327.5,327.5,182.5,190,-192.5,190,-277.5,297.5,310,310,827.5
